{
    "data": {
        "status": [
            {
                "code": "UNAVAILABLE",
                "explanation": "Erro na atualização",
                "detectionTime": "2021-10-03T00:30:00Z",
                "expectedResolutionTime": "2021-10-03T01:00:00Z",
                "updateTime": "2021-10-01T02:00:00Z",
                "unavailableEndpoints": [
                    "https://api.bradesco.com/bradesco/open-banking/personal/identifications",
                    "https://api.bradesco.com/bradesco/open-banking/personal/qualifications",
                    "https://api.bradesco.com/bradesco/open-banking/personal/financial-relations",
                    "https://api.bradesco.com/bradesco/open-banking/business/identifications",
                    "https://api.bradesco.com/bradesco/open-banking/business/qualifications",
                    "https://api.bradesco.com/bradesco/open-banking/business/financial-relations"
                ]
            }
        ]
    },
    "links": {
        "first": "https://api.bradesco.com/bradesco/open-banking/discovery/v1/status?page=1&page-size=1",
        "prev": "https://api.bradesco.com/bradesco/open-banking/discovery/v1/status?page=10&page-size=1",
        "self": "https://api.bradesco.com/bradesco/open-banking/discovery/v1/status?page=11&page-size=1",
        "next": "https://api.bradesco.com/bradesco/open-banking/discovery/v1/status?page=12&page-size=1",
        "last": "https://api.bradesco.com/bradesco/open-banking/discovery/v1/status?page=14&page-size=1"
    },
    "meta": {
        "totalRecords": 14,
        "totalPages": 14
    }
}