{
    "data": [
        {
            "billId": "fb3bdb08-db62-11eb-8d19-0242ac130003",
            "dueDate": "2022-05-10",
            "billTotalAmount": {
                "amount": "4099.1200",
                "currency": "BRL"
            },
            "billMinimumAmount": {
                "amount": "497.1600",
                "currency": "BRL"
            },
            "isInstalment": true,
            "payments": [
                {
                    "valueType": "VALOR_PAGAMENTO_FATURA_REALIZADO",
                    "paymentDate": "2022-05-10",
                    "paymentMode": "PIX",
                    "amount": "4099.1200",
                    "currency": "BRL"
                }
            ]
        }
    ],
    "links": {
        "self": "https://api.caixa.gov.br/open-banking/credit-cards-accounts/v1/accounts/5cd65564-db2c-11eb-8d19-0242ac130003/bills?page=3&page-size=3",
        "prev": "https://api.caixa.gov.br/open-banking/credit-cards-accounts/v1/accounts/5cd65564-db2c-11eb-8d19-0242ac130003/bills?page=2&page-size=3",
        "first": "https://api.caixa.gov.br/open-banking/credit-cards-accounts/v1/accounts/5cd65564-db2c-11eb-8d19-0242ac130003/bills?page=1&page-size=3"
    },
    "meta": {
        "totalRecords": 5,
        "totalPages": 3,
        "requestDateTime": "2022-09-16T11:04:00Z"
    }
}