{
    "data": [
        {
            "billId": "c0fa0c4b-afce-465f-8468-470452087167",
            "dueDate": "2020-07-05",
            "billTotalAmount": {
                "amount": "4222.0000",
                "currency": "BRL"
            },
            "billMinimumAmount": {
                "amount": "42.2200",
                "currency": "BRL"
            },
            "isInstalment": true,
            "payments": [
                {
                    "valueType": "VALOR_PAGAMENTO_FATURA_REALIZADO",
                    "paymentDate": "2020-07-04",
                    "paymentMode": "DEBITO_CONTA_CORRENTE",
                    "amount": "4222.0000",
                    "currency": "BRL"
                }
            ]
        },
        {
            "billId": "970e496f-a5f2-4243-824b-130a06f7395f",
            "dueDate": "2020-06-05",
            "billTotalAmount": {
                "amount": "4693.1500",
                "currency": "BRL"
            },
            "billMinimumAmount": {
                "amount": "46.9315",
                "currency": "BRL"
            },
            "isInstalment": true,
            "payments": [
                {
                    "valueType": "VALOR_PAGAMENTO_FATURA_REALIZADO",
                    "paymentDate": "2020-06-04",
                    "paymentMode": "DEBITO_CONTA_CORRENTE",
                    "amount": "4693.1500",
                    "currency": "BRL"
                }
            ]
        },
        {
            "billId": "c56e28cf-fe19-40b4-9443-c2e39c420145",
            "dueDate": "2020-05-05",
            "billTotalAmount": {
                "amount": "4701.3600",
                "currency": "BRL"
            },
            "billMinimumAmount": {
                "amount": "47.0136",
                "currency": "BRL"
            },
            "isInstalment": true,
            "payments": [
                {
                    "valueType": "VALOR_PAGAMENTO_FATURA_REALIZADO",
                    "paymentDate": "2020-05-04",
                    "paymentMode": "DEBITO_CONTA_CORRENTE",
                    "amount": "4701.3600",
                    "currency": "BRL"
                }
            ]
        },
        {
            "billId": "970db4a6-ec99-4c68-81aa-79c92578b776",
            "dueDate": "2020-04-05",
            "billTotalAmount": {
                "amount": "5320.6100",
                "currency": "BRL"
            },
            "billMinimumAmount": {
                "amount": "53.2061",
                "currency": "BRL"
            },
            "isInstalment": true,
            "payments": [
                {
                    "valueType": "VALOR_PAGAMENTO_FATURA_REALIZADO",
                    "paymentDate": "2020-04-04",
                    "paymentMode": "DEBITO_CONTA_CORRENTE",
                    "amount": "5320.6100",
                    "currency": "BRL"
                }
            ]
        },
        {
            "billId": "b6fbab35-a9a7-4d6c-8f63-4da6d9b2fd3f",
            "dueDate": "2020-03-05",
            "billTotalAmount": {
                "amount": "4917.8400",
                "currency": "BRL"
            },
            "billMinimumAmount": {
                "amount": "49.1784",
                "currency": "BRL"
            },
            "isInstalment": true,
            "payments": [
                {
                    "valueType": "VALOR_PAGAMENTO_FATURA_REALIZADO",
                    "paymentDate": "2020-03-04",
                    "paymentMode": "BOLETO_BANCARIO",
                    "amount": "4917.8400",
                    "currency": "BRL"
                }
            ]
        },
        {
            "billId": "701d6702-d3d8-47d1-b034-7f6ef0de9259",
            "dueDate": "2020-02-05",
            "billTotalAmount": {
                "amount": "6438.4700",
                "currency": "BRL"
            },
            "billMinimumAmount": {
                "amount": "64.3847",
                "cCurrency": "BRL"
            },
            "isInstalment": true,
            "payments": [
                {
                    "valueType": "VALOR_PAGAMENTO_FATURA_REALIZADO",
                    "paymentDate": "2020-02-04",
                    "paymentMode": "AVERBACAO_FOLHA",
                    "amount": "6438.4700",
                    "currency": "BRL"
                }
            ]
        },
        {
            "billId": "dac67fd8-5ba7-42eb-a998-3ed2aedf0410",
            "dueDate": "2020-01-05",
            "billTotalAmount": {
                "amount": "6952.7400",
                "currency": "BRL"
            },
            "billMinimumAmount": {
                "amount": "69.5274",
                "currency": "BRL"
            },
            "isInstalment": true,
            "payments": [
                {
                    "valueType": "VALOR_PAGAMENTO_FATURA_REALIZADO",
                    "paymentDate": "2020-01-04",
                    "paymentMode": "PIX",
                    "amount": "6952.7400",
                    "currency": "BRL"
                }
            ]
        },
        {
            "billId": "49ff8937-cbc2-47e2-8999-928e3caeb212",
            "dueDate": "2019-12-05",
            "billTotalAmount": {
                "amount": "7001.6900",
                "currency": "BRL"
            },
            "billMinimumAmount": {
                "amount": "70.0169",
                "currency": "BRL"
            },
            "isInstalment": true,
            "payments": [
                {
                    "valueType": "VALOR_PAGAMENTO_FATURA_REALIZADO",
                    "paymentDate": "2019-12-04",
                    "paymentMode": "DEBITO_CONTA_CORRENTE",
                    "amount": "7001.6900",
                    "currency": "BRL"
                }
            ]
        },
        {
            "billId": "1e75ee50-1a60-4ba5-9cb3-e87475bb9bfc",
            "dueDate": "2019-11-05",
            "billTotalAmount": {
                "amount": "6102.8800",
                "currency": "BRL"
            },
            "billMinimumAmount": {
                "amount": "61.0288",
                "currency": "BRL"
            },
            "isInstalment": true,
            "payments": [
                {
                    "valueType": "VALOR_PAGAMENTO_FATURA_REALIZADO",
                    "paymentDate": "2019-11-04",
                    "paymentMode": "DEBITO_CONTA_CORRENTE",
                    "amount": "6102.8800",
                    "currency": "BRL"
                }
            ]
        },
        {
            "billId": "b9e2af80-dd0b-4b07-bc34-bb6ca0705775",
            "dueDate": "2019-10-05",
            "billTotalAmount": {
                "amount": "7998.1300",
                "currency": "BRL"
            },
            "billMinimumAmount": {
                "amount": "79.9813",
                "currency": "BRL"
            },
            "isInstalment": true,
            "payments": [
                {
                    "valueType": "VALOR_PAGAMENTO_FATURA_REALIZADO",
                    "paymentDate": "2019-10-04",
                    "paymentMode": "DEBITO_CONTA_CORRENTE",
                    "amount": "7998.1300",
                    "currency": "BRL"
                }
            ]
        },
        {
            "billId": "6274949e-6e0b-4153-8682-9a6307a9efe6",
            "dueDate": "2019-09-05",
            "billTotalAmount": {
                "amount": "3298.7600",
                "currency": "BRL"
            },
            "billMinimumAmount": {
                "amount": "32.9876",
                "currency": "BRL"
            },
            "isInstalment": true,
            "payments": [
                {
                    "valueType": "VALOR_PAGAMENTO_FATURA_REALIZADO",
                    "paymentDate": "2019-09-04",
                    "paymentMode": "DEBITO_CONTA_CORRENTE",
                    "amount": "3298.7600",
                    "currency": "BRL"
                }
            ]
        },
        {
            "billId": "40ed092b-6714-4412-b055-937f7f169991",
            "dueDate": "2019-08-05",
            "billTotalAmount": {
                "amount": "5788.0500",
                "currency": "BRL"
            },
            "billMinimumAmount": {
                "amount": "57.88056",
                "currency": "BRL"
            },
            "isInstalment": true,
            "payments": [
                {
                    "valueType": "VALOR_PAGAMENTO_FATURA_REALIZADO",
                    "paymentDate": "2019-08-04",
                    "paymentMode": "DEBITO_CONTA_CORRENTE",
                    "amount": "5788.0500",
                    "currency": "BRL"
                }
            ]
        },
        {
            "billId": "a859c8ca-c8f6-42ba-8b06-a7e07853b38e",
            "dueDate": "2019-07-05",
            "billTotalAmount": {
                "amount": "4923.1700",
                "currency": "BRL"
            },
            "billMinimumAmount": {
                "amount": "49.2317",
                "currency": "BRL"
            },
            "isInstalment": true,
            "payments": [
                {
                    "valueType": "VALOR_PAGAMENTO_FATURA_REALIZADO",
                    "paymentDate": "2019-07-04",
                    "paymentMode": "DEBITO_CONTA_CORRENTE",
                    "amount": "4923.1700",
                    "currency": "BRL"
                }
            ]
        },
        {
            "billId": "c2209cd0-306b-4187-96e6-231d8ed461a0",
            "dueDate": "2019-06-05",
            "billTotalAmount": {
                "amount": "4622.8500",
                "currency": "BRL"
            },
            "billMinimumAmount": {
                "amount": "46.2285",
                "currency": "BRL"
            },
            "isInstalment": true,
            "payments": [
                {
                    "valueType": "VALOR_PAGAMENTO_FATURA_REALIZADO",
                    "paymentDate": "2019-06-04",
                    "paymentMode": "DEBITO_CONTA_CORRENTE",
                    "amount": "4622.8500",
                    "currency": "BRL"
                }
            ]
        },
        {
            "billId": "8f97974f-9e3b-46a1-a24d-3f83fa8418e4",
            "dueDate": "2019-05-05",
            "billTotalAmount": {
                "amount": "5106.3000",
                "currency": "BRL"
            },
            "billMinimumAmount": {
                "amount": "51.0630",
                "currency": "BRL"
            },
            "isInstalment": true,
            "payments": [
                {
                    "valueType": "VALOR_PAGAMENTO_FATURA_REALIZADO",
                    "paymentDate": "2019-05-04",
                    "paymentMode": "DEBITO_CONTA_CORRENTE",
                    "amount": "5106.3000",
                    "currency": "BRL"
                }
            ]
        },
        {
            "billId": "313394aa-b26f-4e43-8568-487f7852ce1e",
            "dueDate": "2019-04-05",
            "billTotalAmount": {
                "amount": "3831.9600",
                "currency": "BRL"
            },
            "billMinimumAmount": {
                "amount": "38.3196",
                "currency": "BRL"
            },
            "isInstalment": true,
            "payments": [
                {
                    "valueType": "VALOR_PAGAMENTO_FATURA_REALIZADO",
                    "paymentDate": "2019-04-04",
                    "paymentMode": "DEBITO_CONTA_CORRENTE",
                    "amount": "3831.9600",
                    "currency": "BRL"
                }
            ]
        },
        {
            "billId": "d2c3c097-dd0f-4fca-abc2-692b5aeb4a13",
            "dueDate": "2019-03-05",
            "billTotalAmount": {
                "amount": "5272.1800",
                "currency": "BRL"
            },
            "billMinimumAmount": {
                "amount": "52.7218",
                "currency": "BRL"
            },
            "isInstalment": true,
            "payments": [
                {
                    "valueType": "VALOR_PAGAMENTO_FATURA_REALIZADO",
                    "paymentDate": "2019-03-04",
                    "paymentMode": "DEBITO_CONTA_CORRENTE",
                    "amount": "5272.1800",
                    "currency": "BRL"
                }
            ]
        },
        {
            "billId": "ad8f71cf-e2d7-400c-a618-c248e12fe27e",
            "dueDate": "2019-02-05",
            "billTotalAmount": {
                "amount": "4022.2200",
                "currency": "BRL"
            },
            "billMinimumAmount": {
                "amount": "40.2220",
                "currency": "BRL"
            },
            "isInstalment": true,
            "payments": [
                {
                    "valueType": "VALOR_PAGAMENTO_FATURA_REALIZADO",
                    "paymentDate": "2019-02-04",
                    "paymentMode": "DEBITO_CONTA_CORRENTE",
                    "amount": "4022.2200",
                    "currency": "BRL"
                }
            ]
        },
        {
            "billId": "2564fe0c-193e-400d-a120-737871e1fb70",
            "dueDate": "2019-01-05",
            "billTotalAmount": {
                "amount": "4163.8500",
                "currency": "BRL"
            },
            "billMinimumAmount": {
                "amount": "41.6385",
                "currency": "BRL"
            },
            "isInstalment": true,
            "payments": [
                {
                    "valueType": "VALOR_PAGAMENTO_FATURA_REALIZADO",
                    "paymentDate": "2019-01-04",
                    "paymentMode": "DEBITO_CONTA_CORRENTE",
                    "amount": "4163.8500",
                    "currency": "BRL"
                }
            ]
        },
        {
            "billId": "6c1d3fa1-a2f5-49cb-b807-87b4bf75f787",
            "dueDate": "2018-12-05",
            "billTotalAmount": {
                "amount": "6189.3600",
                "currency": "BRL"
            },
            "billMinimumAmount": {
                "amount": "61.8936",
                "currency": "BRL"
            },
            "isInstalment": true,
            "payments": [
                {
                    "valueType": "VALOR_PAGAMENTO_FATURA_REALIZADO",
                    "paymentDate": "2018-12-04",
                    "paymentMode": "DEBITO_CONTA_CORRENTE",
                    "amount": "6189.3600",
                    "currency": "BRL"
                }
            ]
        },
        {
            "billId": "d2ff3bdf-b752-4db4-a16e-2d1307fc8563",
            "dueDate": "2018-11-05",
            "billTotalAmount": {
                "amount": "8721.4900",
                "currency": "BRL"
            },
            "billMinimumAmount": {
                "amount": "87.2149",
                "currency": "BRL"
            },
            "isInstalment": true,
            "payments": [
                {
                    "valueType": "VALOR_PAGAMENTO_FATURA_REALIZADO",
                    "paymentDate": "2018-11-04",
                    "paymentMode": "DEBITO_CONTA_CORRENTE",
                    "amount": "8721.4900",
                    "currency": "BRL"
                }
            ]
        },
        {
            "billId": "8dd30f9d-748f-4613-a670-6862d5dd45ad",
            "dueDate": "2018-10-05",
            "billTotalAmount": {
                "amount": "5352.8400",
                "currency": "BRL"
            },
            "billMinimumAmount": {
                "amount": "53.5284",
                "currency": "BRL"
            },
            "isInstalment": true,
            "payments": [
                {
                    "valueType": "VALOR_PAGAMENTO_FATURA_REALIZADO",
                    "paymentDate": "2018-10-04",
                    "paymentMode": "DEBITO_CONTA_CORRENTE",
                    "amount": "5352.8400",
                    "currency": "BRL"
                }
            ]
        },
        {
            "billId": "364a47ec-f6ee-4aeb-9b82-c4212ee3b44c",
            "dueDate": "2018-09-05",
            "billTotalAmount": {
                "amount": "5964.0600",
                "currency": "BRL"
            },
            "billMinimumAmount": {
                "amount": "59.6406",
                "currency": "BRL"
            },
            "isInstalment": true,
            "payments": [
                {
                    "valueType": "VALOR_PAGAMENTO_FATURA_REALIZADO",
                    "paymentDate": "2018-09-04",
                    "paymentMode": "DEBITO_CONTA_CORRENTE",
                    "amount": "5964.0600",
                    "currency": "BRL"
                }
            ]
        },
        {
            "billId": "8192d0a9-5950-4948-b3a7-dfa0d5a8a086",
            "dueDate": "2018-08-05",
            "billTotalAmount": {
                "amount": "4872.7000",
                "currency": "BRL"
            },
            "billMinimumAmount": {
                "amount": "48.7270",
                "currency": "BRL"
            },
            "isInstalment": true,
            "payments": [
                {
                    "valueType": "VALOR_PAGAMENTO_FATURA_REALIZADO",
                    "paymentDate": "2018-08-04",
                    "paymentMode": "DEBITO_CONTA_CORRENTE",
                    "amount": "4872.7000",
                    "currency": "BRL"
                }
            ]
        },
        {
            "billId": "0ca08f7e-e140-49e3-920a-f8693def4963",
            "dueDate": "2018-07-05",
            "billTotalAmount": {
                "amount": "3687.6900",
                "currency": "BRL"
            },
            "billMinimumAmount": {
                "amount": "36.8769",
                "currency": "BRL"
            },
            "isInstalment": true,
            "payments": [
                {
                    "valueType": "VALOR_PAGAMENTO_FATURA_REALIZADO",
                    "paymentDate": "2018-07-04",
                    "paymentMode": "DEBITO_CONTA_CORRENTE",
                    "amount": "3687.6900",
                    "currency": "BRL"
                }
            ]
        }
    ],
    "links": {
        "self": "https://api.caixa.gov.br/open-banking/credit-cards-accounts/v1/accounts/0cd8e31e-db2d-11eb-8d19-0242ac130003/bills?page=2&page-size=25&fromDueDate=2018-05-01?toDueDate=2022-08-31",
        "first": "https://api.caixa.gov.br/open-banking/credit-cards-accounts/v1/accounts/0cd8e31e-db2d-11eb-8d19-0242ac130003/bills?page=1&page-size=25&fromDueDate=2018-05-01?toDueDate=2022-08-31",
        "prev": "https://api.caixa.gov.br/open-banking/credit-cards-accounts/v1/accounts/0cd8e31e-db2d-11eb-8d19-0242ac130003/bills?page=1&page-size=25&fromDueDate=2018-05-01?toDueDate=2022-08-31",
        "next": "https://api.caixa.gov.br/open-banking/credit-cards-accounts/v1/accounts/0cd8e31e-db2d-11eb-8d19-0242ac130003/bills?page=3&page-size=25&fromDueDate=2018-05-01?toDueDate=2022-08-31",
        "last": "https://api.caixa.gov.br/open-banking/credit-cards-accounts/v1/accounts/0cd8e31e-db2d-11eb-8d19-0242ac130003/bills?page=3&page-size=25&fromDueDate=2018-05-01?toDueDate=2022-08-31"
    },
    "meta": {
        "totalRecords": 52,
        "totalPages": 3,
        "requestDateTime": "2022-09-16T11:04:00Z"
    }
}