{
    "data": [
        {
            "billId": "b5c4e68a-db5a-11eb-8d19-0242ac130003",
            "dueDate": "2022-09-10",
            "billTotalAmount": {
                "amount": "26512.0000",
                "currency": "BRL"
            },
            "billMinimumAmount": {
                "amount": "350.0000",
                "currency": "BRL"
            },
            "isInstalment": true,
            "financeCharges": [
                {
                    "type": "JUROS_MORA_ATRASO_PAGAMENTO_FATURA",
                    "amount": "12.0000",
                    "currency": "BRL"
                }
            ],
            "payments": [
                {
                    "valueType": "VALOR_PAGAMENTO_FATURA_PARCELADO",
                    "paymentDate": "2022-09-15",
                    "paymentMode": "BOLETO_BANCARIO",
                    "amount": "13256.0000",
                    "currency": "BRL"
                }
            ]
        },
        {
            "billId": "8bce4fc8-db5b-11eb-8d19-0242ac130003",
            "dueDate": "2022-08-10",
            "billTotalAmount": {
                "amount": "4010.1700",
                "currency": "BRL"
            },
            "billMinimumAmount": {
                "amount": "400.7200",
                "currency": "BRL"
            },
            "isInstalment": true,
            "financeCharges": [
                {
                    "type": "IOF",
                    "amount": "56.9800",
                    "currency": "BRL"
                },
                {
                    "type": "JUROS_MORA_ATRASO_PAGAMENTO_FATURA",
                    "amount": "92.3000",
                    "currency": "BRL"
                }
            ],
            "payments": [
                {
                    "valueType": "VALOR_PAGAMENTO_FATURA_REALIZADO",
                    "paymentDate": "2022-08-10",
                    "paymentMode": "AVERBACAO_FOLHA",
                    "amount": "4010.1700",
                    "currency": "BRL"
                }
            ]
        }
    ],
    "links": {
        "self": "https://api.caixa.gov.br/open-banking/credit-cards-accounts/v1/accounts/5cd65564-db2c-11eb-8d19-0242ac130003/bills?page=1&page-size=2",
        "first": "https://api.caixa.gov.br/open-banking/credit-cards-accounts/v1/accounts/5cd65564-db2c-11eb-8d19-0242ac130003/bills?page=1&page-size=2",
        "next": "https://api.caixa.gov.br/open-banking/credit-cards-accounts/v1/accounts/5cd65564-db2c-11eb-8d19-0242ac130003/bills?page=2&page-size=2",
        "last": "https://api.caixa.gov.br/open-banking/credit-cards-accounts/v1/accounts/5cd65564-db2c-11eb-8d19-0242ac130003/bills?page=3&page-size=2"
    },
    "meta": {
        "totalRecords": 5,
        "totalPages": 3,
        "requestDateTime": "2022-09-16T11:04:00Z"
    }
}