{
    "data": [
        {
            "billId": "b65c778c-d8f7-11eb-b8bc-0242ac130003",
            "dueDate": "2018-06-05",
            "billTotalAmount": {
                "amount": "2871.6600",
                "currency": "BRL"
            },
            "billMinimumAmount": {
                "amount": "28.7166",
                "currency": "BRL"
            },
            "isInstalment": true,
            "payments": [
                {
                    "valueType": "VALOR_PAGAMENTO_FATURA_REALIZADO",
                    "paymentDate": "2018-06-04",
                    "paymentMode": "DEBITO_CONTA_CORRENTE",
                    "amount": "2871.6600",
                    "currency": "BRL"
                }
            ]
        },
        {
            "billId": "b65c8092-d8f7-11eb-b8bc-0242ac130003",
            "dueDate": "2018-05-05",
            "billTotalAmount": {
                "amount": "2330.8800",
                "currency": "BRL"
            },
            "billMinimumAmount": {
                "amount": "23.3088",
                "currency": "BRL"
            },
            "isInstalment": true,
            "payments": [
                {
                    "valueType": "VALOR_PAGAMENTO_FATURA_REALIZADO",
                    "paymentDate": "2018-05-04",
                    "paymentMode": "DEBITO_CONTA_CORRENTE",
                    "amount": "2330.8800",
                    "currency": "BRL"
                }
            ]
        }
    ],
    "links": {
        "self": "https://api.caixa.gov.br/open-banking/credit-cards-accounts/v1/accounts/b22632a4-d8e4-11eb-b8bc-0242ac130003/bills?page=2&page-size=25&fromDueDate=2018-05-01?toDueDate=2022-08-31",
        "first": "https://api.caixa.gov.br/open-banking/credit-cards-accounts/v1/accounts/b22632a4-d8e4-11eb-b8bc-0242ac130003/bills?page=1&page-size=25&fromDueDate=2018-05-01?toDueDate=2022-08-31",
        "prev": "https://api.caixa.gov.br/open-banking/credit-cards-accounts/v1/accounts/b22632a4-d8e4-11eb-b8bc-0242ac130003/bills?page=1&page-size=25&fromDueDate=2018-05-01?toDueDate=2022-08-31",
        "next": "https://api.caixa.gov.br/open-banking/credit-cards-accounts/v1/accounts/b22632a4-d8e4-11eb-b8bc-0242ac130003/bills?page=3&page-size=25&fromDueDate=2018-05-01?toDueDate=2022-08-31",
        "last": "https://api.caixa.gov.br/open-banking/credit-cards-accounts/v1/accounts/b22632a4-d8e4-11eb-b8bc-0242ac130003/bills?page=3&page-size=52&fromDueDate=2018-05-01?toDueDate=2022-08-31"
    },
    "meta": {
        "totalRecords": 52,
        "totalPages": 3,
        "requestDateTime": "2022-09-09T09:56:00Z"
    }
}