{
  "data": [
    {
      "contractId": "697741123110107921187517400340333895224710",
      "brandName": "Caixa Econômica Federal",
      "companyCnpj": "00360305000104",
      "productType": "FINANCIAMENTOS_IMOBILIARIOS",
      "productSubType": "FINANCIAMENTO_HABITACIONAL_EXCETO_SFH",
      "ipocCode": "00360305090212872886281368902687455120125" 
    }
  ],
  "links": {
    "self": "https://api.caixa.gov.br/open-banking/financings/v1/contracts?page=4&page-size=1",
    "first": "https://api.caixa.gov.br/open-banking/financings/v1/contracts?page=1&page-size=1",
    "prev": "https://api.caixa.gov.br/open-banking/financings/v1/contracts?page=3&page-size=1",
    "next": "https://api.caixa.gov.br/open-banking/financings/v1/contracts?page=5&page-size=1",
    "last": "https://api.caixa.gov.br/open-banking/financings/v1/contracts?page=5&page-size=1"
  },
  "meta": {
    "totalRecords": 5,
    "totalPages": 5,
    "requestDateTime": "2021-09-02T08:36:00Z"
  }
} 