{
    "data": {
        "brand": {
            "name": "Agencia 0718 - Alto Paraná",
            "companies": [
                {
                    "name": "COOPERATIVA DE CRÉDITO, POUPANÇA E INVESTIMENTO RIO PARANÁ - SICREDI RIO PARANÁ PR/SP",
                    "cnpjNumber": "81206039000161",
                    "urlComplementaryList": "https://www.sicredi.com.br/site/localizar-agencia",
                    "electronicChannels": [
                        {
                            "identification": {
                                "type": "INTERNET_BANKING",
                                "urls": [
                                    "https://www.sicredi.com.br/site/home"
                                ]
                            },
                            "services": [
                                {
                                    "name": "ABERTURA_CONTAS_DEPOSITOS_OU_PAGAMENTO_PRE_PAGA",
                                    "code": "ABRE_CONTA_DEPOSITO_OU_PRE_PAGA"
                                },
                                {
                                    "name": "SAQUE_MOEDA_EM_ESPECIE",
                                    "code": "SAQUE_MOEDA_ESPECIE"
                                },
                                {
                                    "name": "TRANSFERENCIAS_ELETRONICAS_VISANDO_MOVIMENTACAO_CONTAS_DEPOSITOS_OU_PAGAMENTO_TITULARIDADE_CLIENTES",
                                    "code": "TRANSFERENCIAS_ELETRONICAS_MOVIMENTA_CONTAS_DEPOSITOS_OU_PAGTO_TITULARES_CLIENTES"
                                },
                                {
                                    "name": "CONSULTA_SALDOS_EXTRATOS_CONTAS_DEPOSITOS_CONTAS_PAGAMENTOS, APLICACOES_RESGATES_INVESTIMENTOS",
                                    "code": "CONSULTA_SALDOS_EXTRATOS_CONTAS_DEPOSITOS_PAGTOS"
                                },
                                {
                                    "name": "OPERACOES_CREDITO_BEM_COMO_OUTROS_SERVICOS_PRESTADOS_ACOMPANHAMENTO_OPERACAO",
                                    "code": "OPERA_CREDITO_OUTROS_SERVICOS_ACOMPANHA_OPERACAO"
                                },
                                {
                                    "name": "CARTAO_CREDITO",
                                    "code": "CARTAO_CREDITO"
                                },
                                {
                                    "name": "OUTROS_PRODUTOS_SERVICOS",
                                    "code": "OUTROS_PRODUTOS_SERVICOS"
                                },
                                {
                                    "name": "CANCELAMENTO",
                                    "code": "CANCELAMENTO"
                                },
                                {
                                    "name": "INFORMACOES",
                                    "code": "INFORMACOES"
                                },
                                {
                                    "name": "RECLAMACOES",
                                    "code": "RECLAMACOES"
                                }
                            ]
                        },
                        {
                            "identification": {
                                "type": "SAC",
                                "urls": [
                                    "https://www.sicredi.com.br/fale-conosco/"
                                ]
                            },
                            "services": [
                                {
                                    "name": "OUTROS_PRODUTOS_SERVICOS",
                                    "code": "OUTROS_PRODUTOS_SERVICOS",
                                    "additionalInfo": "Consultas em geral"

                                },
                                {
                                    "name": "CANCELAMENTO",
                                    "code": "CANCELAMENTO"
                                },
                                {
                                    "name": "RECLAMACOES",
                                    "code": "RECLAMACOES"
                                }
                            ]
                        }
                    ]
                }
            ]
        }
    },
    "links": {
        "self": "https://api.sicredi.com.br/open-banking/channels/v1/eletronic-channels?page=1&page-size=1",
        "next": "https://api.sicredi.com.br/open-banking/channels/v1/eletronic-channels?page=2&page-size=1",
        "last": "https://api.sicredi.com.br/open-banking/channels/v1/eletronic-channels?page=1&page-size=5",
        "first": "https://api.sicredi.com.br/open-banking/channels/v1/eletronic-channels?page=1&page-size=1"
        
    },
    "meta": {
        "totalRecords": 5,
        "totalPages": 5
    }
}