{
    "data": [
        {
            "contractId": "5d18c5fe-ba69-3a9e-a343-dca4d2a1cf6c",
            "brandName": "Banco do Brasil S.A",
            "companyCnpj": "00000000000191",
            "productType": "EMPRESTIMOS",
            "productSubType": "HOME_EQUITY",
            "ipocCode": "00000000021129654274600165465416"
        },
        {
            "contractId": "331491ea-4d1c-3418-b0db-c8a069362d2d",
            "brandName": "Banco do Brasil S.A",
            "companyCnpj": "00000000000191",
            "productType": "EMPRESTIMOS",
            "productSubType": "CHEQUE_ESPECIAL",
            "ipocCode": "00000000021329654274600156406515"
        },
        {
            "contractId": "318bddb2-dd30-4abb-8368-9271aa567480",
            "brandName": "Banco do Brasil S.A",
            "companyCnpj": "00000000000191",
            "productType": "EMPRESTIMOS",
            "productSubType": "CHEQUE_ESPECIAL",
            "ipocCode": "00000000021329654274600165406514"
        },
        {
            "contractId": "3b433f92-4570-495a-a54e-1f9bebca9292",
            "brandName": "Banco do Brasil S.A",
            "companyCnpj": "00000000000191",
            "productType": "EMPRESTIMOS",
            "productSubType": "CHEQUE_ESPECIAL",
            "ipocCode": "00000000021329654274600154546504613"
        },
        {
            "contractId": "e7489b77-fca7-37e7-8a5a-d3efb3595a3a",
            "brandName": "Banco do Brasil S.A",
            "companyCnpj": "00000000000191",
            "productType": "EMPRESTIMOS",
            "productSubType": "CONTA_GARANTIDA",
            "ipocCode": "00000000021429654274600154654612"
        },
        {
            "contractId": "db8d9fb4-0e8d-4628-a655-527dc9632583",
            "brandName": "Banco do Brasil S.A",
            "companyCnpj": "00000000000191",
            "productType": "EMPRESTIMOS",
            "productSubType": "CAPITAL_GIRO_TETO_ROTATIVO",
            "ipocCode": "0000000002172965427460016540599"
        },
        {
            "contractId": "1ff29059-3105-43cd-a55a-20652d73604b",
            "brandName": "Banco do Brasil S.A",
            "companyCnpj": "00000000000191",
            "productType": "EMPRESTIMOS",
            "productSubType": "CREDITO_PESSOAL_SEM_CONSIGNACAO",
            "ipocCode": "000000000203296542746001654056488"
        },
        {
            "contractId": "54584bb4-06da-48b8-b4c8-a93cafbb5e00",
            "brandName": "Banco do Brasil S.A",
            "companyCnpj": "00000000000191",
            "productType": "EMPRESTIMOS",
            "productSubType": "CREDITO_PESSOAL_SEM_CONSIGNACAO",
            "ipocCode": "00000000020329654274600154654077"
        },
        {
            "contractId": "77d4f82a-fa60-4cd2-ab78-78d7b9b25011",
            "brandName": "Banco do Brasil S.A",
            "companyCnpj": "00000000000191",
            "productType": "EMPRESTIMOS",
            "productSubType": "CREDITO_PESSOAL_COM_CONSIGNACAO",
            "ipocCode": "000000000202296542746001654066"
        },
        {
            "contractId": "f380c14f-4c2c-4b0a-9ad3-a3abfebe434b",
            "brandName": "Banco do Brasil S.A",
            "companyCnpj": "00000000000191",
            "productType": "EMPRESTIMOS",
            "productSubType": "MICROCREDITO_PRODUTIVO_ORIENTADO",
            "ipocCode": "0000000002122965427460016540655"
        },
        {
            "contractId": "a18bc10f-e13c-4264-a4eb-f2e99b979fd5",
            "brandName": "Banco do Brasil S.A",
            "companyCnpj": "00000000000191",
            "productType": "EMPRESTIMOS",
            "productSubType": "MICROCREDITO_PRODUTIVO_ORIENTADO",
            "ipocCode": "0000000002122965427460016541044"
        },
        {
            "contractId": "2e3a4adc-e94f-46e2-bcca-b8103fee3664",
            "brandName": "Banco do Brasil S.A",
            "companyCnpj": "00000000000191",
            "productType": "EMPRESTIMOS",
            "productSubType": "CAPITAL_GIRO_PRAZO_VENCIMENTO_ATE_365_DIAS",
            "ipocCode": "00000000021529654274600165405433"
        },
        {
            "contractId": "8fbf362c-4d41-4032-b738-32dc7bd18ee7",
            "brandName": "Banco do Brasil S.A",
            "companyCnpj": "00000000000191",
            "productType": "EMPRESTIMOS",
            "productSubType": "CAPITAL_GIRO_PRAZO_VENCIMENTO_SUPERIOR_365_DIAS",
            "ipocCode": "00000000021629654274600165410622"
        },
        {
            "contractId": "bdc20942-2b0d-43eb-a78e-496095f0864b",
            "brandName": "Banco do Brasil S.A",
            "companyCnpj": "00000000000191",
            "productType": "EMPRESTIMOS",
            "productSubType": "CAPITAL_GIRO_PRAZO_VENCIMENTO_SUPERIOR_365_DIAS",
            "ipocCode": "000000000216296542746001654106511"
        },
        {
            "contractId": "939ab458-6f1d-e911-80e0-d4ae52aa818f",
            "brandName": "Banco do Brasil S.A",
            "companyCnpj": "00000000000191",
            "productType": "EMPRESTIMOS",
            "productSubType": "CAPITAL_GIRO_PRAZO_VENCIMENTO_SUPERIOR_365_DIAS",
            "ipocCode": "0000000002162965427460013333215"
        },
        {
            "contractId": "08c0414f-481b-e911-80e0-d4ae52aa818f",
            "brandName": "Banco do Brasil S.A",
            "companyCnpj": "00000000000191",
            "productType": "EMPRESTIMOS",
            "productSubType": "CAPITAL_GIRO_PRAZO_VENCIMENTO_ATE_365_DIAS",
            "ipocCode": "00000000021529654274600165410413"
        },
        {
            "contractId": "a50a46f7-f608-e911-80e0-d4ae52aa818f",
            "brandName": "Banco do Brasil S.A",
            "companyCnpj": "00000000000191",
            "productType": "EMPRESTIMOS",
            "productSubType": "CREDITO_PESSOAL_COM_CONSIGNACAO",
            "ipocCode": "00000000020229654274600165410540"
        },
        {
            "contractId": "bd0166a5-3c13-e911-80e0-d4ae52aa818f",
            "brandName": "Banco do Brasil S.A",
            "companyCnpj": "00000000000191",
            "productType": "EMPRESTIMOS",
            "productSubType": "CREDITO_PESSOAL_SEM_CONSIGNACAO",
            "ipocCode": "000000000203296542746001123698026"
        },
        {
            "contractId": "27674be8-3609-e911-80e0-d4ae52aa818f",
            "brandName": "Banco do Brasil S.A",
            "companyCnpj": "00000000000191",
            "productType": "EMPRESTIMOS",
            "productSubType": "CAPITAL_GIRO_TETO_ROTATIVO",
            "ipocCode": "00000000021729654274600195100"
        },
        {
            "contractId": "376569f0-6bfc-e811-80e0-d4ae52aa818f",
            "brandName": "Banco do Brasil S.A",
            "companyCnpj": "00000000000191",
            "productType": "EMPRESTIMOS",
            "productSubType": "MICROCREDITO_PRODUTIVO_ORIENTADO",
            "ipocCode": "00000000021229654274600154051"
        },
        {
            "contractId": "3ed64bf8-3609-e911-80e0-d4ae52aa818f",
            "brandName": "Banco do Brasil S.A",
            "companyCnpj": "00000000000191",
            "productType": "EMPRESTIMOS",
            "productSubType": "CREDITO_PESSOAL_COM_CONSIGNACAO",
            "ipocCode": "00000000020229654274600100012"
        },
        {
            "contractId": "7dc12b07-3709-e911-80e0-d4ae52aa818f",
            "brandName": "Banco do Brasil S.A",
            "companyCnpj": "00000000000191",
            "productType": "EMPRESTIMOS",
            "productSubType": "CREDITO_PESSOAL_COM_CONSIGNACAO",
            "ipocCode": "00000000020229654274600146513"
        },
        {
            "contractId": "06fde383-3309-e911-80e0-d4ae52aa818f",
            "brandName": "Banco do Brasil S.A",
            "companyCnpj": "00000000000191",
            "productType": "EMPRESTIMOS",
            "productSubType": "CREDITO_PESSOAL_SEM_CONSIGNACAO",
            "ipocCode": "00000000020329654274600198521"
        },
        {
            "contractId": "3a9faa33-f708-e911-80e0-d4ae52aa818f",
            "brandName": "Banco do Brasil S.A",
            "companyCnpj": "00000000000191",
            "productType": "EMPRESTIMOS",
            "productSubType": "CREDITO_PESSOAL_SEM_CONSIGNACAO",
            "ipocCode": "0000000002032965427460016165101"
        },
        {
            "contractId": "1a44390d-9907-e911-80e0-d4ae52aa818f",
            "brandName": "Banco do Brasil S.A",
            "companyCnpj": "00000000000191",
            "productType": "EMPRESTIMOS",
            "productSubType": "CONTA_GARANTIDA",
            "ipocCode": "00000000021429654274600116510"
        }
        
    ],
    "links": {
        "self": "https://opendata.api.bb.com.br/open-banking/loans/v1/contracts?page=1&page-size=25",
        "next": "https://opendata.api.bb.com.br/open-banking/loans/v1/contracts?page=2&page-size=25",
        "last": "https://opendata.api.bb.com.br/open-banking/loans/v1/contracts?page=2&page-size=25"
    },
    "meta": {
        "totalRecords": 26,
        "totalPages": 2,
        "requestDateTime": "2021-12-02T16:50:00Z"
    }
}