{
    "data": [
        {
            "contractId": "5d18c5fe-ba69-3a9e-a343-dca4d2a1cf6c",
            "brandName": "Decem",
            "companyCnpj": "25349207000105",
            "productType": "EMPRESTIMOS",
            "productSubType": "HOME_EQUITY",
            "ipocCode": "25349207020216425821701864258217011"
        },
        {
            "contractId": "331491ea-4d1c-3418-b0db-c8a069362d2d",
            "brandName": "Decem",
            "companyCnpj": "25349207000105",
            "productType": "EMPRESTIMOS",
            "productSubType": "CHEQUE_ESPECIAL",
            "ipocCode": "25349207020216425821701864258217012"
        },
        {
            "contractId": "318bddb2-dd30-4abb-8368-9271aa567480",
            "brandName": "Decem",
            "companyCnpj": "25349207000105",
            "productType": "EMPRESTIMOS",
            "productSubType": "CHEQUE_ESPECIAL",
            "ipocCode": "25349207020216425821701864258217013"
        },
        {
            "contractId": "3b433f92-4570-495a-a54e-1f9bebca9292",
            "brandName": "Decem",
            "companyCnpj": "25349207000105",
            "productType": "EMPRESTIMOS",
            "productSubType": "CHEQUE_ESPECIAL",
            "ipocCode": "25349207020216425821701864258217014"
        },
        {
            "contractId": "e7489b77-fca7-37e7-8a5a-d3efb3595a3a",
            "brandName": "Decem",
            "companyCnpj": "25349207000105",
            "productType": "EMPRESTIMOS",
            "productSubType": "CONTA_GARANTIDA",
            "ipocCode": "25349207020216425821701864258217015"
        },
        {
            "contractId": "db8d9fb4-0e8d-4628-a655-527dc9632583",
            "brandName": "Decem",
            "companyCnpj": "25349207000105",
            "productType": "EMPRESTIMOS",
            "productSubType": "CAPITAL_GIRO_TETO_ROTATIVO",
            "ipocCode": "25349207020216425821701864258217016"
        },
        {
            "contractId": "1ff29059-3105-43cd-a55a-20652d73604b",
            "brandName": "Decem",
            "companyCnpj": "25349207000105",
            "productType": "EMPRESTIMOS",
            "productSubType": "CREDITO_PESSOAL_SEM_CONSIGNACAO",
            "ipocCode": "25349207020216425821701864258217017"
        },
        {
            "contractId": "54584bb4-06da-48b8-b4c8-a93cafbb5e00",
            "brandName": "Decem",
            "companyCnpj": "25349207000105",
            "productType": "EMPRESTIMOS",
            "productSubType": "CREDITO_PESSOAL_SEM_CONSIGNACAO",
            "ipocCode": "25349207020216425821701864258217019"
        },
        {
            "contractId": "77d4f82a-fa60-4cd2-ab78-78d7b9b25011",
            "brandName": "Decem",
            "companyCnpj": "25349207000105",
            "productType": "EMPRESTIMOS",
            "productSubType": "CREDITO_PESSOAL_COM_CONSIGNACAO",
            "ipocCode": "25349207020216425821701864258217020"
        },
        {
            "contractId": "f380c14f-4c2c-4b0a-9ad3-a3abfebe434b",
            "brandName": "Decem",
            "companyCnpj": "25349207000105",
            "productType": "EMPRESTIMOS",
            "productSubType": "MICROCREDITO_PRODUTIVO_ORIENTADO",
            "ipocCode": "25349207020216425821701864258217021"
        },
        {
            "contractId": "a18bc10f-e13c-4264-a4eb-f2e99b979fd5",
            "brandName": "Decem",
            "companyCnpj": "25349207000105",
            "productType": "EMPRESTIMOS",
            "productSubType": "MICROCREDITO_PRODUTIVO_ORIENTADO",
            "ipocCode": "25349207020216425821701864258217022"
        },
        {
            "contractId": "2e3a4adc-e94f-46e2-bcca-b8103fee3664",
            "brandName": "Decem",
            "companyCnpj": "25349207000105",
            "productType": "EMPRESTIMOS",
            "productSubType": "CAPITAL_GIRO_PRAZO_VENCIMENTO_ATE_365_DIAS",
            "ipocCode": "25349207020216425821701864258217023"
        },
        {
            "contractId": "8fbf362c-4d41-4032-b738-32dc7bd18ee7",
            "brandName": "Decem",
            "companyCnpj": "25349207000105",
            "productType": "EMPRESTIMOS",
            "productSubType": "CAPITAL_GIRO_PRAZO_VENCIMENTO_SUPERIOR_365_DIAS",
            "ipocCode": "25349207020216425821701864258217024"
        },
        {
            "contractId": "bdc20942-2b0d-43eb-a78e-496095f0864b",
            "brandName": "Sib Bank S.A",
            "companyCnpj": "40156018000100",
            "productType": "EMPRESTIMOS",
            "productSubType": "CAPITAL_GIRO_PRAZO_VENCIMENTO_SUPERIOR_365_DIAS",
            "ipocCode": "401560180020216425821701864258217025"
        },
        {
            "contractId": "939ab458-6f1d-e911-80e0-d4ae52aa818f",
            "brandName": "Sib Bank S.A",
            "companyCnpj": "40156018000100",
            "productType": "EMPRESTIMOS",
            "productSubType": "CAPITAL_GIRO_PRAZO_VENCIMENTO_SUPERIOR_365_DIAS",
            "ipocCode": "401560180020216425821701864258217026"
        },
        {
            "contractId": "08c0414f-481b-e911-80e0-d4ae52aa818f",
            "brandName": "Sib Bank S.A",
            "companyCnpj": "40156018000100",
            "productType": "EMPRESTIMOS",
            "productSubType": "CAPITAL_GIRO_PRAZO_VENCIMENTO_ATE_365_DIAS",
            "ipocCode": "401560180020216425821701864258217027"
        },
        {
            "contractId": "a50a46f7-f608-e911-80e0-d4ae52aa818f",
            "brandName": "Sib Bank S.A",
            "companyCnpj": "40156018000100",
            "productType": "EMPRESTIMOS",
            "productSubType": "CREDITO_PESSOAL_COM_CONSIGNACAO",
            "ipocCode": "401560180020216425821701864258217028"
        },
        {
            "contractId": "bd0166a5-3c13-e911-80e0-d4ae52aa818f",
            "brandName": "Sib Bank S.A",
            "companyCnpj": "40156018000100",
            "productType": "EMPRESTIMOS",
            "productSubType": "CREDITO_PESSOAL_SEM_CONSIGNACAO",
            "ipocCode": "401560180020216425821701864258217029"
        },
        {
            "contractId": "27674be8-3609-e911-80e0-d4ae52aa818f",
            "brandName": "Sib Bank S.A",
            "companyCnpj": "40156018000100",
            "productType": "EMPRESTIMOS",
            "productSubType": "CAPITAL_GIRO_TETO_ROTATIVO",
            "ipocCode": "401560180020216425821701864258217030"
        },
        {
            "contractId": "376569f0-6bfc-e811-80e0-d4ae52aa818f",
            "brandName": "Sib Bank S.A",
            "companyCnpj": "40156018000100",
            "productType": "EMPRESTIMOS",
            "productSubType": "MICROCREDITO_PRODUTIVO_ORIENTADO",
            "ipocCode": "401560180020216425821701864258217031"
        },
        {
            "contractId": "3ed64bf8-3609-e911-80e0-d4ae52aa818f",
            "brandName": "Sib Bank S.A",
            "companyCnpj": "40156018000100",
            "productType": "EMPRESTIMOS",
            "productSubType": "CREDITO_PESSOAL_COM_CONSIGNACAO",
            "ipocCode": "401560180020216425821701864258217032"
        },
        {
            "contractId": "7dc12b07-3709-e911-80e0-d4ae52aa818f",
            "brandName": "Sib Bank S.A",
            "companyCnpj": "40156018000100",
            "productType": "EMPRESTIMOS",
            "productSubType": "CREDITO_PESSOAL_COM_CONSIGNACAO",
            "ipocCode": "401560180020216425821701864258217033"
        },
        {
            "contractId": "06fde383-3309-e911-80e0-d4ae52aa818f",
            "brandName": "Sib Bank S.A",
            "companyCnpj": "40156018000100",
            "productType": "EMPRESTIMOS",
            "productSubType": "CREDITO_PESSOAL_SEM_CONSIGNACAO",
            "ipocCode": "401560180020216425821701864258217034"
        },
{
            "contractId": "3a9faa33-f708-e911-80e0-d4ae52aa818f",
            "brandName": "Sib Bank S.A",
            "companyCnpj": "40156018000100",
            "productType": "EMPRESTIMOS",
            "productSubType": "CREDITO_PESSOAL_SEM_CONSIGNACAO",
            "ipocCode": "401560180020216425821701864258217035"
        },
        {
            "contractId": "1a44390d-9907-e911-80e0-d4ae52aa818f",
            "brandName": "Sib Bank S.A",
            "companyCnpj": "40156018000100",
            "productType": "EMPRESTIMOS",
            "productSubType": "MICROCREDITO_PRODUTIVO_ORIENTADO",
            "ipocCode": "401560180020216425821701864258217036"
        }
        
    ],
    "links": {
        "self": "https://api.banco.com.br/open-banking/loans/v1/contracts?page=1&page-size=25",
        "next": "https://api.banco.com.br/open-banking/loans/v1/contracts?page=2&page-size=25",
        "last": "https://api.banco.com.br/open-banking/loans/v1/contracts?page=2&page-size=25"
    },
    "meta": {
        "totalRecords": 26,
        "totalPages": 2,
        "requestDateTime": "2021-06-02T16:50:00Z"
    }
}