{
  "data": [
    {
      "creditCardAccountId": "09ba65f4-db2d-11eb-8d19-0242ac130003",
      "brandName": "Caixa Econômica Federal",
      "companyCnpj": "00360305000104",
      "name": "Gold",
      "productType": "EMPRESARIAL",
      "creditCardNetwork": "MASTERCARD"
    },
    {
      "creditCardAccountId": "0cd8e31e-db2d-11eb-8d19-0242ac130003",
      "brandName": "Caixa Econômica Federal",
      "companyCnpj": "00360305000104",
      "name": "Infinite",
      "productType": "EMPRESARIAL",
      "creditCardNetwork": "VISA"
    },
    {
      "creditCardAccountId": "11340952-db2d-11eb-8d19-0242ac130003",
      "brandName": "Caixa Econômica Federal",
      "companyCnpj": "00360305000104",
      "name": "Platinum",
      "productType": "EMPRESARIAL",
      "creditCardNetwork": "VISA"
    },
    {
      "creditCardAccountId": "16216586-db2d-11eb-8d19-0242ac130003",
      "brandName": "Caixa Econômica Federal",
      "companyCnpj": "00360305000104",
      "name": "Gold",
      "productType": "EMPRESARIAL",
      "creditCardNetwork": "VISA"
    },
    {
      "creditCardAccountId": "18d13c52-db2d-11eb-8d19-0242ac130003",
      "brandName": "Caixa Econômica Federal",
      "companyCnpj": "00360305000104",
      "name": "Internacional",
      "productType": "EMPRESARIAL",
      "creditCardNetwork": "VISA"
    },
    {
      "creditCardAccountId": "1bfb2488-db2d-11eb-8d19-0242ac130003",
      "brandName": "Caixa Econômica Federal",
      "companyCnpj": "00360305000104",
      "name": "​Visa Mulher",
      "productType": "EMPRESARIAL",
      "creditCardNetwork": "VISA"
    },
    {
      "creditCardAccountId": "36e84a78-db2d-11eb-8d19-0242ac130003",
      "brandName": "Caixa Econômica Federal",
      "companyCnpj": "00360305000104",
      "name": "Visa SIM",
      "productType": "EMPRESARIAL",
      "creditCardNetwork": "VISA"
    },
    {
      "creditCardAccountId": "3a45a5e4-db2d-11eb-8d19-0242ac130003",
      "brandName": "Caixa Econômica Federal",
      "companyCnpj": "00360305000104",
      "name": "Elo Diners Club",
      "productType": "EMPRESARIAL",
      "creditCardNetwork": "ELO"
    },
    {
      "creditCardAccountId": "3ea6eb8e-db2d-11eb-8d19-0242ac130003",
      "brandName": "Caixa Econômica Federal",
      "companyCnpj": "00360305000104",
      "name": "Elo Mulher",
      "productType": "EMPRESARIAL",
      "creditCardNetwork": "ELO"
    },
    {
      "creditCardAccountId": "4150e24a-db2d-11eb-8d19-0242ac130003",
      "brandName": "Caixa Econômica Federal",
      "companyCnpj": "00360305000104",
      "name": "​Elo SIM",
      "productType": "EMPRESARIAL",
      "creditCardNetwork": "ELO"
    },
    {
      "creditCardAccountId": "43ea7fd4-db2d-11eb-8d19-0242ac130003",
      "brandName": "Caixa Econômica Federal",
      "companyCnpj": "00360305000104",
      "name": "​Elo SIMPLES",
      "productType": "EMPRESARIAL",
      "creditCardNetwork": "ELO"
    },
    {
      "creditCardAccountId": "46503610-db2d-11eb-8d19-0242ac130003",
      "brandName": "Caixa Econômica Federal",
      "companyCnpj": "00360305000104",
      "name": "Elo Mais",
      "productType": "EMPRESARIAL",
      "creditCardNetwork": "ELO"
    },
    {
      "creditCardAccountId": "4934e88a-db2d-11eb-8d19-0242ac130003",
      "brandName": "Caixa Econômica Federal",
      "companyCnpj": "00360305000104",
      "name": "​Elo SIMPLES",
      "productType": "EMPRESARIAL",
      "creditCardNetwork": "ELO"
    },
    {
      "creditCardAccountId": "4c5381fc-db2d-11eb-8d19-0242ac130003",
      "brandName": "Caixa Econômica Federal",
      "companyCnpj": "00360305000104",
      "name": "Elo Nanquim",
      "productType": "EMPRESARIAL",
      "creditCardNetwork": "ELO"
    },
    {
      "creditCardAccountId": "51e412b2-db2d-11eb-8d19-0242ac130003",
      "brandName": "Caixa Econômica Federal",
      "companyCnpj": "00360305000104",
      "name": "Elo Nanquim",
      "productType": "EMPRESARIAL",
      "creditCardNetwork": "ELO"
    },
    {
      "creditCardAccountId": "549c8aac-db2d-11eb-8d19-0242ac130003",
      "brandName": "Caixa Econômica Federal",
      "companyCnpj": "00360305000104",
      "name": "Elo Nanquim",
      "productType": "EMPRESARIAL",
      "creditCardNetwork": "ELO"
    },
    {
      "creditCardAccountId": "58217412-db2d-11eb-8d19-0242ac130003",
      "brandName": "Caixa Econômica Federal",
      "companyCnpj": "00360305000104",
      "name": "Elo Nanquim",
      "productType": "EMPRESARIAL",
      "creditCardNetwork": "ELO"
    },
    {
      "creditCardAccountId": "5a9cc7d2-db2d-11eb-8d19-0242ac130003",
      "brandName": "Caixa Econômica Federal",
      "companyCnpj": "00360305000104",
      "name": "Elo Nanquim",
      "productType": "EMPRESARIAL",
      "creditCardNetwork": "ELO"
    },
    {
      "creditCardAccountId": "5e8a5224-db2d-11eb-8d19-0242ac130003",
      "brandName": "Caixa Econômica Federal",
      "companyCnpj": "00360305000104",
      "name": "Elo Nanquim",
      "productType": "EMPRESARIAL",
      "creditCardNetwork": "ELO"
    },
    {
      "creditCardAccountId": "617d0648-db2d-11eb-8d19-0242ac130003",
      "brandName": "Caixa Econômica Federal",
      "companyCnpj": "00360305000104",
      "name": "Elo Nanquim",
      "productType": "EMPRESARIAL",
      "creditCardNetwork": "ELO"
    },
    {
      "creditCardAccountId": "66a50512-db2d-11eb-8d19-0242ac130003",
      "brandName": "Caixa Econômica Federal",
      "companyCnpj": "00360305000104",
      "name": "Elo Nanquim",
      "productType": "EMPRESARIAL",
      "creditCardNetwork": "ELO"
    },
    {
      "creditCardAccountId": "69887282-db2d-11eb-8d19-0242ac130003",
      "brandName": "Caixa Econômica Federal",
      "companyCnpj": "00360305000104",
      "name": "Elo Nanquim",
      "productType": "EMPRESARIAL",
      "creditCardNetwork": "ELO"
    },
    {
      "creditCardAccountId": "6c5742cc-db2d-11eb-8d19-0242ac130003",
      "brandName": "Caixa Econômica Federal",
      "companyCnpj": "00360305000104",
      "name": "Elo Nanquim",
      "productType": "EMPRESARIAL",
      "creditCardNetwork": "ELO"
    },
    {
      "creditCardAccountId": "6eea8b34-db2d-11eb-8d19-0242ac130003",
      "brandName": "Caixa Econômica Federal",
      "companyCnpj": "00360305000104",
      "name": "Elo Nanquim",
      "productType": "EMPRESARIAL",
      "creditCardNetwork": "ELO"
    },
    {
      "creditCardAccountId": "71e7f876-db2d-11eb-8d19-0242ac130003",
      "brandName": "Caixa Econômica Federal",
      "companyCnpj": "00360305000104",
      "name": "Elo Nanquim",
      "productType": "EMPRESARIAL",
      "creditCardNetwork": "ELO"
    }
  ],
  "links": {
    "first":"https://api.caixa.gov.br/open-banking/credit-cards-accounts/v1/accounts?page=1&page-size=25",
    "self": "https://api.caixa.gov.br/open-banking/credit-cards-accounts/v1/accounts?page=2&page-size=25",
    "prev": "https://api.caixa.gov.br/open-banking/credit-cards-accounts/v1/accounts?page=1&page-size=25",
    "next": "https://api.caixa.gov.br/open-banking/credit-cards-accounts/v1/accounts?page=3&page-size=25",
    "last": "https://api.caixa.gov.br/open-banking/credit-cards-accounts/v1/accounts?page=3&page-size=25"
  },
  "meta": {
    "totalRecords": 56,
    "totalPages": 3,
    "requestDateTime": "2021-09-10T08:30:00Z"
  }
}