{
  "data": [
    {
      "creditCardAccountId": "5cd65564-db2c-11eb-8d19-0242ac130003",
      "brandName": "Caixa Econômica Federal",
      "companyCnpj": "00360305000104",
      "name": "Elo Nanquim",
      "productType": "OUTROS",
      "productAdditionalInfo":"CONSTRUCARD",
      "creditCardNetwork": "OUTRAS",
      "networkAdditionalInfo": "CARTAO CAIXA EMPRESARIAL"
    },
    {
      "creditCardAccountId": "601c977e-db2c-11eb-8d19-0242ac130003",
      "brandName": "Caixa Econômica Federal",
      "companyCnpj": "00360305000104",
      "name": "Elo Grafite",
      "productType": "CORPORATIVO",
      "creditCardNetwork": "BANDEIRA_PROPRIA"
    },
    {
      "creditCardAccountId": "63ad9686-db2c-11eb-8d19-0242ac130003",
      "brandName": "Caixa Econômica Federal",
      "companyCnpj": "00360305000104",
      "name": "Elo Mais",
      "productType": "EMPRESARIAL",
      "creditCardNetwork": "ELO"
    },
    {
      "creditCardAccountId": "75e1e6fe-db2c-11eb-8d19-0242ac130003",
      "brandName": "Caixa Econômica Federal",
      "companyCnpj": "00360305000104",
      "name": "​​Elo Diners Club",
      "productType": "EMPRESARIAL",
      "creditCardNetwork": "ELO"
    },
    {
      "creditCardAccountId": "79ce061c-db2c-11eb-8d19-0242ac130003",
      "brandName": "Caixa Econômica Federal",
      "companyCnpj": "00360305000104",
      "name": "Elo Mulher",
      "productType": "EMPRESARIAL",
      "creditCardNetwork": "ELO"
    },
    {
      "creditCardAccountId": "7d9d7246-db2c-11eb-8d19-0242ac130003",
      "brandName": "Caixa Econômica Federal",
      "companyCnpj": "00360305000104",
      "name": "​Elo SIM",
      "productType": "EMPRESARIAL",
      "creditCardNetwork": "ELO"
    },
    {
      "creditCardAccountId": "824bc446-db2c-11eb-8d19-0242ac130003",
      "brandName": "Caixa Econômica Federal",
      "companyCnpj": "00360305000104",
      "name": "Elo SIMPLES",
      "productType": "EMPRESARIAL",
      "creditCardNetwork": "ELO"
    },
    {
      "creditCardAccountId": "858eccf2-db2c-11eb-8d19-0242ac130003",
      "brandName": "Caixa Econômica Federal",
      "companyCnpj": "00360305000104",
      "name": "Elo Mais",
      "productType": "EMPRESARIAL",
      "creditCardNetwork": "ELO"
    },
    {
      "creditCardAccountId": "8af680c2-db2c-11eb-8d19-0242ac130003",
      "brandName": "Caixa Econômica Federal",
      "companyCnpj": "00360305000104",
      "name": "Elo Grafite",
      "productType": "EMPRESARIAL",
      "creditCardNetwork": "ELO"
    },
    {
      "creditCardAccountId": "90971b86-db2c-11eb-8d19-0242ac130003",
      "brandName": "Caixa Econômica Federal",
      "companyCnpj": "00360305000104",
      "name": "Elo Nanquim",
      "productType": "EMPRESARIAL",
      "creditCardNetwork": "ELO"
    },
    {
      "creditCardAccountId": "9459ef46-db2c-11eb-8d19-0242ac130003",
      "brandName": "Caixa Econômica Federal",
      "companyCnpj": "00360305000104",
      "name": "Elo Diners Club",
      "productType": "EMPRESARIAL",
      "creditCardNetwork": "ELO"
    },
    {
      "creditCardAccountId": "97720114-db2c-11eb-8d19-0242ac130003",
      "brandName": "Caixa Econômica Federal",
      "companyCnpj": "00360305000104",
      "name": "Vai de Visa",
      "productType": "EMPRESARIAL",
      "creditCardNetwork": "VISA"
    },
    {
      "creditCardAccountId": "9a7cc6a0-db2c-11eb-8d19-0242ac130003",
      "brandName": "Caixa Econômica Federal",
      "companyCnpj": "00360305000104",
      "name": "Visa SIM",
      "productType": "EMPRESARIAL",
      "creditCardNetwork": "VISA"
    },
    {
      "creditCardAccountId": "9cfaf9ba-db2c-11eb-8d19-0242ac130003",
      "brandName": "Caixa Econômica Federal",
      "companyCnpj": "00360305000104",
      "name": "Internacional",
      "productType": "EMPRESARIAL",
      "creditCardNetwork": "VISA"
    },
    {
      "creditCardAccountId": "9f7424fa-db2c-11eb-8d19-0242ac130003",
      "brandName": "Caixa Econômica Federal",
      "companyCnpj": "00360305000104",
      "name": "Infinite",
      "productType": "EMPRESARIAL",
      "creditCardNetwork": "VISA"
    },
    {
      "creditCardAccountId": "a34b576a-db2c-11eb-8d19-0242ac130003",
      "brandName": "Caixa Econômica Federal",
      "companyCnpj": "00360305000104",
      "name": "Platinum",
      "productType": "EMPRESARIAL",
      "creditCardNetwork": "VISA"
    },
    {
      "creditCardAccountId": "a6313012-db2c-11eb-8d19-0242ac130003",
      "brandName": "Caixa Econômica Federal",
      "companyCnpj": "00360305000104",
      "name": "​Visa Mulher",
      "productType": "EMPRESARIAL",
      "creditCardNetwork": "VISA"
    },
    {
      "creditCardAccountId": "a8c6b478-db2c-11eb-8d19-0242ac130003",
      "brandName": "Caixa Econômica Federal",
      "companyCnpj": "00360305000104",
      "name": "Black",
      "productType": "EMPRESARIAL",
      "creditCardNetwork": "MASTERCARD"
    },
    {
      "creditCardAccountId": "ad119b42-db2c-11eb-8d19-0242ac130003",
      "brandName": "Caixa Econômica Federal",
      "companyCnpj": "00360305000104",
      "name": "Platinum",
      "productType": "EMPRESARIAL",
      "creditCardNetwork": "MASTERCARD"
    },
    {
      "creditCardAccountId": "ee7137f0-db2c-11eb-8d19-0242ac130003",
      "brandName": "Caixa Econômica Federal",
      "companyCnpj": "00360305000104",
      "name": "Gold",
      "productType": "EMPRESARIAL",
      "creditCardNetwork": "MASTERCARD"
    },
    {
      "creditCardAccountId": "f63edd48-db2c-11eb-8d19-0242ac130003",
      "brandName": "Caixa Econômica Federal",
      "companyCnpj": "00360305000104",
      "name": "Nacional",
      "productType": "EMPRESARIAL",
      "creditCardNetwork": "MASTERCARD"
    },
    {
      "creditCardAccountId": "fa1aa3fc-db2c-11eb-8d19-0242ac130003",
      "brandName": "Caixa Econômica Federal",
      "companyCnpj": "00360305000104",
      "name": "Black",
      "productType": "EMPRESARIAL",
      "creditCardNetwork": "MASTERCARD"
    },
    {
      "creditCardAccountId": "fda75ad8-db2c-11eb-8d19-0242ac130003",
      "brandName": "Caixa Econômica Federal",
      "companyCnpj": "00360305000104",
      "name": "Plantinum",
      "productType": "EMPRESARIAL",
      "creditCardNetwork": "MASTERCARD"
    },
    {
      "creditCardAccountId": "01b0c9b6-db2d-11eb-8d19-0242ac130003",
      "brandName": "Caixa Econômica Federal",
      "companyCnpj": "00360305000104",
      "name": "Internacional",
      "productType": "EMPRESARIAL",
      "creditCardNetwork": "MASTERCARD"
    },
    {
      "creditCardAccountId": "05d4ef2c-db2d-11eb-8d19-0242ac130003",
      "brandName": "Caixa Econômica Federal",
      "companyCnpj": "00360305000104",
      "name": "Black",
      "productType": "EMPRESARIAL",
      "creditCardNetwork": "MASTERCARD"
    }
  ],
  "links": {
    "self": "https://api.caixa.gov.br/open-banking/credit-cards-accounts/v1/accounts?page=1&page-size=25",
    "first": "https://api.caixa.gov.br/open-banking/credit-cards-accounts/v1/accounts?page=1&page-size=25",
    "next": "https://api.caixa.gov.br/open-banking/credit-cards-accounts/v1/accounts?page=2&page-size=25",
    "last": "https://api.caixa.gov.br/open-banking/credit-cards-accounts/v1/accounts?page=3&page-size=25"
  },
  "meta": {
    "totalRecords": 56,
    "totalPages": 3,
    "requestDateTime": "2021-09-10T08:30:00Z"
  }
}