{
  "data": [
        {
      "creditCardAccountId": "74683304-db2d-11eb-8d19-0242ac130003",
      "brandName": "Caixa Econômica Federal",
      "companyCnpj": "00360305000104",
      "name": "Elo Nanquim",
      "productType": "EMPRESARIAL",
      "creditCardNetwork": "ELO"
    },
    {
      "creditCardAccountId": "7710627a-db2d-11eb-8d19-0242ac130003",
      "brandName": "Caixa Econômica Federal",
      "companyCnpj": "00360305000104",
      "name": "Elo Nanquim",
      "productType": "EMPRESARIAL",
      "creditCardNetwork": "ELO"
    },
    {
      "creditCardAccountId": "7a08cf94-db2d-11eb-8d19-0242ac130003",
      "brandName": "Caixa Econômica Federal",
      "companyCnpj": "00360305000104",
      "name": "Elo Nanquim",
      "productType": "EMPRESARIAL",
      "creditCardNetwork": "ELO"
    },
    {
      "creditCardAccountId": "7cdecc82-db2d-11eb-8d19-0242ac130003",
      "brandName": "Caixa Econômica Federal",
      "companyCnpj": "00360305000104",
      "name": "Elo Nanquim",
      "productType": "EMPRESARIAL",
      "creditCardNetwork": "ELO"
    },
    {
      "creditCardAccountId": "7fabbd9e-db2d-11eb-8d19-0242ac130003",
      "brandName": "Caixa Econômica Federal",
      "companyCnpj": "00360305000104",
      "name": "Elo Nanquim",
      "productType": "EMPRESARIAL",
      "creditCardNetwork": "ELO"
    },
    {
      "creditCardAccountId": "83b93754-db2d-11eb-8d19-0242ac130003",
      "brandName": "Caixa Econômica Federal",
      "companyCnpj": "00360305000104",
      "name": "Elo Nanquim",
      "productType": "EMPRESARIAL",
      "creditCardNetwork": "ELO"
    }
  ],
  "links": {
    "self": "https://api.caixa.gov.br/open-banking/credit-cards-accounts/v1/accounts?page=3&page-size=25",
    "prev": "https://api.caixa.gov.br/open-banking/credit-cards-accounts/v1/accounts?page=2&page-size=25",
    "first": "https://api.caixa.gov.br/open-banking/credit-cards-accounts/v1/accounts?page=1&page-size=25",
    "last": "https://api.caixa.gov.br/open-banking/credit-cards-accounts/v1/accounts?page=3&page-size=25"
  },
  "meta": {
    "totalRecords": 56,
    "totalPages": 3,
    "requestDateTime": "2021-09-10T08:30:00Z"
  }
}