{
    "data": [
        {
            "transactionId": "e1eaf51e-6ec1-4c60-9247-f4e56aef0b8e",
            "identificationNumber": "3697",
            "transactionName": "ESTORNO",
            "billId": "01d135a2-c54a-489d-ab25-377763b929c1",
            "creditDebitType": "CREDITO",
            "transactionType": "ESTORNO",
            "paymentType": "A_VISTA",
            "feeType": "ANUIDADE",
            "otherCreditsType": "CREDITO_ROTATIVO",
            "chargeIdentificator": "PARCELA_1",
            "chargeNumber": 1,
            "brazilianAmount": {
                "amount": "78.1600",
                "currency": "BRL"
            },
            "amount": {
                "amount": "78.1600",
                "currency": "BRL"
            },
            "transactionDate": "2022-07-18",
            "billPostDate": "2022-07-18",
            "payeeMCC": 5661
        },
        {
            "transactionId": "76d3bf4c-cee3-4765-92da-8bfec21ae323",
            "identificationNumber": "3697",
            "transactionName": "PGTO",
            "billId": "01d135a2-c54a-489d-ab25-377763b929c1",
            "creditDebitType": "CREDITO",
            "transactionType": "PAGAMENTO",
            "paymentType": "A_VISTA",
            "feeType": "ANUIDADE",
            "otherCreditsType": "CREDITO_ROTATIVO",
            "chargeIdentificator": "PARCELA_1",
            "chargeNumber": 1,
            "brazilianAmount": {
                "amount": "78.1600",
                "currency": "BRL"
            },
            "amount": {
                "amount": "78.1600",
                "currency": "BRL"
            },
            "transactionDate": "2022-07-17",
            "billPostDate": "2022-07-17",
            "payeeMCC": 5661
        },
        {
            "transactionId": "3e3d073d-900c-4b5a-b01a-3fa6a0bd032d",
            "identificationNumber": "3697",
            "transactionName": "CASHBACK",
            "billId": "01d135a2-c54a-489d-ab25-377763b929c1",
            "creditDebitType": "CREDITO",
            "transactionType": "CASHBACK",
            "paymentType": "A_VISTA",
            "feeType": "ANUIDADE",
            "otherCreditsType": "CREDITO_ROTATIVO",
            "chargeIdentificator": "PARCELA_1",
            "chargeNumber": 1,
            "brazilianAmount": {
                "amount": "15.0000",
                "currency": "BRL"
            },
            "amount": {
                "amount": "15.0000",
                "currency": "BRL"
            },
            "transactionDate": "2022-07-16",
            "billPostDate": "2022-07-16",
            "payeeMCC": 5815
        }
    ],
    "links": {
        "self": "https://api.caixa.gov.br/open-banking/credit-cards-accounts/v1/accounts/0cd8e31e-db2d-11eb-8d19-0242ac130003/transactions?page=3&page-size=3&fromTransactionDate=2022-07-16&toTransactionDate=2022-07-21",
        "first": "https://api.caixa.gov.br/open-banking/credit-cards-accounts/v1/accounts/0cd8e31e-db2d-11eb-8d19-0242ac130003/transactions?page=1&page-size=3&fromTransactionDate=2022-07-16&toTransactionDate=2022-07-21",
        "prev": "https://api.caixa.gov.br/open-banking/credit-cards-accounts/v1/accounts/0cd8e31e-db2d-11eb-8d19-0242ac130003/transactions?page=2&page-size=3&fromTransactionDate=2022-07-16&toTransactionDate=2022-07-21",
        "last": "https://api.caixa.gov.br/open-banking/credit-cards-accounts/v1/accounts/0cd8e31e-db2d-11eb-8d19-0242ac130003/transactions?page=3&page-size=3&fromTransactionDate=2022-07-16&toTransactionDate=2022-07-21"
    },
    "meta": {
        "totalRecords": 9,
        "totalPages": 3,
        "requestDateTime": "2022-09-16T11:04:00Z"
    }
} 