{
    "data": [
        {
            "transactionId": "483e9214-dfa7-437e-a7a5-f7d36e55a843",
            "identificationNumber": "3697",
            "transactionName": "ESTORNO",
            "billId": "01d135a2-c54a-489d-ab25-377763b929c1",
            "creditDebitType": "CREDITO",
            "transactionType": "ESTORNO",
            "paymentType": "A_VISTA",
            "feeType": "ANUIDADE",
            "otherCreditsType": "CREDITO_ROTATIVO",
            "chargeIdentificator": "PARCELA_1",
            "chargeNumber": 1,
            "brazilianAmount": {
                "amount": "699.9800",
                "currency": "BRL"
            },
            "amount": {
                "amount": "699.9800",
                "currency": "BRL"
            },
            "transactionDate": "2022-07-09",
            "billPostDate": "2022-07-09",
            "payeeMCC": 5309
        }
    ],
    "links": {
        "self": "https://api.caixa.gov.br/open-banking/credit-cards-accounts/v1/accounts/0cd8e31e-db2d-11eb-8d19-0242ac130003/transactions?page=2&page-size=1&transactionType=ESTORNO",
        "first": "https://api.caixa.gov.br/open-banking/credit-cards-accounts/v1/accounts/0cd8e31e-db2d-11eb-8d19-0242ac130003/transactions?page=1&page-size=1&transactionType=ESTORNO",
        "prev": "https://api.caixa.gov.br/open-banking/credit-cards-accounts/v1/accounts/0cd8e31e-db2d-11eb-8d19-0242ac130003/transactions?page=1&page-size=1&transactionType=ESTORNO",
        "last": "https://api.caixa.gov.br/open-banking/credit-cards-accounts/v1/accounts/0cd8e31e-db2d-11eb-8d19-0242ac130003/transactions?page=2&page-size=1&transactionType=ESTORNO"
    },
    "meta": {
        "totalRecords": 2,
        "totalPages": 2,
        "requestDateTime": "2022-09-16T11:04:00Z"
    }
} 