{
    "data": [
        {
            "transactionId": "444b2530-d9b3-11eb-b8bc-0242ac130003",
            "identificationNumber": "0126",
            "transactionName": "ESTORNO",
            "billId": "2c30bc0e-d8e5-11eb-b8bc-0242ac130003",
            "creditDebitType": "CREDITO",
            "transactionType": "ESTORNO",
            "paymentType": "A_VISTA",
            "feeType": "ANUIDADE",
            "otherCreditsType": "CREDITO_ROTATIVO",
            "chargeIdentificator": "PARCELA_1",
            "chargeNumber": 1,
            "brazilianAmount": {
                "amount": "78.1600",
                "currency": "BRL"
            },
            "amount": {
                "amount": "78.1600",
                "currency": "BRL"
            },
            "transactionDate": "2022-07-18",
            "billPostDate": "2022-07-18",
            "payeeMCC": 5661
        }
    ],
    "links": {
        "self": "https://api.caixa.gov.br/open-banking/credit-cards-accounts/v1/accounts/b22632a4-d8e4-11eb-b8bc-0242ac130003/transactions?page=1&page-size=1&transactionType=ESTORNO",
        "first": "https://api.caixa.gov.br/open-banking/credit-cards-accounts/v1/accounts/b22632a4-d8e4-11eb-b8bc-0242ac130003/transactions?page=1&page-size=1&transactionType=ESTORNO",
        "next": "https://api.caixa.gov.br/open-banking/credit-cards-accounts/v1/accounts/b22632a4-d8e4-11eb-b8bc-0242ac130003/transactions?page=2&page-size=1&transactionType=ESTORNO",
        "last": "https://api.caixa.gov.br/open-banking/credit-cards-accounts/v1/accounts/b22632a4-d8e4-11eb-b8bc-0242ac130003/transactions?page=2&page-size=1&transactionType=ESTORNO"
    },
    "meta": {
        "totalRecords": 2,
        "totalPages": 2,
        "requestDateTime": "2022-09-09T09:56:00Z"
    }
} 