{
    "data": [
        {
            "transactionId": "6c30bc0e-d8e5-11eb-b8bc-0242ac130003",
            "identificationNumber": "0126",
            "transactionName": "PGTO",
            "billId": "2c30bc0e-d8e5-11eb-b8bc-0242ac130003",
            "creditDebitType": "CREDITO",
            "transactionType": "PAGAMENTO",
            "paymentType": "A_VISTA",
            "feeType": "TARIFA_PAGAMENTO_CONTAS",
            "otherCreditsType": "CREDITO_ROTATIVO",
            "chargeIdentificator": "PARCELA_1",
            "chargeNumber": 1,
            "brazilianAmount": {
                "amount": "3622.7700",
                "currency": "BRL"
            },
            "amount": {
                "amount": "3622.7700",
                "currency": "BRL"
            },
            "transactionDate": "2022-07-21",
            "billPostDate": "2022-07-25",
            "payeeMCC": 5621
        },
        {
            "transactionId": "622e7af4-d9b1-11eb-b8bc-0242ac130003",
            "identificationNumber": "0126",
            "transactionName": "TARIFAS",
            "billId": "2c30bc0e-d8e5-11eb-b8bc-0242ac130003",
            "creditDebitType": "CREDITO",
            "transactionType": "TARIFA",
            "paymentType": "A_VISTA",
            "feeType": "ANUIDADE",
            "otherCreditsType": "CREDITO_ROTATIVO",
            "chargeIdentificator": "PARCELA_1",
            "chargeNumber": 1,
            "brazilianAmount": {
                "amount": "489.9900",
                "currency": "BRL"
            },
            "amount": {
                "amount": "489.9900",
                "currency": "BRL"
            },
            "transactionDate": "2022-07-20",
            "billPostDate": "2022-07-20",
            "payeeMCC": 4900
        },
        {
            "transactionId": "14d26260-d9b2-11eb-b8bc-0242ac130003",
            "identificationNumber": "0126",
            "transactionName": "ANUIDADE",
            "billId": "2c30bc0e-d8e5-11eb-b8bc-0242ac130003",
            "creditDebitType": "CREDITO",
            "transactionType": "OPERACOES_CREDITO_CONTRATADAS_CARTAO",
            "paymentType": "A_VISTA",
            "feeType": "ANUIDADE",
            "otherCreditsType": "CREDITO_ROTATIVO",
            "chargeIdentificator": "PARCELA_1",
            "chargeNumber": 1,
            "brazilianAmount": {
                "amount": "163.0200",
                "currency": "BRL"
            },
            "amount": {
                "amount": "163.0200",
                "currency": "BRL"
            },
            "transactionDate": "2022-07-18",
            "billPostDate": "2022-07-18",
            "payeeMCC": 4900
        }
    ],
    "links": {
        "self": "https://api.caixa.gov.br/open-banking/credit-cards-accounts/v1/accounts/b22632a4-d8e4-11eb-b8bc-0242ac130003/transactions?page=1&page-size=3&fromTransactionDate=2022-07-16&toTransactionDate=2022-07-21",
        "first": "https://api.caixa.gov.br/open-banking/credit-cards-accounts/v1/accounts/b22632a4-d8e4-11eb-b8bc-0242ac130003/transactions?page=1&page-size=3&fromTransactionDate=2022-07-16&toTransactionDate=2022-07-21",
        "next": "https://api.caixa.gov.br/open-banking/credit-cards-accounts/v1/accounts/b22632a4-d8e4-11eb-b8bc-0242ac130003/transactions?page=2&page-size=3&fromTransactionDate=2022-07-16&toTransactionDate=2022-07-21",
        "last": "https://api.caixa.gov.br/open-banking/credit-cards-accounts/v1/accounts/b22632a4-d8e4-11eb-b8bc-0242ac130003/transactions?page=3&page-size=3&fromTransactionDate=2022-07-16&toTransactionDate=2022-07-21"
    },
    "meta": {
        "totalRecords": 9,
        "totalPages": 3,
        "requestDateTime": "2022-09-09T09:56:00Z"
    }
} 