{
    "data": {
        "brand": {
            "name": "Banco do Estado do Rio Grande do Sul S.A",
            "companies": [
                {
                    "name": "PM AGUDO-3825",
                    "urlComplementaryList": "https://www.banrisul.com.br/bob/link/bobw00hn_conteudo_detalhe2.aspx?secao_id=1117",
                    "cnpjNumber": "92702067000196",
                    "sharedAutomatedTellerMachines": [
                        {
                            "identification": {
                                "ownerName": "NA"
                            },
                            "postalAddress": {
                                "address": "AV. TIRADENTES, 1625",
                                "additionalInfo": "NA",
                                "districtName": "CENTRO",
                                "townName": "AGUDO",
                                "ibgeCode": "4300109",
                                "countrySubDivision": "RS",
                                "postCode": "96540000",
                                "country": "Brasil",
                                "countryCode": "BRA",
                                "geographicCoordinates": {
                                    "latitude": "-29.642536469",
                                    "longitude": "-53.248989191"
                                }
                            },
                            "availability": {
                                "standards": [
                                    {
                                        "weekday": "SEGUNDA_FEIRA",
                                        "openingTime": "01:00:00Z",
                                        "closingTime": "23:00:00Z"
                                    },
                                    {
                                        "weekday": "TERCA_FEIRA",
                                        "openingTime": "01:00:00Z",
                                        "closingTime": "23:00:00Z"
                                    },
                                    {
                                        "weekday": "QUARTA_FEIRA",
                                        "openingTime": "01:00:00Z",
                                        "closingTime": "23:00:00Z"
                                    },
                                    {
                                        "weekday": "QUINTA_FEIRA",
                                        "openingTime": "01:00:00Z",
                                        "closingTime": "23:00:00Z"
                                    },
                                    {
                                        "weekday": "SEXTA_FEIRA",
                                        "openingTime": "01:00:00Z",
                                        "closingTime": "23:00:00Z"
                                    },
                                    {
                                        "weekday": "SABADO",
                                        "openingTime": "00:00:00Z",
                                        "closingTime": "23:00:00Z"
                                    },
                                    {
                                        "weekday": "DOMINGO",
                                        "openingTime": "00:00:00Z",
                                        "closingTime": "23:00:00Z"
                                    }
                                ],
                                "exception": "Sujeito a alteração pelo estabelecimento sem prévio aviso",
                                "isPublicAccessAllowed": true
                            },
                            "services": [
                                {
                                    "name": "SAQUE_MOEDA_EM_ESPECIE",
                                    "code": "SAQUE_MOEDA_ESPECIE"
                                },
                                {
                                    "name": "TRANSFERENCIAS_ELETRONICAS_VISANDO_MOVIMENTACAO",
                                    "code": "TRANSFERENCIAS_ELETRONICAS_MOVIMENTA_CONTAS_DEPOSITOS_OU_PAGA_TITULARES_CLIENTES"
                                },
                                {
                                    "name": "CONSULTA_SALDOS_EXTRATOS_CONTAS_DEPOSITOS_E_CONTAS",
                                    "code": "CONSULTA_SALDOS_EXTRATOS_CONTAS_DEPOSITOS"
                                },
                                {
                                    "name": "PAGAMENTOS",
                                    "code": "PAGAMENTOS"
                                },
                                {
                                    "name": "CARTAO_CREDITO",
                                    "code": "CARTAO_CREDITO"
                                },
                                {
                                    "name": "OUTROS_PRODUTOS_SERVICOS",
                                    "code": "OUTROS_PRODUTOS_SERVICOS",
                                    "additionalInfo": "Serviços complementares de atendimento via terminais de autoatendimento."
                                },
                                {
                                    "name": "CANCELAMENTO",
                                    "code": "CANCELAMENTO"
                                }
                            ]
                        }
                    ]
                }
            ]
        }
    },
    "links": {
        "self": "https://openbanking.banrisul.com.br/open-banking/channels/v1/shared-automated-teller-machines?page=1&page-size=1",
        "first": "https://openbanking.banrisul.com.br/open-banking/channels/v1/shared-automated-teller-machines?page=1&page-size=1",
        "next": "https://openbanking.banrisul.com.br/open-banking/channels/v1/shared-automated-teller-machines?page=2&page-size=1",
        "last": "https://openbanking.banrisul.com.br/open-banking/channels/v1/shared-automated-teller-machines?page=418&page-size=1"
    },
    "meta": {
        "totalRecords": 418,
        "totalPages": 418
    }
}