{
  "data": {
    "brand": {
      "name": "Banco do Estado do Rio Grande do Sul S.A",
      "companies": [
        {
          "cnpjNumber": "92702067000196",
          "name": "Banco do Estado do Rio Grande do Sul S.A",
          "urlComplementaryList": "https://www.banrisul.com.br/bob/link/bobw27hn_home.aspx?secao_id=2103",
          "personalCreditCards": [
            {
              "name": "Gold Mastercard",
              "identification": {
                "product": {
                  "type": "GOLD",
                  "additionalInfo": "NA"
                },
                "creditCard": {
                  "network": "MASTERCARD",
                  "additionalInfo": "NA"
                }
              },
              "rewardsProgram": {
                "hasRewardProgram": true,
                "rewardProgramInfo": "https://www.banrisul.com.br/bob/link/bobw27hn_conteudo_detalhe2.aspx?secao_id=2357"
              },
              "fees": {
                "services": [
                  {
                    "name": "ANUIDADE_DIFERENCIADA",
                    "code": "ANUIDADE_DIFERENCIADA",
                    "chargingTriggerInfo": "Isenção da anuidade nos primeiros doze meses: promoção por tempo limitado; Anuidade R$ 300,00 em 12 vezes, possibilidade de desconto de 50 ou 100% na parcela, conforme utilização; Até 03 cartões adicionais isentos de anuidade.",
                    "prices": [
                      {
                        "interval": "1_FAIXA",
                        "value": "0.00",
                        "currency": "BRL",
                        "customers": {
                          "rate": "0.5000"
                        }
                      },
                      {
                        "interval": "2_FAIXA",
                        "value": "120.00",
                        "currency": "BRL",
                        "customers": {
                          "rate": "0.1000"
                        }
                      },
                      {
                        "interval": "3_FAIXA",
                        "value": "200.00",
                        "currency": "BRL",
                        "customers": {
                          "rate": "0.0000"
                        }
                      },
                      {
                        "interval": "4_FAIXA",
                        "value": "300.00",
                        "currency": "BRL",
                        "customers": {
                          "rate": "0.4000"
                        }
                      }
                    ],
                    "minimum": {
                      "value": "0.00",
                      "currency": "BRL"
                    },
                    "maximum": {
                      "value": "300.00",
                      "currency": "BRL"
                    }
                  }
                ]
              },
              "interest": {
                "rates": [
                  {
                    "referentialRateIndexer": "SEM_INDEXADOR_TAXA",
                    "rate": "0.15",
                    "applications": [
                      {
                        "interval": "1_FAIXA",
                        "indexer": {
                          "rate": "0.8700"
                        },
                        "customers": {
                          "rate": "0.1500"
                        }
                      },
                      {
                        "interval": "1_FAIXA",
                        "indexer": {
                          "rate": "0.8700"
                        },
                        "customers": {
                          "rate": "0.1500"
                        }
                      },
                      {
                        "interval": "1_FAIXA",
                        "indexer": {
                          "rate": "0.8700"
                        },
                        "customers": {
                          "rate": "0.1500"
                        }
                      },
                      {
                        "interval": "1_FAIXA",
                        "indexer": {
                          "rate": "0.8700"
                        },
                        "customers": {
                          "rate": "0.1500"
                        }
                      }
                    ],
                    "minimumRate": "0.0456",
                    "maximumRate": "0.6865"
                  }
                ],
                "instalmentRates": [
                  {
                    "referentialRateIndexer": "SEM_INDEXADOR_TAXA",
                    "rate": "0.0915",
                    "applications": [
                      {
                        "interval": "1_FAIXA",
                        "indexer": {
                          "rate": "0.0000"
                        },
                        "customers": {
                          "rate": "0.1500"
                        }
                      },
                      {
                        "interval": "2_FAIXA",
                        "indexer": {
                          "rate": "0.0050"
                        },
                        "customers": {
                          "rate": "0.3500"
                        }
                      },
                      {
                        "interval": "3_FAIXA",
                        "indexer": {
                          "rate": "0.0100"
                        },
                        "customers": {
                          "rate": "0.4000"
                        }
                      },
                      {
                        "interval": "4_FAIXA",
                        "indexer": {
                          "rate": "0.0200"
                        },
                        "customers": {
                          "rate": "0.1000"
                        }
                      }
                    ],
                    "minimumRate": "0.0456",
                    "maximumRate": "0.6865"
                  }
                ],
                "otherCredits": [
                  {
                    "code": "SAQUE_A_CREDITO",
                    "additionalInfo": "NA"
                  },
                  {
                    "code": "PAGAMENTOS_CONTAS",
                    "additionalInfo": "NA"
                  }
                ]
              },
              "termsConditions": {
                "minimumFeeRate": "0.25",
                "additionalInfo": "NA",
                "elegibilityCriteriaInfo": "https://www.banrisul.com.br/bob/link/bobw27hn_conteudo_detalhe_cartoes_credito_ss.aspx?secao_id=2134",
                "closingProcessInfo": "https://www.banrisul.com.br/bob/link/bobw27hn_conteudo_detalhe_cartoes_credito_ss.aspx?secao_id=2134"
              }
            }
          ]
        }
      ]
    }
  },
  "links": {
    "self": "https://openbanking.banrisul.com.br/open-banking/products-services/v1/personal-credit-cards?page=3&page-size=1",
    "first": "https://openbanking.banrisul.com.br/open-banking/products-services/v1/personal-credit-cards?page=1&page-size=1",
    "prev": "https://openbanking.banrisul.com.br/open-banking/products-services/v1/personal-credit-cards?page=2&page-size=1",
    "next": "https://openbanking.banrisul.com.br/open-banking/products-services/v1/personal-credit-cards?page=4&page-size=1",
    "last": "https://openbanking.banrisul.com.br/open-banking/products-services/v1/personal-credit-cards?page=20&page-size=1"
  },
  "meta": {
    "totalRecords": 20,
    "totalPages": 20
  }
}