{
    "data": [
        {
            "transactionId": "bad30f64-d9b4-11eb-b8bc-0242ac130003",
            "identificationNumber": "0126",
            "lineName": "CREDITO_A_VISTA",
            "transactionName": "PGTO",
            "billId": "2c30bc0e-d8e5-11eb-b8bc-0242ac130003",
            "creditDebitType": "DEBITO",
            "transactionType": "CASHBACK",
            "transactionalAdditionalInfo": "NA",
            "paymentType": "A_VISTA",
            "feeType": "ANUIDADE",
            "feeTypeAdditionalInfo": "NA",
            "otherCreditsType": "CREDITO_ROTATIVO",
            "otherCreditsAdditionalInfo": "NA",
            "chargeIdentificator": "PARCELA_1",
            "chargeNumber": 1,
            "brazilianAmount": 27.2700,
            "amount": 0.0000,
            "currency": "BRL",
            "transactionDate": "2021-07-10",
            "billPostDate": "2021-07-10",
            "payeeMCC": 5946
        }
    ],
    "links": {
        "self": "https://api.caixa.gov.br/open-banking/credit-cards-accounts/v1/accounts/b22632a4-d8e4-11eb-b8bc-0242ac130003/transactions?page=2&page-size=1&transactionType=CASHBACK",
        "first": "https://api.caixa.gov.br/open-banking/credit-cards-accounts/v1/accounts/b22632a4-d8e4-11eb-b8bc-0242ac130003/transactions?page=1&page-size=1&transactionType=CASHBACK",
        "prev": "https://api.caixa.gov.br/open-banking/credit-cards-accounts/v1/accounts/b22632a4-d8e4-11eb-b8bc-0242ac130003/transactions?page=1&page-size=1&transactionType=CASHBACK",
        "last": "https://api.caixa.gov.br/open-banking/credit-cards-accounts/v1/accounts/b22632a4-d8e4-11eb-b8bc-0242ac130003/transactions?page=2&page-size=1&transactionType=CASHBACK",
    },
    "meta": {
        "totalRecords": 2,
        "totalPages": 2,
        "requestDateTime": "2021-08-30T11:43:09Z"
    }
} 