{
    "data": [
        {
            "transactionId": "444b2530-d9b3-11eb-b8bc-0242ac130003",
            "identificationNumber": "0126",
            "lineName": "CREDITO_A_VISTA",
            "transactionName": "ESTORNO",
            "billId": "2c30bc0e-d8e5-11eb-b8bc-0242ac130003",
            "creditDebitType": "CREDITO",
            "transactionType": "ESTORNO",
            "transactionalAdditionalInfo": "NA",
            "paymentType": "A_VISTA",
            "feeType": "ANUIDADE",
            "feeTypeAdditionalInfo": "NA",
            "otherCreditsType": "CREDITO_ROTATIVO",
            "otherCreditsAdditionalInfo": "NA",
            "chargeIdentificator": "PARCELA_1",
            "chargeNumber": 1,
            "brazilianAmount": 78.1600,
            "amount": 0.0000,
            "currency": "BRL",
            "transactionDate": "2021-07-18",
            "billPostDate": "2021-07-18",
            "payeeMCC": 5661
        }
    ],
    "links": {
        "self": "https://api.caixa.com.br/open-banking/credit-cards-accounts/v1/accounts/b22632a4-d8e4-11eb-b8bc-0242ac130003/transactions?page=1&page-size=1&transactionType=ESTORNO",
        "first": "https://api.caixa.com.br/open-banking/credit-cards-accounts/v1/accounts/b22632a4-d8e4-11eb-b8bc-0242ac130003/transactions?page=1&page-size=1&transactionType=ESTORNO",
        "next": "https://api.caixa.com.br/open-banking/credit-cards-accounts/v1/accounts/b22632a4-d8e4-11eb-b8bc-0242ac130003/transactions?page=2&page-size=1&transactionType=ESTORNO",
        "last": "https://api.caixa.com.br/open-banking/credit-cards-accounts/v1/accounts/b22632a4-d8e4-11eb-b8bc-0242ac130003/transactions?page=2&page-size=1&transactionType=ESTORNO",
    },
    "meta": {
        "totalRecords": 2,
        "totalPages": 2,
        "requestDateTime": "2021-08-30T08:24:52Z"
    }
} 