{
    "data": [
        {
            "transactionId": "3f32dceb-8f22-44c1-8334-d263d18253af",
            "completedAuthorisedPaymentType": "TRANSACAO_EFETIVADA",
            "creditDebitType": "DEBITO",
            "transactionName": "3f32dceb-8f22-44c1-8334-d263d18253af",
            "type": "PIX",
            "transactionAmount": {
                "amount": "7606.7818",
                "currency": "BRL"
            },
            "transactionDate": "2022-01-26",
            "partieCnpjCpf": "79317559000108",
            "partiePersonType": "PESSOA_JURIDICA",
            "partieCompeCode": "001",
            "partieBranchCode": "5429",
            "partieNumber": "12583783",
            "partieCheckDigit": "7"
        },
        {
            "transactionId": "6a6d5407-373a-45c9-b070-6bb5aa107720",
            "completedAuthorisedPaymentType": "TRANSACAO_EFETIVADA",
            "creditDebitType": "DEBITO",
            "transactionName": "6a6d5407-373a-45c9-b070-6bb5aa107720",
            "type": "CONVENIO_ARRECADACAO",
            "transactionAmount": {
                "amount": "6543.8996",
                "currency": "BRL"
            },
            "transactionDate": "2022-01-26",
            "partieCnpjCpf": "79317559000108",
            "partiePersonType": "PESSOA_JURIDICA",
            "partieCompeCode": "001",
            "partieBranchCode": "5429",
            "partieNumber": "12583783",
            "partieCheckDigit": "7"
        },
        {
            "transactionId": "5ede6833-6040-4c23-970b-2ee5a0e838fa",
            "completedAuthorisedPaymentType": "TRANSACAO_EFETIVADA",
            "creditDebitType": "CREDITO",
            "transactionName": "5ede6833-6040-4c23-970b-2ee5a0e838fa",
            "type": "PIX",
            "transactionAmount": {
                "amount": "7159.33",
                "currency": "BRL"
            },
            "transactionDate": "2022-01-25",
            "partieCnpjCpf": "79317559000108",
            "partiePersonType": "PESSOA_JURIDICA",
            "partieCompeCode": "001",
            "partieBranchCode": "5429",
            "partieNumber": "12583783",
            "partieCheckDigit": "7"
        },
        {
            "transactionId": "b64c071e-ee56-4446-85f3-c428ced38355",
            "completedAuthorisedPaymentType": "TRANSACAO_EFETIVADA",
            "creditDebitType": "DEBITO",
            "transactionName": "b64c071e-ee56-4446-85f3-c428ced38355",
            "type": "OUTROS",
            "transactionAmount": {
                "amount": "6226.4476",
                "currency": "BRL"
            },
            "transactionDate": "2022-01-24",
            "partieCnpjCpf": "79317559000108",
            "partiePersonType": "PESSOA_JURIDICA",
            "partieCompeCode": "001",
            "partieBranchCode": "5429",
            "partieNumber": "12583783",
            "partieCheckDigit": "7"
        },
        {
            "transactionId": "714353cd-1b24-4121-9f1e-39b28c544205",
            "completedAuthorisedPaymentType": "TRANSACAO_EFETIVADA",
            "creditDebitType": "CREDITO",
            "transactionName": "714353cd-1b24-4121-9f1e-39b28c544205",
            "type": "OPERACAO_CREDITO",
            "transactionAmount": {
                "amount": "6093.5035",
                "currency": "BRL"
            },
            "transactionDate": "2022-01-19",
            "partieCnpjCpf": "79317559000108",
            "partiePersonType": "PESSOA_JURIDICA",
            "partieCompeCode": "001",
            "partieBranchCode": "5429",
            "partieNumber": "12583783",
            "partieCheckDigit": "7"
        },
        {
            "transactionId": "f57ba2f6-4450-44ce-852f-d60123a5f3a0",
            "completedAuthorisedPaymentType": "TRANSACAO_EFETIVADA",
            "creditDebitType": "DEBITO",
            "transactionName": "f57ba2f6-4450-44ce-852f-d60123a5f3a0",
            "type": "BOLETO",
            "transactionAmount": {
                "amount": "5714.2545",
                "currency": "BRL"
            },
            "transactionDate": "2022-01-19",
            "partieCnpjCpf": "79317559000108",
            "partiePersonType": "PESSOA_JURIDICA",
            "partieCompeCode": "001",
            "partieBranchCode": "5429",
            "partieNumber": "12583783",
            "partieCheckDigit": "7"
        },
        {
            "transactionId": "7d802d85-fde7-4c84-b2c6-eeb4a650c9a8",
            "completedAuthorisedPaymentType": "TRANSACAO_EFETIVADA",
            "creditDebitType": "DEBITO",
            "transactionName": "7d802d85-fde7-4c84-b2c6-eeb4a650c9a8",
            "type": "PIX",
            "transactionAmount": {
                "amount": "7727.6302",
                "currency": "BRL"
            },
            "transactionDate": "2022-01-16",
            "partieCnpjCpf": "79317559000108",
            "partiePersonType": "PESSOA_JURIDICA",
            "partieCompeCode": "001",
            "partieBranchCode": "5429",
            "partieNumber": "12583783",
            "partieCheckDigit": "7"
        },
        {
            "transactionId": "eff644ab-84c0-4d11-ac74-dbdb5163f9c6",
            "completedAuthorisedPaymentType": "TRANSACAO_EFETIVADA",
            "creditDebitType": "DEBITO",
            "transactionName": "eff644ab-84c0-4d11-ac74-dbdb5163f9c6",
            "type": "CONVENIO_ARRECADACAO",
            "transactionAmount": {
                "amount": "6298.7331",
                "currency": "BRL"
            },
            "transactionDate": "2022-01-15",
            "partieCnpjCpf": "79317559000108",
            "partiePersonType": "PESSOA_JURIDICA",
            "partieCompeCode": "001",
            "partieBranchCode": "5429",
            "partieNumber": "12583783",
            "partieCheckDigit": "7"
        },
        {
            "transactionId": "36640399-c920-4ddc-b2ee-49381d9269f9",
            "completedAuthorisedPaymentType": "TRANSACAO_EFETIVADA",
            "creditDebitType": "DEBITO",
            "transactionName": "36640399-c920-4ddc-b2ee-49381d9269f9",
            "type": "PACOTE_TARIFA_SERVICOS",
            "transactionAmount": {
                "amount": "9965.2578",
                "currency": "BRL"
            },
            "transactionDate": "2022-01-04",
            "partieCnpjCpf": "79317559000108",
            "partiePersonType": "PESSOA_JURIDICA",
            "partieCompeCode": "001",
            "partieBranchCode": "5429",
            "partieNumber": "12583783",
            "partieCheckDigit": "7"
        },
        {
            "transactionId": "45be173c-e03e-4d31-89da-f867499aadb9",
            "completedAuthorisedPaymentType": "TRANSACAO_EFETIVADA",
            "creditDebitType": "CREDITO",
            "transactionName": "45be173c-e03e-4d31-89da-f867499aadb9",
            "type": "DEPOSITO",
            "transactionAmount": {
                "amount": "8702.9785",
                "currency": "BRL"
            },
            "transactionDate": "2022-01-04",
            "partieCnpjCpf": "79317559000108",
            "partiePersonType": "PESSOA_JURIDICA",
            "partieCompeCode": "001",
            "partieBranchCode": "5429",
            "partieNumber": "12583783",
            "partieCheckDigit": "7"
        }
    ],
    "links": {
        "first": "https://opendata.api.bb.com.bropen-banking/accounts/v1/accounts/0e49a20b-33c3-42ac-876c-567c78673abd/transactions?page=1&page-size=10",
        "last": "https://opendata.api.bb.com.bropen-banking/accounts/v1/accounts/0e49a20b-33c3-42ac-876c-567c78673abd/transactions?page=6&page-size=10",
        "next": "https://opendata.api.bb.com.bropen-banking/accounts/v1/accounts/0e49a20b-33c3-42ac-876c-567c78673abd/transactions?page=4&page-size=10",
        "prev": "https://opendata.api.bb.com.bropen-banking/accounts/v1/accounts/0e49a20b-33c3-42ac-876c-567c78673abd/transactions?page=2&page-size=10",
        "self": "https://opendata.api.bb.com.bropen-banking/accounts/v1/accounts/0e49a20b-33c3-42ac-876c-567c78673abd/transactions?page=3&page-size=10"
    },
    "meta": {
        "totalRecords": 54,
        "totalPages": 6,
        "requestDateTime": "2022-09-01T10:45:00Z"
    }
}