{
  "data": {
    "brand": {
      "name": "Banco Cooperativo Sicredi S.A. – Bansicredi",
      "companies": [
        {
          "name": "COOPERATIVA DE CRÉDITO, POUPANÇA E INVESTIMENTO RIO PARANÁ - SICREDI RIO PARANÁ PR/SP",
          "cnpjNumber": "81206039000161",
          "urlComplementaryList": "https://www.sicredi.com.br/site/localizar-agencia",
          "branches": [
            {
              "identification": {
                "type": "AGENCIA",
                "code": "0718",
                "checkDigit": "9",
                "name": "Agencia 0718 - Alto Paraná",
                "openingDate": "2010-01-02"
              },
              "postalAddress": {
                "address": "Praça Rui Barbosa, 161",
                "districtName": "Centro",
                "townName": "Alto Paraná",
                "countrySubDivision": "PR",
                "postCode": "17500001",
                "ibgeCode": "4100608",
                "country": "Brasil",
                "countryCode": "BRA",
                "geographicCoordinates": {
                  "latitude": "-23.1312007",
                  "longitude": "-52.3232255"
                }
              },
              "availability": {
                "standards": [
                  {
                    "weekday": "SEGUNDA_FEIRA",
                    "openingTime": "10:00:00Z",
                    "closingTime": "15:00:00Z"
                  },
                  {
                    "weekday": "TERCA_FEIRA",
                    "openingTime": "10:00:00Z",
                    "closingTime": "15:00:00Z"
                  },
                  {
                    "weekday": "QUARTA_FEIRA",
                    "openingTime": "10:00:00Z",
                    "closingTime": "15:00:00Z"
                  },
                  {
                    "weekday": "QUINTA_FEIRA",
                    "openingTime": "10:00:00Z",
                    "closingTime": "15:00:00Z"
                  },
                  {
                    "weekday": "SEXTA_FEIRA",
                    "openingTime": "10:00:00Z",
                    "closingTime": "15:00:00Z"
                  }
                ],
                "exception": "Exceto feriados municipais, estaduais e nacionais",
                "isPublicAccessAllowed": true
              },
              "phones": [
                {
                  "type": "FIXO",
                  "countryCallingCode": "55",
                  "areaCode": "44",
                  "number": "35721199"
                },
                {
                  "type": "MOVEL",
                  "countryCallingCode": "55",
                  "areaCode": "44",
                  "number": "997865532"
                }
              ],
              "services": [
                {
                  "name": "ABERTURA_CONTAS_DEPOSITOS_OU_PAGAMENTO_PRE_PAGA",
                  "code": "ABRE_CONTA_DEPOSITO_OU_PRE_PAGA"
                },
                {
                  "name": "SAQUE_MOEDA_EM_ESPECIE",
                  "code": "SAQUE_MOEDA_ESPECIE"
                },
                {
                  "name": "RECEBIMENTOS_PAGAMENTOS_QUALQUER_NATUREZA",
                  "code": "RECEBE_PAGA_QUALQUER_NATUREZA"
                },
                {
                  "name": "TRANSFERENCIAS_ELETRONICAS_VISANDO_MOVIMENTACAO_CONTAS_DEPOSITOS_OU_PAGAMENTO_TITULARIDADE_CLIENTES",
                  "code": "CONSULTA_SALDOS_EXTRATOS_CONTAS_DEPOSITOS_CONTAS_PAGAMENTOS, APLICACOES_RESGATES_INVESTIMENTOS"
                },
                {
                  "name": "OPERACOES_CREDITO_BEM_COMO_OUTROS_SERVICOS_PRESTADOS_ACOMPANHAMENTO_OPERACAO",
                  "code": "OPERA_CREDITO_OUTROS_SERVICOS_ACOMPANHA_OPERACAO"
                },
                {
                  "name": "OUTROS_PRODUTOS_SERVICOS",
                  "code": "OUTROS_PRODUTOS_SERVICOS"
                }
              ]
            },
            {
              "identification": {
                "type": "POSTO_ATENDIMENTO",
                "code": "0800",
                "checkDigit": "9",
                "name": "AGENCIA DE ATENDIMENTO 0800",
                "relatedBranch": "0718",
                "openingDate": "2015-02-10"
              },
              "postalAddress": {
                "address": "Av. Pedro Viriato P. de Souza, 1000",
                "districtName": "Centro",
                "townName": "Cambé",
                "countrySubDivision": "PR ",
                "postCode": "86185020",
                "ibgeCode": "4100608",
                "country": "Brasil",
                "countryCode": "BRA",
                "geographicCoordinates": {
                  "latitude": "-23.5213757",
                  "longitude": "-51.0907828"
                }
              },
              "availability": {
                "standards": [
                  {
                    "weekday": "SEGUNDA_FEIRA",
                    "openingTime": "07:00:00Z",
                    "closingTime": "16:00:00Z"
                  },
                  {
                    "weekday": "TERCA_FEIRA",
                    "openingTime": "07:00:00Z",
                    "closingTime": "16:00:00Z"
                  },
                  {
                    "weekday": "QUARTA_FEIRA",
                    "openingTime": "07:00:00Z",
                    "closingTime": "16:00:00Z"
                  },
                  {
                    "weekday": "QUINTA_FEIRA",
                    "openingTime": "07:00:00Z",
                    "closingTime": "16:00:00Z"
                  },
                  {
                    "weekday": "SEXTA_FEIRA",
                    "openingTime": "07:00:00Z",
                    "closingTime": "12:00:00Z"
                  }
                ],
                "exception": "Exceto feriados municipais, estaduais e nacionais",
                "isPublicAccessAllowed": true
              },
              "phones": [
                {
                  "type": "FIXO",
                  "countryCallingCode": "55",
                  "areaCode": "44",
                  "number": "35721199"
                },
                {
                  "type": "MOVEL",
                  "countryCallingCode": "55",
                  "areaCode": "44",
                  "number": "997865532"
                }
              ],
              "services": [
                {
                  "name": "CANCELAMENTO",
                  "code": "CANCELAMENTO"
                },
                {
                  "name": "INFORMACOES",
                  "code": "INFORMACOES"
                },
                {
                  "name": "RECLAMACOES",
                  "code": "RECLAMACOES"
                },
                {
                  "name": "SEGUROS",
                  "code": "SEGUROS"
                },
                {
                  "name": "OUTROS_PRODUTOS_SERVICOS",
                  "code": "OUTROS_PRODUTOS_SERVICOS"
                }
              ]
            }
          ]
        }
      ]
    }
  },
  "links": {
    "self": "https://api.sicredi.com.br/open-banking/channels/v1/branches?page=2&page-size=1",
    "first": "https://api.sicredi.com.br/open-banking/channels/v1/branches?page=1&page-size=1",
    "prev": "https://api.sicredi.com.br/open-banking/channels/v1/branches?page=1&page-size=1",
    "next": "https://api.sicredi.com.br/open-banking/channels/v1/branches?page=3&page-size=1",
    "last": "https://api.sicredi.com.br/open-banking/channels/v1/branches?page=10&page-size=1"
  },
  "meta": {
    "totalRecords": 10,
    "totalPages": 10
  }
}