{
    "data": [
        {
            "transactionId": "3e3d073d-900c-4b5a-b01a-3fa6a0bd032d",
            "identificationNumber": "3697",
            "transactionName": "CASHBACK",
            "billId": "01d135a2-c54a-489d-ab25-377763b929c1",
            "creditDebitType": "CREDITO",
            "transactionType": "CASHBACK",
            "paymentType": "A_VISTA",
            "feeType": "ANUIDADE",
            "otherCreditsType": "CREDITO_ROTATIVO",
            "chargeIdentificator": "PARCELA_1",
            "chargeNumber": 1,
            "brazilianAmount": {
                "amount": "15.0000",
                "currency": "BRL"
            },
            "amount": {
                "amount": "15.0000",
                "currency": "BRL"
            },
            "transactionDate": "2022-07-16",
            "billPostDate": "2022-07-16",
            "payeeMCC": 5815
        }
    ],
    "links": {
        "self": "https://api.caixa.gov.br/open-banking/credit-cards-accounts/v1/accounts/0cd8e31e-db2d-11eb-8d19-0242ac130003/bills/01d135a2-c54a-489d-ab25-377763b929c1/transactions?page=1&page-size=1&transactionType=CASHBACK",
        "first": "https://api.caixa.gov.br/open-banking/credit-cards-accounts/v1/accounts/0cd8e31e-db2d-11eb-8d19-0242ac130003/bills/01d135a2-c54a-489d-ab25-377763b929c1/transactions?page=1&page-size=1&transactionType=CASHBACK",
        "next": "https://api.caixa.gov.br/open-banking/credit-cards-accounts/v1/accounts/0cd8e31e-db2d-11eb-8d19-0242ac130003/bills/01d135a2-c54a-489d-ab25-377763b929c1/transactions?page=2&page-size=1&transactionType=CASHBACK",
        "last": "https://api.caixa.gov.br/open-banking/credit-cards-accounts/v1/accounts/0cd8e31e-db2d-11eb-8d19-0242ac130003/bills/01d135a2-c54a-489d-ab25-377763b929c1/transactions?page=2&page-size=1&transactionType=CASHBACK"
    },
    "meta": {
        "totalRecords": 2,
        "totalPages": 2,
        "requestDateTime": "2022-09-16T11:04:00Z"
    }
}