{
    "data": [
        {
            "transactionId": "6c30bc0e-d8e5-11eb-b8bc-0242ac130003",
            "identificationNumber": "0126",
            "transactionName": "PGTO",
            "billId": "2c30bc0e-d8e5-11eb-b8bc-0242ac130003",
            "creditDebitType": "CREDITO",
            "transactionType": "PAGAMENTO",
            "paymentType": "A_VISTA",
            "feeType": "TARIFA_PAGAMENTO_CONTAS",
            "otherCreditsType": "CREDITO_ROTATIVO",
            "chargeIdentificator": "PARCELA_1",
            "chargeNumber": 1,
            "brazilianAmount": {
                "amount": "3622.7700",
                "currency": "BRL"
            },
            "amount": {
                "amount": "3622.7700",
                "currency": "BRL"
            },
            "transactionDate": "2022-07-21",
            "billPostDate": "2022-07-25",
            "payeeMCC": 5621
        },
        {
            "transactionId": "cb9e21d6-d9b3-11eb-b8bc-0242ac130003",
            "identificationNumber": "0126",
            "transactionName": "PGTO",
            "billId": "2c30bc0e-d8e5-11eb-b8bc-0242ac130003",
            "creditDebitType": "CREDITO",
            "transactionType": "PAGAMENTO",
            "paymentType": "A_VISTA",
            "feeType": "ANUIDADE",
            "otherCreditsType": "CREDITO_ROTATIVO",
            "chargeIdentificator": "PARCELA_1",
            "chargeNumber": 1,
            "brazilianAmount": {
                "amount": "78.1600",
                "currency": "BRL"
            },
            "amount": {
                "amount": "78.1600",
                "currency": "BRL"
            },
            "transactionDate": "2022-07-17",
            "billPostDate": "2022-07-17",
            "payeeMCC": 5661
        }
    ],
    "links": {
        "self": "https://api.caixa.gov.br/open-banking/credit-cards-accounts/v1/accounts/b22632a4-d8e4-11eb-b8bc-0242ac130003/bills/2c30bc0e-d8e5-11eb-b8bc-0242ac130003/transactions?page=1&page-size=2&transactionType=PAGAMENTO",
        "first": "https://api.caixa.gov.br/open-banking/credit-cards-accounts/v1/accounts/b22632a4-d8e4-11eb-b8bc-0242ac130003/bills/2c30bc0e-d8e5-11eb-b8bc-0242ac130003/transactions?page=1&page-size=2&transactionType=PAGAMENTO",
        "next": "https://api.caixa.gov.br/open-banking/credit-cards-accounts/v1/accounts/b22632a4-d8e4-11eb-b8bc-0242ac130003/bills/2c30bc0e-d8e5-11eb-b8bc-0242ac130003/transactions?page=2&page-size=2&transactionType=PAGAMENTO",
        "last": "https://api.caixa.gov.br/open-banking/credit-cards-accounts/v1/accounts/b22632a4-d8e4-11eb-b8bc-0242ac130003/bills/2c30bc0e-d8e5-11eb-b8bc-0242ac130003/transactions?page=3&page-size=2&transactionType=PAGAMENTO"
    },
    "meta": {
        "totalRecords": 5,
        "totalPages": 3,
        "requestDateTime": "2022-09-09T09:56:00Z"
    }
} 