{
    "data": [
        {
            "transactionId": "016c3366-c80f-471c-ae46-b9848b77df56",
            "identificationNumber": "3697",
            "transactionName": "PGTO",
            "billId": "01d135a2-c54a-489d-ab25-377763b929c1",
            "creditDebitType": "CREDITO",
            "transactionType": "PAGAMENTO",
            "paymentType": "A_VISTA",
            "feeType": "TARIFA_PAGAMENTO_CONTAS",
            "otherCreditsType": "CREDITO_ROTATIVO",
            "chargeIdentificator": "PARCELA_1",
            "chargeNumber": 1,
            "brazilianAmount": {
                "amount": "3622.7700",
                "currency": "BRL"
            },
            "amount": {
                "amount": "3622.7700",
                "currency": "BRL"
            },
            "transactionDate": "2022-07-21",
            "billPostDate": "2022-07-25",
            "payeeMCC": 5621
        },
        {
            "transactionId": "76d3bf4c-cee3-4765-92da-8bfec21ae323",
            "identificationNumber": "3697",
            "transactionName": "PGTO",
            "billId": "01d135a2-c54a-489d-ab25-377763b929c1",
            "creditDebitType": "CREDITO",
            "transactionType": "PAGAMENTO",
            "paymentType": "A_VISTA",
            "feeType": "ANUIDADE",
            "otherCreditsType": "CREDITO_ROTATIVO",
            "chargeIdentificator": "PARCELA_1",
            "chargeNumber": 1,
            "brazilianAmount": {
                "amount": "78.1600",
                "currency": "BRL"
            },
            "amount": {
                "amount": "78.1600",
                "currency": "BRL"
            },
            "transactionDate": "2022-07-17",
            "billPostDate": "2022-07-17",
            "payeeMCC": 5661
        }
    ],
    "links": {
        "self": "https://api.caixa.gov.br/open-banking/credit-cards-accounts/v1/accounts/0cd8e31e-db2d-11eb-8d19-0242ac130003/bills/01d135a2-c54a-489d-ab25-377763b929c1/transactions?page=1&page-size=2&transactionType=PAGAMENTO",
        "first": "https://api.caixa.gov.br/open-banking/credit-cards-accounts/v1/accounts/0cd8e31e-db2d-11eb-8d19-0242ac130003/bills/01d135a2-c54a-489d-ab25-377763b929c1/transactions?page=1&page-size=2&transactionType=PAGAMENTO",
        "next": "https://api.caixa.gov.br/open-banking/credit-cards-accounts/v1/accounts/0cd8e31e-db2d-11eb-8d19-0242ac130003/bills/01d135a2-c54a-489d-ab25-377763b929c1/transactions?page=2&page-size=2&transactionType=PAGAMENTO",
        "last": "https://api.caixa.gov.br/open-banking/credit-cards-accounts/v1/accounts/0cd8e31e-db2d-11eb-8d19-0242ac130003/bills/01d135a2-c54a-489d-ab25-377763b929c1/transactions?page=3&page-size=2&transactionType=PAGAMENTO"
    },
    "meta": {
        "totalRecords": 5,
        "totalPages": 3,
        "requestDateTime": "2022-09-16T11:04:00Z"
    }
} 