{
    "data": [
        {
            "transactionId": "176146c8-3d1c-49df-a325-0d3b3cea86ae",
            "identificationNumber": "3697",
            "transactionName": "TARIFAS",
            "billId": "01d135a2-c54a-489d-ab25-377763b929c1",
            "creditDebitType": "CREDITO",
            "transactionType": "TARIFA",
            "paymentType": "A_VISTA",
            "feeType": "ANUIDADE",
            "otherCreditsType": "CREDITO_ROTATIVO",
            "chargeIdentificator": "PARCELA_1",
            "chargeNumber": 1,
            "brazilianAmount": {
                "amount": "489.9900",
                "currency": "BRL"
            },
            "amount": {
                "amount": "489.9900",
                "currency": "BRL"
            },
            "transactionDate": "2022-07-20",
            "billPostDate": "2022-07-20",
            "payeeMCC": 4900
        }
    ],
    "links": {
        "self": "https://api.caixa.gov.br/open-banking/credit-cards-accounts/v1/accounts/0cd8e31e-db2d-11eb-8d19-0242ac130003/bills/01d135a2-c54a-489d-ab25-377763b929c1/transactions?page=1&page-size=1&transactionType=TARIFA",
        "first": "https://api.caixa.gov.br/open-banking/credit-cards-accounts/v1/accounts/0cd8e31e-db2d-11eb-8d19-0242ac130003/bills/01d135a2-c54a-489d-ab25-377763b929c1/transactions?page=1&page-size=1&transactionType=TARIFA",
        "next": "https://api.caixa.gov.br/open-banking/credit-cards-accounts/v1/accounts/0cd8e31e-db2d-11eb-8d19-0242ac130003/bills/01d135a2-c54a-489d-ab25-377763b929c1/transactions?page=2&page-size=1&transactionType=TARIFA",
        "last": "https://api.caixa.gov.br/open-banking/credit-cards-accounts/v1/accounts/0cd8e31e-db2d-11eb-8d19-0242ac130003/bills/01d135a2-c54a-489d-ab25-377763b929c1/transactions?page=2&page-size=1&transactionType=TARIFA"
    },
    "meta": {
        "totalRecords": 2,
        "totalPages": 2,
        "requestDateTime": "2022-09-16T11:04:00Z"
    }
} 