{
    "data": [
        {
            "amount": 9256.6959,
            "partieCompeCode": "001",
            "partieBranchCode": "5429",
            "partieNumber": "12583783",
            "partieCheckDigit": "7",
            "partiePersonType": "PESSOA_JURIDICA",
            "partieCnpjCpf": "79317559000108",
            "completedAuthorisedPaymentType": "TRANSACAO_EFETIVADA",
            "creditDebitType": "DEBITO",
            "type": "SAQUE",
            "transactionCurrency": "BRL",
            "transactionDate": "2021-11-12",
            "transactionId": "436da47e-913d-4106-aab3-11bb09869a51",
            "transactionName": "436da47e-913d-4106-aab3-11bb09869a51"
        },
        {
            "amount": 10272.0115,
            "partieCompeCode": "001",
            "partieBranchCode": "5429",
            "partieNumber": "12583783",
            "partieCheckDigit": "7",
            "partiePersonType": "PESSOA_JURIDICA",
            "partieCnpjCpf": "79317559000108",
            "completedAuthorisedPaymentType": "TRANSACAO_EFETIVADA",
            "creditDebitType": "DEBITO",
            "type": "FOLHA_PAGAMENTO",
            "transactionCurrency": "BRL",
            "transactionDate": "2021-11-09",
            "transactionId": "8a3c5431-ac0c-4415-9d34-c75db78fca1f",
            "transactionName": "8a3c5431-ac0c-4415-9d34-c75db78fca1f"
        },
        {
            "amount": 7954.5537,
            "partieCompeCode": "001",
            "partieBranchCode": "5429",
            "partieNumber": "12583783",
            "partieCheckDigit": "7",
            "partiePersonType": "PESSOA_JURIDICA",
            "partieCnpjCpf": "79317559000108",
            "completedAuthorisedPaymentType": "TRANSACAO_EFETIVADA",
            "creditDebitType": "DEBITO",
            "type": "OUTROS",
            "transactionCurrency": "BRL",
            "transactionDate": "2021-11-08",
            "transactionId": "6557ca68-8d01-4044-af69-3c5056dbb1df",
            "transactionName": "6557ca68-8d01-4044-af69-3c5056dbb1df"
        },
        {
            "amount": 5608.7767,
            "partieCompeCode": "001",
            "partieBranchCode": "5429",
            "partieNumber": "12583783",
            "partieCheckDigit": "7",
            "partiePersonType": "PESSOA_JURIDICA",
            "partieCnpjCpf": "79317559000108",
            "completedAuthorisedPaymentType": "TRANSACAO_EFETIVADA",
            "creditDebitType": "CREDITO",
            "type": "DEPOSITO",
            "transactionCurrency": "BRL",
            "transactionDate": "2021-11-04",
            "transactionId": "933108ee-41b7-417f-9079-e345b271e9b7",
            "transactionName": "933108ee-41b7-417f-9079-e345b271e9b7"
        },
        {
            "amount": 10029.7010,
            "partieCompeCode": "001",
            "partieBranchCode": "5429",
            "partieNumber": "12583783",
            "partieCheckDigit": "7",
            "partiePersonType": "PESSOA_JURIDICA",
            "partieCnpjCpf": "79317559000108",
            "completedAuthorisedPaymentType": "TRANSACAO_EFETIVADA",
            "creditDebitType": "DEBITO",
            "type": "TARIFA_SERVICOS_AVULSOS",
            "transactionCurrency": "BRL",
            "transactionDate": "2021-11-04",
            "transactionId": "802dc567-dac6-4dc7-b68e-404a68de824a",
            "transactionName": "802dc567-dac6-4dc7-b68e-404a68de824a"
        },
        {
            "amount": 6294.9059,
            "partieCompeCode": "001",
            "partieBranchCode": "5429",
            "partieNumber": "12583783",
            "partieCheckDigit": "7",
            "partiePersonType": "PESSOA_JURIDICA",
            "partieCnpjCpf": "79317559000108",
            "completedAuthorisedPaymentType": "TRANSACAO_EFETIVADA",
            "creditDebitType": "CREDITO",
            "type": "RENDIMENTO_APLIC_FINANCEIRA",
            "transactionCurrency": "BRL",
            "transactionDate": "2021-11-04",
            "transactionId": "b911f922-3873-4679-b35d-01682baa0190",
            "transactionName": "b911f922-3873-4679-b35d-01682baa0190"
        },
        {
            "amount": 9393.0721,
            "partieCompeCode": "001",
            "partieBranchCode": "5429",
            "partieNumber": "12583783",
            "partieCheckDigit": "7",
            "partiePersonType": "PESSOA_JURIDICA",
            "partieCnpjCpf": "79317559000108",
            "completedAuthorisedPaymentType": "TRANSACAO_EFETIVADA",
            "creditDebitType": "DEBITO",
            "type": "CARTAO",
            "transactionCurrency": "BRL",
            "transactionDate": "2021-11-01",
            "transactionId": "7afb2cb2-f312-4023-97aa-06b9a29a6700",
            "transactionName": "7afb2cb2-f312-4023-97aa-06b9a29a6700"
        },
        {
            "amount": 10256.7110,
            "partieCompeCode": "001",
            "partieBranchCode": "5429",
            "partieNumber": "12583783",
            "partieCheckDigit": "7",
            "partiePersonType": "PESSOA_JURIDICA",
            "partieCnpjCpf": "79317559000108",
            "completedAuthorisedPaymentType": "TRANSACAO_EFETIVADA",
            "creditDebitType": "DEBITO",
            "type": "TED",
            "transactionCurrency": "BRL",
            "transactionDate": "2021-10-27",
            "transactionId": "010291b0-133a-4452-892c-3cbaf451393d",
            "transactionName": "010291b0-133a-4452-892c-3cbaf451393d"
        },
        {
            "amount": 431.8536,
            "partieCompeCode": "001",
            "partieBranchCode": "5429",
            "partieNumber": "12583783",
            "partieCheckDigit": "7",
            "partiePersonType": "PESSOA_JURIDICA",
            "partieCnpjCpf": "79317559000108",
            "completedAuthorisedPaymentType": "TRANSACAO_EFETIVADA",
            "creditDebitType": "DEBITO",
            "type": "ENCARGOS_JUROS_CHEQUE_ESPECIAL",
            "transactionCurrency": "BRL",
            "transactionDate": "2021-10-25",
            "transactionId": "e004e8f8-1a91-4383-bd57-e9b6c6e4bde7",
            "transactionName": "e004e8f8-1a91-4383-bd57-e9b6c6e4bde7"
        },
        {
            "amount": 373.3756,
            "partieCompeCode": "001",
            "partieBranchCode": "5429",
            "partieNumber": "12583783",
            "partieCheckDigit": "7",
            "partiePersonType": "PESSOA_JURIDICA",
            "partieCnpjCpf": "79317559000108",
            "completedAuthorisedPaymentType": "TRANSACAO_EFETIVADA",
            "creditDebitType": "DEBITO",
            "type": "PACOTE_TARIFA_SERVICOS",
            "transactionCurrency": "BRL",
            "transactionDate": "2021-10-21",
            "transactionId": "ce8aaf1c-0bb3-4169-a5de-39ef918822c4",
            "transactionName": "ce8aaf1c-0bb3-4169-a5de-39ef918822c4"
        }
    ],
    "links": {
        "first": "https://opendata.api.bb.com.bropen-banking/accounts/v1/accounts/0e49a20b-33c3-42ac-876c-567c78673abd/transactions?page=1&page-size=10",
        "last": "https://opendata.api.bb.com.bropen-banking/accounts/v1/accounts/0e49a20b-33c3-42ac-876c-567c78673abd/transactions?page=6&page-size=10",
        "next": "https://opendata.api.bb.com.bropen-banking/accounts/v1/accounts/0e49a20b-33c3-42ac-876c-567c78673abd/transactions?page=6&page-size=10",
        "prev": "https://opendata.api.bb.com.bropen-banking/accounts/v1/accounts/0e49a20b-33c3-42ac-876c-567c78673abd/transactions?page=4&page-size=10",
        "self": "https://opendata.api.bb.com.bropen-banking/accounts/v1/accounts/0e49a20b-33c3-42ac-876c-567c78673abd/transactions?page=5&page-size=10"
    },
    "meta": {
        "totalRecords": 54,
        "totalPages": 6,
        "requestDateTime": "2022-03-28T00:00:00Z"
    }
}