{
    "data": [
        {
            "amount": 7606.7818,
            "partieCompeCode": "001",
            "partieBranchCode": "5429",
            "partieNumber": "12583783",
            "partieCheckDigit": "7",
            "partiePersonType": "PESSOA_JURIDICA",
            "partieCnpjCpf": "79317559000108",
            "completedAuthorisedPaymentType": "TRANSACAO_EFETIVADA",
            "creditDebitType": "DEBITO",
            "type": "PIX",
            "transactionCurrency": "BRL",
            "transactionDate": "2022-01-26",
            "transactionId": "3f32dceb-8f22-44c1-8334-d263d18253af",
            "transactionName": "3f32dceb-8f22-44c1-8334-d263d18253af"
        },
        {
            "amount": 6543.8996,
            "partieCompeCode": "001",
            "partieBranchCode": "5429",
            "partieNumber": "12583783",
            "partieCheckDigit": "7",
            "partiePersonType": "PESSOA_JURIDICA",
            "partieCnpjCpf": "79317559000108",
            "completedAuthorisedPaymentType": "TRANSACAO_EFETIVADA",
            "creditDebitType": "DEBITO",
            "type": "CONVENIO_ARRECADACAO",
            "transactionCurrency": "BRL",
            "transactionDate": "2022-01-26",
            "transactionId": "6a6d5407-373a-45c9-b070-6bb5aa107720",
            "transactionName": "6a6d5407-373a-45c9-b070-6bb5aa107720"
        },
        {
            "amount": 7159.33,
            "partieCompeCode": "001",
            "partieBranchCode": "5429",
            "partieNumber": "12583783",
            "partieCheckDigit": "7",
            "partiePersonType": "PESSOA_JURIDICA",
            "partieCnpjCpf": "79317559000108",
            "completedAuthorisedPaymentType": "TRANSACAO_EFETIVADA",
            "creditDebitType": "CREDITO",
            "type": "PIX",
            "transactionCurrency": "BRL",
            "transactionDate": "2022-01-25",
            "transactionId": "5ede6833-6040-4c23-970b-2ee5a0e838fa",
            "transactionName": "5ede6833-6040-4c23-970b-2ee5a0e838fa"
        },
        {
            "amount": 6226.4476,
            "partieCompeCode": "001",
            "partieBranchCode": "5429",
            "partieNumber": "12583783",
            "partieCheckDigit": "7",
            "partiePersonType": "PESSOA_JURIDICA",
            "partieCnpjCpf": "79317559000108",
            "completedAuthorisedPaymentType": "TRANSACAO_EFETIVADA",
            "creditDebitType": "DEBITO",
            "type": "OUTROS",
            "transactionCurrency": "BRL",
            "transactionDate": "2022-01-24",
            "transactionId": "b64c071e-ee56-4446-85f3-c428ced38355",
            "transactionName": "b64c071e-ee56-4446-85f3-c428ced38355"
        },
        {
            "amount": 6093.5035,
            "partieCompeCode": "001",
            "partieBranchCode": "5429",
            "partieNumber": "12583783",
            "partieCheckDigit": "7",
            "partiePersonType": "PESSOA_JURIDICA",
            "partieCnpjCpf": "79317559000108",
            "completedAuthorisedPaymentType": "TRANSACAO_EFETIVADA",
            "creditDebitType": "CREDITO",
            "type": "OPERACAO_CREDITO",
            "transactionCurrency": "BRL",
            "transactionDate": "2022-01-19",
            "transactionId": "714353cd-1b24-4121-9f1e-39b28c544205",
            "transactionName": "714353cd-1b24-4121-9f1e-39b28c544205"
        },
        {
            "amount": 5714.2545,
            "partieCompeCode": "001",
            "partieBranchCode": "5429",
            "partieNumber": "12583783",
            "partieCheckDigit": "7",
            "partiePersonType": "PESSOA_JURIDICA",
            "partieCnpjCpf": "79317559000108",
            "completedAuthorisedPaymentType": "TRANSACAO_EFETIVADA",
            "creditDebitType": "DEBITO",
            "type": "BOLETO",
            "transactionCurrency": "BRL",
            "transactionDate": "2022-01-19",
            "transactionId": "f57ba2f6-4450-44ce-852f-d60123a5f3a0",
            "transactionName": "f57ba2f6-4450-44ce-852f-d60123a5f3a0"
        },
        {
            "amount": 7727.6302,
            "partieCompeCode": "001",
            "partieBranchCode": "5429",
            "partieNumber": "12583783",
            "partieCheckDigit": "7",
            "partiePersonType": "PESSOA_JURIDICA",
            "partieCnpjCpf": "79317559000108",
            "completedAuthorisedPaymentType": "TRANSACAO_EFETIVADA",
            "creditDebitType": "DEBITO",
            "type": "PIX",
            "transactionCurrency": "BRL",
            "transactionDate": "2022-01-16",
            "transactionId": "7d802d85-fde7-4c84-b2c6-eeb4a650c9a8",
            "transactionName": "7d802d85-fde7-4c84-b2c6-eeb4a650c9a8"
        },
        {
            "amount": 6298.7331,
            "partieCompeCode": "001",
            "partieBranchCode": "5429",
            "partieNumber": "12583783",
            "partieCheckDigit": "7",
            "partiePersonType": "PESSOA_JURIDICA",
            "partieCnpjCpf": "79317559000108",
            "completedAuthorisedPaymentType": "TRANSACAO_EFETIVADA",
            "creditDebitType": "DEBITO",
            "type": "CONVENIO_ARRECADACAO",
            "transactionCurrency": "BRL",
            "transactionDate": "2022-01-15",
            "transactionId": "eff644ab-84c0-4d11-ac74-dbdb5163f9c6",
            "transactionName": "eff644ab-84c0-4d11-ac74-dbdb5163f9c6"
        },
        {
            "amount": 9965.2578,
            "partieCompeCode": "001",
            "partieBranchCode": "5429",
            "partieNumber": "12583783",
            "partieCheckDigit": "7",
            "partiePersonType": "PESSOA_JURIDICA",
            "partieCnpjCpf": "79317559000108",
            "completedAuthorisedPaymentType": "TRANSACAO_EFETIVADA",
            "creditDebitType": "DEBITO",
            "type": "PACOTE_TARIFA_SERVICOS",
            "transactionCurrency": "BRL",
            "transactionDate": "2022-01-04",
            "transactionId": "36640399-c920-4ddc-b2ee-49381d9269f9",
            "transactionName": "36640399-c920-4ddc-b2ee-49381d9269f9"
        },
        {
            "amount": 8702.9785,
            "partieCompeCode": "001",
            "partieBranchCode": "5429",
            "partieNumber": "12583783",
            "partieCheckDigit": "7",
            "partiePersonType": "PESSOA_JURIDICA",
            "partieCnpjCpf": "79317559000108",
            "completedAuthorisedPaymentType": "TRANSACAO_EFETIVADA",
            "creditDebitType": "CREDITO",
            "type": "DEPOSITO",
            "transactionCurrency": "BRL",
            "transactionDate": "2022-01-04",
            "transactionId": "45be173c-e03e-4d31-89da-f867499aadb9",
            "transactionName": "45be173c-e03e-4d31-89da-f867499aadb9"
        }
    ],
    "links": {
        "first": "https://opendata.api.bb.com.bropen-banking/accounts/v1/accounts/0e49a20b-33c3-42ac-876c-567c78673abd/transactions?page=1&page-size=10",
        "last": "https://opendata.api.bb.com.bropen-banking/accounts/v1/accounts/0e49a20b-33c3-42ac-876c-567c78673abd/transactions?page=6&page-size=10",
        "next": "https://opendata.api.bb.com.bropen-banking/accounts/v1/accounts/0e49a20b-33c3-42ac-876c-567c78673abd/transactions?page=4&page-size=10",
        "prev": "https://opendata.api.bb.com.bropen-banking/accounts/v1/accounts/0e49a20b-33c3-42ac-876c-567c78673abd/transactions?page=2&page-size=10",
        "self": "https://opendata.api.bb.com.bropen-banking/accounts/v1/accounts/0e49a20b-33c3-42ac-876c-567c78673abd/transactions?page=3&page-size=10"
    },
    "meta": {
        "totalRecords":54,
        "totalPages": 6,
        "requestDateTime": "2022-03-28T00:00:00Z"
    }
}