{
  "data": {
    "brand": {
      "name": "Banco do Estado do Rio Grande do Sul S.A",
      "companies": [
        {
          "cnpjNumber": "92702067000196",
          "name": "Banco do Estado do Rio Grande do Sul S.A",
          "urlComplementaryList": "https://www.banrisul.com.br/bob/link/bobw03hn_conteudo_detalhe2.aspx?secao_id=296",
          "personalInvoiceFinancings": [
            {
              "type": "ANTECIPACAO_FATURA_CARTAO_CREDITO",
              "fees": {
                "services": [
                  {
                    "name": "Manutenção de Custódia",
                    "code": "MANUTENCAO_CUSTODIA",
                    "chargingTriggerInfo": "5% do valor do contrato",
                    "prices": [
                      {
                        "interval": "1_FAIXA",
                        "value": "0.00",
                        "currency": "BRL",
                        "customers": {
                          "rate": "0.0000"
                        }
                      },
                      {
                        "interval": "2_FAIXA",
                        "value": "100.00",
                        "currency": "BRL",
                        "customers": {
                          "rate": "0.0500"
                        }
                      },
                      {
                        "interval": "3_FAIXA",
                        "value": "1000.00",
                        "currency": "BRL",
                        "customers": {
                          "rate": "0.4500"
                        }
                      },
                      {
                        "interval": "4_FAIXA",
                        "value": "10000.00",
                        "currency": "BRL",
                        "customers": {
                          "rate": "0.5000"
                        }
                      }
                    ],
                    "minimum": {
                      "value": "0.00",
                      "currency": "BRL"
                    },
                    "maximum": {
                      "value": "10000.00",
                      "currency": "BRL"
                    }
                  }
                ]
              },
              "interestRates": [
                {
                  "referentialRateIndexer": "OUTROS_INDICES_PRECO",
                  "rate": "0.10",
                  "applications": [
                    {
                      "interval": "1_FAIXA",
                      "indexer": {
                        "rate": "0.0050"
                      },
                      "customers": {
                        "rate": "0.1000"
                      }
                    },
                    {
                      "interval": "2_FAIXA",
                      "indexer": {
                        "rate": "0.0200"
                      },
                      "customers": {
                        "rate": "0.4000"
                      }
                    },
                    {
                      "interval": "3_FAIXA",
                      "indexer": {
                        "rate": "0.0300"
                      },
                      "customers": {
                        "rate": "0.3000"
                      }
                    },
                    {
                      "interval": "4_FAIXA",
                      "indexer": {
                        "rate": "0.0670"
                      },
                      "customers": {
                        "rate": "0.2000"
                      }
                    }
                  ],
                  "minimumRate": "0.0050",
                  "maximumRate": "0.0670"
                }
              ],
              "requiredWarranties": [
                "BENS_ARRENDADOS"
              ],
              "termsConditions": "https://www.banrisul.com.br/bob/link/bobw03hn_conteudo_detalhe2.aspx?secao_id=296"
            }
          ]
        }
      ]
    }
  },
  "links": {
    "self": "https://openbanking.banrisul.com.br/open-banking/products-services/v1/personal-invoice-financings?page=1&page-size=1",
    "first": "https://openbanking.banrisul.com.br/open-banking/products-services/v1/personal-invoice-financings?page=1&page-size=1",
    "next": "https://openbanking.banrisul.com.br/open-banking/products-services/v1/personal-invoice-financings?page=2&page-size=1",
    "last": "https://openbanking.banrisul.com.br/open-banking/products-services/v1/personal-invoice-financings?page=10&page-size=1"
  },
  "meta": {
    "totalRecords": 10,
    "totalPages": 10
  }
}