{
    "data": {
        "brand": {
            "name": "Banco do Brasil S.A",
            "companies": [
                {
                    "name": "Agencia Rondonia do Banco do Brasil",
                    "cnpjNumber": "00000000440167",
                    "urlComplementaryList": "https://www.bb.com.br/pbb/pagina-inicial/atendimento#/",
                    "electronicChannels": [
                        {
                            "identification": {
                                "type": "OUTROS",
                                "additionalInfo": "WHATSAPP",
                                "urls": [
                                    "https://api.whatsapp.com/send?phone=556140040001&text=Com%20quem%20estou%20falando%3F"
                                ]
                            },
                            "services": [
                                {
                                    "name": "RECEBIMENTOS_PAGAMENTOS_QUALQUER_NATUREZA",
                                    "code": "RECEBE_PAGA_QUALQUER_NATUREZA"
                                },
                                {
                                    "name": "CONSULTA_SALDOS_EXTRATOS_CONTAS_DEPOSITOS_CONTAS_PAGAMENTOS",
                                    "code": "CONSULTA_SALDOS_EXTRATOS_CONTAS_DEPOSITOS_PAGTOS"
                                },
                                {
                                    "name": "OPERACOES_CREDITO_BEM_COMO_OUTROS_SERVICOS_PRESTADOS_ACOMPANHAMENTO_OPERACAO",
                                    "code": "OPERA_CREDITO_OUTROS_SERVICOS_ACOMPANHA_OPERACAO"
                                },
                                {
                                    "name": "CANCELAMENTO",
                                    "code": "CANCELAMENTO"
                                },
                                {
                                    "name": "INFORMACOES",
                                    "code": "INFORMACOES"
                                },
                                {
                                    "name": "OUTROS_PRODUTOS_SERVICOS",
                                    "code": "OUTROS_PRODUTOS_SERVICOS",
                                    "additionalInfo": "OPERA_PIX_CADASTRAMENTO_CONSULTA_CHAVE_EXTRATO"
                                },
                                {
                                    "name": "OUTROS_PRODUTOS_SERVICOS",
                                    "code": "OUTROS_PRODUTOS_SERVICOS",
                                    "additionalInfo": "TRANSFERENCIAS_VISANDO_MOVIMENTACAO_CONTAS_DEPOSITOS_ENTRE_CONTAS_BB"
                                },
                                {
                                    "name": "OUTROS_PRODUTOS_SERVICOS",
                                    "code": "OUTROS_PRODUTOS_SERVICOS",
                                    "additionalInfo": "RECARGA_CELULAR_SPTRANS"
                                },
                                {
                                    "name": "OUTROS_PRODUTOS_SERVICOS",
                                    "code": "OUTROS_PRODUTOS_SERVICOS",
                                    "additionalInfo": "BEM_AUXILIO_EMERCIAL"
                                },
                                {
                                    "name": "OUTROS_PRODUTOS_SERVICOS",
                                    "code": "OUTROS_PRODUTOS_SERVICOS",
                                    "additionalInfo": "INFO_OPEN_BANKING"
                                }
                            ]
                        },
                        {
                            "identification": {
                                "type": "SAC",
                                "urls": [
                                    "https://api.whatsapp.com/send?phone=556140040001&text=Com%20quem%20estou%20falando%3F",
                                    "https://www.youtube.com/bancodobrasil",
                                    "https://www.instagram.com/bancodobrasil/",
                                    "https://www.linkedin.com/company/bancodobrasil/?pk_vid=1edd2072e7b8b3741627310493ef4387",
                                    "https://twitter.com/bancodobrasil?pk_vid=1edd2072e7b8b3741627310493ef4387&pk_vid=1edd2072e7b8b3741627310493ef4387",
                                    "https://www.facebook.com/bancodobrasil"
                                ]
                            },
                            "services": [
                                {
                                    "name": "CONSULTA_SALDOS_EXTRATOS_CONTAS_DEPOSITOS_CONTAS_PAGAMENTOS",
                                    "code": "CONSULTA_SALDOS_EXTRATOS_CONTAS_DEPOSITOS_PAGTOS"
                                },
                                {
                                    "name": "RECLAMACOES",
                                    "code": "RECLAMACOES"
                                },
                                {
                                    "name": "CANCELAMENTO",
                                    "code": "CANCELAMENTO"
                                }
                            ]
                        },
                        {
                            "identification": {
                                "type": "INTERNET_BANKING",
                                "urls": [
                                    "https://www.bb.com.br/pbb/pagina-inicial/voce/produtos-e-servicos/contas/facilidades/autoatendimento-bb-pela-internet#/"
                                ]
                            },
                            "services": [
                                {
                                    "name": "RECEBIMENTOS_PAGAMENTOS_QUALQUER_NATUREZA",
                                    "code": "RECEBE_PAGA_QUALQUER_NATUREZA"
                                },
                                {
                                    "name": "TRANSFERENCIAS_ELETRONICAS_VISANDO_MOVIMENTACAO_CONTAS_DEPOSITOS_OU_PAGAMENTO_TITULARIDADE_CLIENTES",
                                    "code": "TRANSFERENCIAS_ELETRONICAS_MOVIMENTA_CONTAS_DEPOSITOS_OU_PAGTO_TITULARES_CLIENTES"
                                },
                                {
                                    "name": "CONSULTA_SALDOS_EXTRATOS_CONTAS_DEPOSITOS_CONTAS_PAGAMENTOS",
                                    "code": "CONSULTA_SALDOS_EXTRATOS_CONTAS_DEPOSITOS_PAGTOS"
                                },
                                {
                                    "name": "APLICACOES_RESGATES_INVESTIMENTOS",
                                    "code": "APLICA_RESGATA_INVESTIMENTOS"
                                },
                                {
                                    "name": "EXECUCAO_ATIVA_PASSIVA_ORDENS_PAGAMENTO_SOLICITACAO_CLIENTES_USUARIOS",
                                    "code": "EXECUCAO_ATIVA_PASSIVA_ORDENS_PAGTO"
                                },
                                {
                                    "name": "EXECUCAO_ATIVA_PASSIVA_ORDENS_PAGAMENTO_SOLICITACAO_CLIENTES_USUARIOS",
                                    "code": "EXECUCAO_ATIVA_PASSIVA_ORDENS_PAGTO"
                                },
                                {
                                    "name": "OPERACOES_CREDITO_BEM_COMO_OUTROS_SERVICOS_PRESTADOS_ACOMPANHAMENTO_OPERACAO",
                                    "code": "OPERA_CREDITO_OUTROS_SERVICOS_ACOMPANHA_OPERACAO"
                                },
                                {
                                    "name": "CARTAO_CREDITO",
                                    "code": "CARTAO_CREDITO"
                                },
                                {
                                    "name": "SEGUROS",
                                    "code": "SEGUROS"
                                },
                                {
                                    "name": "CANCELAMENTO",
                                    "code": "CANCELAMENTO"
                                },
                                {
                                    "name": "INFORMACOES",
                                    "code": "INFORMACOES"
                                }
                            ]
                        },
                        {
                            "identification": {
                                "type": "MOBILE_BANKING",
                                "urls": [
                                    "https://www.bb.com.br/pbb/pagina-inicial/voce/produtos-e-servicos/contas/facilidades/autoatendimento-bb-pelo-celular#/"
                                ]
                            },
                            "services": [
                                {
                                    "name": "RECEBIMENTOS_PAGAMENTOS_QUALQUER_NATUREZA",
                                    "code": "RECEBE_PAGA_QUALQUER_NATUREZA"
                                },
                                {
                                    "name": "TRANSFERENCIAS_ELETRONICAS_VISANDO_MOVIMENTACAO_CONTAS_DEPOSITOS_OU_PAGAMENTO_TITULARIDADE_CLIENTES",
                                    "code": "TRANSFERENCIAS_ELETRONICAS_MOVIMENTA_CONTAS_DEPOSITOS_OU_PAGTO_TITULARES_CLIENTES"
                                },
                                {
                                    "name": "CONSULTA_SALDOS_EXTRATOS_CONTAS_DEPOSITOS_CONTAS_PAGAMENTOS",
                                    "code": "CONSULTA_SALDOS_EXTRATOS_CONTAS_DEPOSITOS_PAGTOS"
                                },
                                {
                                    "name": "APLICACOES_RESGATES_INVESTIMENTOS",
                                    "code": "APLICA_RESGATA_INVESTIMENTOS"
                                },
                                {
                                    "name": "EXECUCAO_ATIVA_PASSIVA_ORDENS_PAGAMENTO_SOLICITACAO_CLIENTES_USUARIOS",
                                    "code": "EXECUCAO_ATIVA_PASSIVA_ORDENS_PAGTO"
                                },
                                {
                                    "name": "EXECUCAO_ATIVA_PASSIVA_ORDENS_PAGAMENTO_SOLICITACAO_CLIENTES_USUARIOS",
                                    "code": "EXECUCAO_ATIVA_PASSIVA_ORDENS_PAGTO"
                                },
                                {
                                    "name": "OPERACOES_CREDITO_BEM_COMO_OUTROS_SERVICOS_PRESTADOS_ACOMPANHAMENTO_OPERACAO",
                                    "code": "OPERA_CREDITO_OUTROS_SERVICOS_ACOMPANHA_OPERACAO"
                                },
                                {
                                    "name": "CARTAO_CREDITO",
                                    "code": "CARTAO_CREDITO"
                                },
                                {
                                    "name": "SEGUROS",
                                    "code": "SEGUROS"
                                },
                                {
                                    "name": "CANCELAMENTO",
                                    "code": "CANCELAMENTO"
                                },
                                {
                                    "name": "INFORMACOES",
                                    "code": "INFORMACOES"
                                }
                            ]
                        }
                    ]
                },
                {
                    "name": "Agencia Paraná do Banco do Brasil",
                    "cnpjNumber": "00000000397210",
                    "urlComplementaryList": "https://www.bb.com.br/pbb/pagina-inicial/atendimento#/",
                    "electronicChannels": [
                        {
                            "identification": {
                                "type": "OUTROS",
                                "additionalInfo": "WHATSAPP",
                                "urls": [
                                    "https://api.whatsapp.com/send?phone=556140040001&text=Com%20quem%20estou%20falando%3F"
                                ]
                            },
                            "services": [
                                {
                                    "name": "RECEBIMENTOS_PAGAMENTOS_QUALQUER_NATUREZA",
                                    "code": "RECEBE_PAGA_QUALQUER_NATUREZA"
                                },
                                {
                                    "name": "CONSULTA_SALDOS_EXTRATOS_CONTAS_DEPOSITOS_CONTAS_PAGAMENTOS",
                                    "code": "CONSULTA_SALDOS_EXTRATOS_CONTAS_DEPOSITOS_PAGTOS"
                                },
                                {
                                    "name": "OPERACOES_CREDITO_BEM_COMO_OUTROS_SERVICOS_PRESTADOS_ACOMPANHAMENTO_OPERACAO",
                                    "code": "OPERA_CREDITO_OUTROS_SERVICOS_ACOMPANHA_OPERACAO"
                                },
                                {
                                    "name": "CANCELAMENTO",
                                    "code": "CANCELAMENTO"
                                },
                                {
                                    "name": "INFORMACOES",
                                    "code": "INFORMACOES"
                                },
                                {
                                    "name": "OUTROS_PRODUTOS_SERVICOS",
                                    "code": "OUTROS_PRODUTOS_SERVICOS",
                                    "additionalInfo": "OPERA_PIX_CADASTRAMENTO_CONSULTA_CHAVE_EXTRATO"
                                },
                                {
                                    "name": "OUTROS_PRODUTOS_SERVICOS",
                                    "code": "OUTROS_PRODUTOS_SERVICOS",
                                    "additionalInfo": "TRANSFERENCIAS_VISANDO_MOVIMENTACAO_CONTAS_DEPOSITOS_ENTRE_CONTAS_BB"
                                },
                                {
                                    "name": "OUTROS_PRODUTOS_SERVICOS",
                                    "code": "OUTROS_PRODUTOS_SERVICOS",
                                    "additionalInfo": "RECARGA_CELULAR_SPTRANS"
                                },
                                {
                                    "name": "OUTROS_PRODUTOS_SERVICOS",
                                    "code": "OUTROS_PRODUTOS_SERVICOS",
                                    "additionalInfo": "BEM_AUXILIO_EMERCIAL"
                                },
                                {
                                    "name": "OUTROS_PRODUTOS_SERVICOS",
                                    "code": "OUTROS_PRODUTOS_SERVICOS",
                                    "additionalInfo": "INFO_OPEN_BANKING"
                                }
                            ]
                        },
                        {
                            "identification": {
                                "type": "SAC",
                                "urls": [
                                    "https://api.whatsapp.com/send?phone=556140040001&text=Com%20quem%20estou%20falando%3F",
                                    "https://www.youtube.com/bancodobrasil",
                                    "https://www.instagram.com/bancodobrasil/",
                                    "https://www.linkedin.com/company/bancodobrasil/?pk_vid=1edd2072e7b8b3741627310493ef4387",
                                    "https://twitter.com/bancodobrasil?pk_vid=1edd2072e7b8b3741627310493ef4387&pk_vid=1edd2072e7b8b3741627310493ef4387",
                                    "https://www.facebook.com/bancodobrasil"
                                ]
                            },
                            "services": [
                                {
                                    "name": "CONSULTA_SALDOS_EXTRATOS_CONTAS_DEPOSITOS_CONTAS_PAGAMENTOS",
                                    "code": "CONSULTA_SALDOS_EXTRATOS_CONTAS_DEPOSITOS_PAGTOS"
                                },
                                {
                                    "name": "RECLAMACOES",
                                    "code": "RECLAMACOES"
                                },
                                {
                                    "name": "CANCELAMENTO",
                                    "code": "CANCELAMENTO"
                                }
                            ]
                        },
                        {
                            "identification": {
                                "type": "INTERNET_BANKING",
                                "urls": [
                                    "https://www.bb.com.br/pbb/pagina-inicial/voce/produtos-e-servicos/contas/facilidades/autoatendimento-bb-pela-internet#/"
                                ]
                            },
                            "services": [
                                {
                                    "name": "RECEBIMENTOS_PAGAMENTOS_QUALQUER_NATUREZA",
                                    "code": "RECEBE_PAGA_QUALQUER_NATUREZA"
                                },
                                {
                                    "name": "TRANSFERENCIAS_ELETRONICAS_VISANDO_MOVIMENTACAO_CONTAS_DEPOSITOS_OU_PAGAMENTO_TITULARIDADE_CLIENTES",
                                    "code": "TRANSFERENCIAS_ELETRONICAS_MOVIMENTA_CONTAS_DEPOSITOS_OU_PAGTO_TITULARES_CLIENTES"
                                },
                                {
                                    "name": "CONSULTA_SALDOS_EXTRATOS_CONTAS_DEPOSITOS_CONTAS_PAGAMENTOS",
                                    "code": "CONSULTA_SALDOS_EXTRATOS_CONTAS_DEPOSITOS_PAGTOS"
                                },
                                {
                                    "name": "APLICACOES_RESGATES_INVESTIMENTOS",
                                    "code": "APLICA_RESGATA_INVESTIMENTOS"
                                },
                                {
                                    "name": "EXECUCAO_ATIVA_PASSIVA_ORDENS_PAGAMENTO_SOLICITACAO_CLIENTES_USUARIOS",
                                    "code": "EXECUCAO_ATIVA_PASSIVA_ORDENS_PAGTO"
                                },
                                {
                                    "name": "EXECUCAO_ATIVA_PASSIVA_ORDENS_PAGAMENTO_SOLICITACAO_CLIENTES_USUARIOS",
                                    "code": "EXECUCAO_ATIVA_PASSIVA_ORDENS_PAGTO"
                                },
                                {
                                    "name": "OPERACOES_CREDITO_BEM_COMO_OUTROS_SERVICOS_PRESTADOS_ACOMPANHAMENTO_OPERACAO",
                                    "code": "OPERA_CREDITO_OUTROS_SERVICOS_ACOMPANHA_OPERACAO"
                                },
                                {
                                    "name": "CARTAO_CREDITO",
                                    "code": "CARTAO_CREDITO"
                                },
                                {
                                    "name": "SEGUROS",
                                    "code": "SEGUROS"
                                },
                                {
                                    "name": "CANCELAMENTO",
                                    "code": "CANCELAMENTO"
                                },
                                {
                                    "name": "INFORMACOES",
                                    "code": "INFORMACOES"
                                }
                            ]
                        },
                        {
                            "identification": {
                                "type": "MOBILE_BANKING",
                                "urls": [
                                    "https://www.bb.com.br/pbb/pagina-inicial/voce/produtos-e-servicos/contas/facilidades/autoatendimento-bb-pelo-celular#/"
                                ]
                            },
                            "services": [
                                {
                                    "name": "RECEBIMENTOS_PAGAMENTOS_QUALQUER_NATUREZA",
                                    "code": "RECEBE_PAGA_QUALQUER_NATUREZA"
                                },
                                {
                                    "name": "TRANSFERENCIAS_ELETRONICAS_VISANDO_MOVIMENTACAO_CONTAS_DEPOSITOS_OU_PAGAMENTO_TITULARIDADE_CLIENTES",
                                    "code": "TRANSFERENCIAS_ELETRONICAS_MOVIMENTA_CONTAS_DEPOSITOS_OU_PAGTO_TITULARES_CLIENTES"
                                },
                                {
                                    "name": "CONSULTA_SALDOS_EXTRATOS_CONTAS_DEPOSITOS_CONTAS_PAGAMENTOS",
                                    "code": "CONSULTA_SALDOS_EXTRATOS_CONTAS_DEPOSITOS_PAGTOS"
                                },
                                {
                                    "name": "APLICACOES_RESGATES_INVESTIMENTOS",
                                    "code": "APLICA_RESGATA_INVESTIMENTOS"
                                },
                                {
                                    "name": "EXECUCAO_ATIVA_PASSIVA_ORDENS_PAGAMENTO_SOLICITACAO_CLIENTES_USUARIOS",
                                    "code": "EXECUCAO_ATIVA_PASSIVA_ORDENS_PAGTO"
                                },
                                {
                                    "name": "EXECUCAO_ATIVA_PASSIVA_ORDENS_PAGAMENTO_SOLICITACAO_CLIENTES_USUARIOS",
                                    "code": "EXECUCAO_ATIVA_PASSIVA_ORDENS_PAGTO"
                                },
                                {
                                    "name": "OPERACOES_CREDITO_BEM_COMO_OUTROS_SERVICOS_PRESTADOS_ACOMPANHAMENTO_OPERACAO",
                                    "code": "OPERA_CREDITO_OUTROS_SERVICOS_ACOMPANHA_OPERACAO"
                                },
                                {
                                    "name": "CARTAO_CREDITO",
                                    "code": "CARTAO_CREDITO"
                                },
                                {
                                    "name": "SEGUROS",
                                    "code": "SEGUROS"
                                },
                                {
                                    "name": "CANCELAMENTO",
                                    "code": "CANCELAMENTO"
                                },
                                {
                                    "name": "INFORMACOES",
                                    "code": "INFORMACOES"
                                }
                            ]
                        }
                    ]
                }
            ]
        }
    },
    "links": {
        "self": "https://opendata.api.bb.com.br/open-banking/channels/v1/electronic-channels?page=987&page-size=2",
        "first": "https://opendata.api.bb.com.br/open-banking/channels/v1/electronic-channels?page=1&page-size=2",
        "prev": "https://opendata.api.bb.com.br/open-banking/channels/v1/electronic-channels?page=987&page-size=2",
        "next": "https://opendata.api.bb.com.br/open-banking/channels/v1/electronic-channels?page=987&page-size=2",
        "last": "https://opendata.api.bb.com.br/open-banking/channels/v1/electronic-channels?page=1990&page-size=2"
    },
    "meta": {
        "totalRecords": 3979,
        "totalPages": 1990
    }
}