{
  "data": [
    {
      "contractId": "eec8fbe4-09e4-305d-bf8c-cdae1c298183",
      "brandName": "Banco do Brasil S.A",
      "companyCnpj": "00000000000191",
      "productType": "DIREITOS_CREDITORIOS_DESCONTADOS",
      "productSubType": "ANTECIPACAO_FATURA_CARTAO_CREDITO",
      "ipocCode": "00000000030320583091626161616162"
    },
    {
      "contractId": "4ec8fbe4-09e4-305d-bf8c-cdae1c298183",
      "brandName": "Banco do Brasil S.A",
      "companyCnpj": "00000000000191",
      "productType": "DIREITOS_CREDITORIOS_DESCONTADOS",
      "productSubType": "ANTECIPACAO_FATURA_CARTAO_CREDITO",
      "ipocCode": "00000000030320583091626161616161"
    }
  ],
  "links": {
    "self": "https://opendata.api.bb.com.br/open-banking/invoice-financings/v1/contracts?page=2&page-size=2",
    "first": "https://opendata.api.bb.com.br/open-banking/invoice-financings/v1/contracts?page=1&page-size=2",
    "prev": "https://opendata.api.bb.com.br/open-banking/invoice-financings/v1/contracts?page=1&page-size=2",
    "next": "https://opendata.api.bb.com.br/open-banking/invoice-financings/v1/contracts?page=3&page-size=2",
    "last": "https://opendata.api.bb.com.br/open-banking/invoice-financings/v1/contracts?page=3&page-size=2"
  },
  "meta": {
    "totalRecords": 5,
    "totalPages": 3,
    "requestDateTime": "2022-09-15T209:22:00Z"
  }
}