{
   "data":{
      "brand":{
         "name":"Banco do Estado do Rio Grande do Sul S.A",
         "companies":[
            {
               "name":"Cavalhada",
               "cnpjNumber":"92702067031156",
               "urlComplementaryList":"https://www.banrisul.com.br/bob/link/bobw00hn_onde_tem_banrisul.aspx",
               "branches":[
                  {
                     "identification":{
                        "type":"AGENCIA",
                        "code":"0036",
                        "checkDigit":"NA",
                        "name":"AGENCIA CAVALHADA",
                        "relatedBranch":"NA",
                        "openingDate":"1982-06-05"
                     },
                     "postalAddress":{
                        "address":"Av Cavalhada, 2613",
                        "districtName":"Cavalhada",
                        "townName":"Porto Alegre",
                        "ibgeCode":"4314902",
                        "countrySubDivision":"RS",
                        "postCode":"91740001",
                        "country":"Brasil",
                        "countryCode":"BRA",
                        "geograficCoordinates":{
                           "latitude":"-30.100182763",
                           "longitude":"-51.231484496"
                        }
                     },
                     "availability":{
                        "standards":[
                           {
                              "weekday":"SEGUNDA_FEIRA",
                              "openingTime":"10:00:00Z",
                              "closingTime":"16:00:00Z"
                           },
                           {
                              "weekday":"TERCA_FEIRA",
                              "openingTime":"10:00:00Z",
                              "closingTime":"16:00:00Z"
                           },
                           {
                              "weekday":"QUARTA_FEIRA",
                              "openingTime":"10:00:00Z",
                              "closingTime":"16:00:00Z"
                           },
                           {
                              "weekday":"QUINTA_FEIRA",
                              "openingTime":"10:00:00Z",
                              "closingTime":"16:00:00Z"
                           },
                           {
                              "weekday":"SEXTA_FEIRA",
                              "openingTime":"10:00:00Z",
                              "closingTime":"16:00:00Z"
                           }
                        ],
                        "exception":"Exceto feriados municipais, estaduais e nacionais",
                        "isPublicAccessAllowed":true
                     },
                     "phones":[
                        {
                           "type":"FIXO",
                           "countryCallingCode":"55",
                           "areaCode":"51",
                           "number":"33946350"
                        }
                     ],
                     "services":[
                        {
                           "name":"ABERTURA_CONTAS_DEPOSITOS_OU_PAGAMENTO_PRE_PAGA",
                           "code":"ABRE_CONTA_DEPOSITO_OU_PRE_PAGA"
                        },
                        {
                           "name":"SAQUE_MOEDA_EM_ESPECIE",
                           "code":"SAQUE_MOEDA_ESPECIE"
                        },
                        {
                           "name":"RECEBIMENTOS_PAGAMENTOS_QUALQUER_NATUREZA",
                           "code":"RECEBE_PAGA_QUALQUER_NATUREZA"
                        },
                        {
                           "name":"TRANSFERENCIAS_ELETRONICAS_VISANDO_MOVIMENTACAO_CONTAS_DEPOSITOS_OU_PAGAMENTO_TITULARIDADE_CLIENTES",
                           "code":"TRANSFERENCIAS_ELETRONICAS_MOVIMENTA_CONTAS_DEPOSITOS_OU_PAGTO_TITULARES_CLIENTES"
                        },
                        {
                           "name":"CONSULTA_SALDOS_EXTRATOS_CONTAS_DEPOSITOS_CONTAS_PAGAMENTOS",
                           "code":"CONSULTA_SALDOS_EXTRATOS_CONTAS_DEPOSITOS_PAGTOS"
                        },
                        {
                           "name":"EXECUCAO_ATIVA_PASSIVA_ORDENS_PAGAMENTO_SOLICITACAO_CLIENTES_USUARIOS",
                           "code":"EXECUCAO_ATIVA_PASSIVA_ORDENS_PAGTO"
                        },
                        {
                           "name":"DEPOSITOS_MOEDA_ESPECIE_CHEQUE",
                           "code":"DEPOSITO_MOEDA_ESPECIE_CHEQUE"
                        },
                        {
                           "name":"OPERACOES_CREDITO_BEM_COMO_OUTROS_SERVICOS_PRESTADOS_ACOMPANHAMENTO_OPERACAO",
                           "code":"OPERA_CREDITO_OUTROS_SERVICOS_ACOMPANHA_OPERACAO"
                        },
                        {
                           "name":"CARTAO_CREDITO",
                           "code":"CARTAO_CREDITO"
                        },
                        {
                           "name":"SEGUROS",
                           "code":"SEGUROS"
                        },
                        {
                           "name":"OPERACOES_ARRENDAMENTO_MERCANTIL",
                           "code":"OPERA_ARRENDAMENTO_MERCANTIL"
                        },
                        {
                           "name":"ABERTURA_CONTA_PAGAMENTO_POS_PAGA",
                           "code":"ABERTURA_CONTA_PAGAMENTO_POS_PAGA"
                        },
                        {
                           "name":"COMPRA_VENDA_MOEDA_ESTRANGEIRA_ESPECIE",
                           "code":"COMPRA_VENDA_MOEDA_ESTRANGEIRA_ESPECIE"
                        },
                        {
                           "name":"COMPRA_VENDA_CHEQUE_CHEQUE_VIAGEM_BEM_COMO_CARGA_MOEDA_ESTRANGEIRA_CARTAO_PRE_PAGO",
                           "code":"COMPRA_VENDA_CHEQUE_CHEQUE_VIAGEM_CARGA_MOEDA_ESTRANGEIRA_CARTAO_PRE_PAGO"
                        },
                        {
                           "name":"COMPRA_VENDA_OURO",
                           "code":"COMPRA_VENDA_OURO"
                        },
                        {
                           "name":"CANCELAMENTO",
                           "code":"CANCELAMENTO"
                        },
                        {
                           "name":"INFORMACOES",
                           "code":"INFORMACOES"
                        },
                        {
                           "name":"RECLAMACOES",
                           "code":"RECLAMACOES"
                        },
                        {
                           "name":"OUTROS_PRODUTOS_SERVICOS",
                           "code":"OUTROS_PRODUTOS_SERVICOS",
                           "additionalInfo":"Outros produtos e serviços não listados anteriormente."
                        }
                     ]
                  }
               ]
            },
            {
               "name":"Florianopolis",
               "cnpjNumber":"92702067014146",
               "urlComplementaryList":"https://www.banrisul.com.br/bob/link/bobw00hn_onde_tem_banrisul.aspx",
               "branches":[
                  {
                     "identification":{
                        "type":"AGENCIA",
                        "code":"0217",
                        "checkDigit":"NA",
                        "name":"AGENCIA FLORIANOPOLIS",
                        "relatedBranch":"NA",
                        "openingDate":"1962-08-09"
                     },
                     "postalAddress":{
                        "address":"Rua Presidente Nereu Ramos, 69",
                        "additionalInfo":"NA",
                        "districtName":"Centro",
                        "townName":"Florianopolis",
                        "ibgeCode":"4211306",
                        "countrySubDivision":"SC",
                        "postCode":"88015010",
                        "country":"Brasil",
                        "countryCode":"BRA",
                        "geograficCoordinates":{
                           "latitude":"-23.484399247",
                           "longitude":"-51.799704149"
                        }
                     },
                     "availability":{
                        "standards":[
                           {
                              "weekday":"SEGUNDA_FEIRA",
                              "openingTime":"10:00:00Z",
                              "closingTime":"16:00:00Z"
                           },
                           {
                              "weekday":"TERCA_FEIRA",
                              "openingTime":"10:00:00Z",
                              "closingTime":"16:00:00Z"
                           },
                           {
                              "weekday":"QUARTA_FEIRA",
                              "openingTime":"10:00:00Z",
                              "closingTime":"16:00:00Z"
                           },
                           {
                              "weekday":"QUINTA_FEIRA",
                              "openingTime":"10:00:00Z",
                              "closingTime":"16:00:00Z"
                           },
                           {
                              "weekday":"SEXTA_FEIRA",
                              "openingTime":"10:00:00Z",
                              "closingTime":"16:00:00Z"
                           }
                        ],
                        "exception":"Exceto feriados municipais, estaduais e nacionais",
                        "isPublicAccessAllowed":true
                     },
                     "phones":[
                        {
                           "type":"FIXO",
                           "countryCallingCode":"55",
                           "areaCode":"48",
                           "number":"30273366"
                        }
                     ],
                     "services":[
                        {
                           "name":"ABERTURA_CONTAS_DEPOSITOS_OU_PAGAMENTO_PRE_PAGA",
                           "code":"ABRE_CONTA_DEPOSITO_OU_PRE_PAGA"
                        },
                        {
                           "name":"SAQUE_MOEDA_EM_ESPECIE",
                           "code":"SAQUE_MOEDA_ESPECIE"
                        },
                        {
                           "name":"RECEBIMENTOS_PAGAMENTOS_QUALQUER_NATUREZA",
                           "code":"RECEBE_PAGA_QUALQUER_NATUREZA"
                        },
                        {
                           "name":"TRANSFERENCIAS_ELETRONICAS_VISANDO_MOVIMENTACAO_CONTAS_DEPOSITOS_OU_PAGAMENTO_TITULARIDADE_CLIENTES",
                           "code":"TRANSFERENCIAS_ELETRONICAS_MOVIMENTA_CONTAS_DEPOSITOS_OU_PAGTO_TITULARES_CLIENTES"
                        },
                        {
                           "name":"CONSULTA_SALDOS_EXTRATOS_CONTAS_DEPOSITOS_CONTAS_PAGAMENTOS",
                           "code":"CONSULTA_SALDOS_EXTRATOS_CONTAS_DEPOSITOS_PAGTOS"
                        },
                        {
                           "name":"EXECUCAO_ATIVA_PASSIVA_ORDENS_PAGAMENTO_SOLICITACAO_CLIENTES_USUARIOS",
                           "code":"EXECUCAO_ATIVA_PASSIVA_ORDENS_PAGTO"
                        },
                        {
                           "name":"DEPOSITOS_MOEDA_ESPECIE_CHEQUE",
                           "code":"DEPOSITO_MOEDA_ESPECIE_CHEQUE"
                        },
                        {
                           "name":"OPERACOES_CREDITO_BEM_COMO_OUTROS_SERVICOS_PRESTADOS_ACOMPANHAMENTO_OPERACAO",
                           "code":"OPERA_CREDITO_OUTROS_SERVICOS_ACOMPANHA_OPERACAO"
                        },
                        {
                           "name":"CARTAO_CREDITO",
                           "code":"CARTAO_CREDITO"
                        },
                        {
                           "name":"SEGUROS",
                           "code":"SEGUROS"
                        },
                        {
                           "name":"OPERACOES_ARRENDAMENTO_MERCANTIL",
                           "code":"OPERA_ARRENDAMENTO_MERCANTIL"
                        },
                        {
                           "name":"ABERTURA_CONTA_PAGAMENTO_POS_PAGA",
                           "code":"ABERTURA_CONTA_PAGAMENTO_POS_PAGA"
                        },
                        {
                           "name":"COMPRA_VENDA_MOEDA_ESTRANGEIRA_ESPECIE",
                           "code":"COMPRA_VENDA_MOEDA_ESTRANGEIRA_ESPECIE"
                        },
                        {
                           "name":"COMPRA_VENDA_CHEQUE_CHEQUE_VIAGEM_BEM_COMO_CARGA_MOEDA_ESTRANGEIRA_CARTAO_PRE_PAGO",
                           "code":"COMPRA_VENDA_CHEQUE_CHEQUE_VIAGEM_CARGA_MOEDA_ESTRANGEIRA_CARTAO_PRE_PAGO"
                        },
                        {
                           "name":"COMPRA_VENDA_OURO",
                           "code":"COMPRA_VENDA_OURO"
                        },
                        {
                           "name":"CANCELAMENTO",
                           "code":"CANCELAMENTO"
                        },
                        {
                           "name":"INFORMACOES",
                           "code":"INFORMACOES"
                        },
                        {
                           "name":"RECLAMACOES",
                           "code":"RECLAMACOES"
                        },
                        {
                           "name":"OUTROS_PRODUTOS_SERVICOS",
                           "code":"OUTROS_PRODUTOS_SERVICOS",
                           "additionalInfo":"Outros produtos e serviços não listados anteriormente."
                        }
                     ]
                  }
               ]
            }
         ]
      }
   },
   "links":{
      "first":"https://openbanking.banrisul.com.br/open-banking/channels/v1/branches?page=1&page-size=2",
      "prev":"https://openbanking.banrisul.com.br/open-banking/channels/v1/branches?page=49&page-size=2",
      "self":"https://openbanking.banrisul.com.br/open-banking/channels/v1/branches?page=50&page-size=2",
      "next":"https://openbanking.banrisul.com.br/open-banking/channels/v1/branches?page=51&page-size=2",
      "last":"https://openbanking.banrisul.com.br/open-banking/channels/v1/branches?page=258&page-size=2"
   },
   "meta":{
      "totalRecords":516,
      "totalPages":258
   }
}