{
  "data": [
    {
      "contractId": "df7555e6-d629-33ce-8cf9-ee95e92241a0",
      "brandName": "Caixa Econômica Federal",
      "companyCnpj": "00360305000104",
      "productType": "FINANCIAMENTOS",
      "productSubType": "AQUISICAO_BENS_OUTROS_BENS",
      "ipocCode": "00360305040223086749715165163" 
    },
    {
      "contractId": "ef7555e6-d629-33ce-8cf9-ee95e92241a0",
      "brandName": "Caixa Econômica Federal",
      "companyCnpj": "00360305000104",
      "productType": "FINANCIAMENTOS",
      "productSubType": "MICROCREDITO",
      "ipocCode": "00360305040323086749715165162" 
    }
  ],
  "links": {
    "self": "https://api.caixa.gov.br/open-banking/financings/v1/contracts?page=2&page-size=2",
    "first": "https://api.caixa.gov.br/open-banking/financings/v1/contracts?page=1&page-size=2",
    "next": "https://api.caixa.gov.br/open-banking/financings/v1/contracts?page=3&page-size=2",
    "last": "https://api.caixa.gov.br/open-banking/financings/v1/contracts?page=3&page-size=2",
    "prev": "https://api.caixa.gov.br/open-banking/financings/v1/contracts?page=1&page-size=2"
  },
  "meta": {
    "totalRecords": 5,
    "totalPages": 3,
    "requestDateTime": "2021-09-02T08:35:00Z"
  }
} 