{
    "data": [
        {
            "transactionId": "ab571b14-d9b6-11eb-b8bc-0242ac130003",
            "identificationNumber": "0126",
            "lineName": "CREDITO_A_VISTA",
            "transactionName": "PGTO",
            "billId": "2c30bc0e-d8e5-11eb-b8bc-0242ac130003",
            "creditDebitType": "CREDITO",
            "transactionType": "PAGAMENTO",
            "transactionalAdditionalInfo": "NA",
            "paymentType": "A_VISTA",
            "feeType": "ANUIDADE",
            "feeTypeAdditionalInfo": "NA",
            "otherCreditsType": "CREDITO_ROTATIVO",
            "otherCreditsAdditionalInfo": "NA",
            "chargeIdentificator": "PARCELA_1",
            "chargeNumber": 1,
            "brazilianAmount": 699.9800,
            "amount": 0.0000,
            "currency": "BRL",
            "transactionDate": "2021-07-09",
            "billPostDate": "2021-07-09",
            "payeeMCC": 5309
        }
    ],
    "links": {
        "self": "https://api.caixa.gov.br/open-banking/credit-cards-accounts/v1/accounts/b22632a4-d8e4-11eb-b8bc-0242ac130003/transactions?page=3&page-size=2&transactionType=PAGAMENTO",
        "first": "https://api.caixa.gov.br/open-banking/credit-cards-accounts/v1/accounts/b22632a4-d8e4-11eb-b8bc-0242ac130003/transactions?page=1&page-size=2&transactionType=PAGAMENTO",
        "prev": "https://api.caixa.gov.br/open-banking/credit-cards-accounts/v1/accounts/b22632a4-d8e4-11eb-b8bc-0242ac130003/transactions?page=2&page-size=2&transactionType=PAGAMENTO",
        "last": "https://api.caixa.gov.br/open-banking/credit-cards-accounts/v1/accounts/b22632a4-d8e4-11eb-b8bc-0242ac130003/transactions?page=3&page-size=2&transactionType=PAGAMENTO"
    },
    "meta": {
        "totalRecords": 5,
        "totalPages": 3,
        "requestDateTime": "2021-08-30T05:14:00Z"
    }
} 