{
    "data": [
        {
            "transactionId": "6c30bc0e-d8e5-11eb-b8bc-0242ac130003",
            "identificationNumber": "0126",
            "lineName": "CREDITO_A_VISTA",
            "transactionName": "PGTO",
            "billId": "2c30bc0e-d8e5-11eb-b8bc-0242ac130003",
            "creditDebitType": "DEBITO",
            "transactionType": "PAGAMENTO",
            "transactionalAdditionalInfo": "NA",
            "paymentType": "A_VISTA",
            "feeType": "TARIFA_PAGAMENTO_CONTAS",
            "feeTypeAdditionalInfo": "NA",
            "otherCreditsType": "CREDITO_ROTATIVO",
            "otherCreditsAdditionalInfo": "NA",
            "chargeIdentificator": "PARCELA_1",
            "chargeNumber": 1,
            "brazilianAmount": 3622.7700,
            "amount": 0.0000,
            "currency": "BRL",
            "transactionDate": "2021-07-21",
            "billPostDate": "2021-07-25",
            "payeeMCC": 5621
        },
        {
            "transactionId": "cb9e21d6-d9b3-11eb-b8bc-0242ac130003",
            "identificationNumber": "0126",
            "lineName": "CREDITO_A_VISTA",
            "transactionName": "PGTO",
            "billId": "2c30bc0e-d8e5-11eb-b8bc-0242ac130003",
            "creditDebitType": "CREDITO",
            "transactionType": "PAGAMENTO",
            "transactionalAdditionalInfo": "NA",
            "paymentType": "A_VISTA",
            "feeType": "ANUIDADE",
            "feeTypeAdditionalInfo": "NA",
            "otherCreditsType": "CREDITO_ROTATIVO",
            "otherCreditsAdditionalInfo": "NA",
            "chargeIdentificator": "PARCELA_1",
            "chargeNumber": 1,
            "brazilianAmount": 78.1600,
            "amount": 0.0000,
            "currency": "BRL",
            "transactionDate": "2021-07-17",
            "billPostDate": "2021-07-17",
            "payeeMCC": 5661
        }
    ],
    "links": {
        "self": "https://api.caixa.gov.br/open-banking/credit-cards-accounts/v1/accounts/b22632a4-d8e4-11eb-b8bc-0242ac130003/transactions?page=1&page-size=2&transactionType=PAGAMENTO",
        "first": "https://api.caixa.gov.br/open-banking/credit-cards-accounts/v1/accounts/b22632a4-d8e4-11eb-b8bc-0242ac130003/transactions?page=1&page-size=2&transactionType=PAGAMENTO",
        "next": "https://api.caixa.gov.br/open-banking/credit-cards-accounts/v1/accounts/b22632a4-d8e4-11eb-b8bc-0242ac130003/transactions?page=2&page-size=2&transactionType=PAGAMENTO",
        "last": "https://api.caixa.gov.br/open-banking/credit-cards-accounts/v1/accounts/b22632a4-d8e4-11eb-b8bc-0242ac130003/transactions?page=2&page-size=2&transactionType=PAGAMENTO"
    },
    "meta": {
        "totalRecords": 3,
        "totalPages": 2,
        "requestDateTime": "2021-08-30T02:10:02Z"
    }
} 