{
    "data": [
        {
            "transactionId": "be2ce00e-d9b2-11eb-b8bc-02424c130003",
            "identificationNumber": "0126",
            "lineName": "SAQUE_CREDITO_BRASIL",
            "transactionName": "SAQUE",
            "billId": "2c30bc0e-d8e5-11eb-b8bc-0242ac130003",
            "creditDebitType": "CREDITO",
            "transactionType": "OUTROS",
            "transactionalAdditionalInfo": "Saque sem tarifa",
            "paymentType": "A_VISTA",
            "feeType": "ANUIDADE",
            "feeTypeAdditionalInfo": "NA",
            "otherCreditsType": "CREDITO_ROTATIVO",
            "otherCreditsAdditionalInfo": "NA",
            "chargeIdentificator": "PARCELA_1",
            "chargeNumber": 1,
            "brazilianAmount": 286.8500,
            "amount": 0.0000,
            "currency": "BRL",
            "transactionDate": "2021-07-09",
            "billPostDate": "2021-07-09",
            "payeeMCC": 7280
        }
    ],
    "links": {
        "self": "https://api.caixa.gov.br/open-banking/credit-cards-accounts/v1/accounts/b22632a4-d8e4-11eb-b8bc-0242ac130003/bills/2c30bc0e-d8e5-11eb-b8bc-0242ac130003/transactions?page=1&page-size=1&transactionType=OUTROS",
        "first": "https://api.caixa.gov.br/open-banking/credit-cards-accounts/v1/accounts/b22632a4-d8e4-11eb-b8bc-0242ac130003/bills/2c30bc0e-d8e5-11eb-b8bc-0242ac130003/transactions?page=1&page-size=1&transactionType=OUTROS",
        "next": "https://api.caixa.gov.br/open-banking/credit-cards-accounts/v1/accounts/b22632a4-d8e4-11eb-b8bc-0242ac130003/bills/2c30bc0e-d8e5-11eb-b8bc-0242ac130003/transactions?page=2&page-size=1&transactionType=OUTROS",
        "last": "https://api.caixa.gov.br/open-banking/credit-cards-accounts/v1/accounts/b22632a4-d8e4-11eb-b8bc-0242ac130003/bills/2c30bc0e-d8e5-11eb-b8bc-0242ac130003/transactions?page=2&page-size=1&transactionType=OUTROS"
    },
    "meta": {
        "totalRecords": 2,
        "totalPages": 2,
        "requestDateTime": "2021-08-28T11:17:23Z"
    }
} 