{
    "data": [
        {
            "currency": "BRL",
            "warrantyType": "BENS_ARRENDADOS",
            "warrantySubType": "OUTROS_IMOVEIS",
            "warrantyAmount": 130000.00
        }
    ],
    "links": {
        "self": "https://api.banco.com.br/open-banking/loans/v1/contracts/443b4853-74c1-336b-861f-8c0525a66f13/warranties?page=3&page-size=1",
        "prev": "https://api.banco.com.br/open-banking/loans/v1/contracts/443b4853-74c1-336b-861f-8c0525a66f13/warranties?page=1&page-size=25",
        "first": "https://api.banco.com.br/open-banking/loans/v1/contracts/443b4853-74c1-336b-861f-8c0525a66f13/warranties?page=1&page-size=25"
    },
    "meta": {
        "totalRecords": 51,
        "totalPages": 3,
        "requestDateTime": "2021-06-07T15:48:00Z"
    }
}