{
    "data": [
        {
            "billId": "b65c778c-d8f7-11eb-b8bc-0242ac130003",
            "dueDate": "2017-06-05",
            "billTotalAmount": 2871.6600,
            "billTotalAmountCurrency": "BRL",
            "billMinimumAmount": 28.7166,
            "billMinimumAmountCurrency": "BRL",
            "isInstalment": true,
            "financeCharges": [
                {
                    "type": "SEM_ENCARGO",
                    "amount": 0,
                    "currency": "BRL"
                }
            ],
            "payments": [
                {
                    "valueType": "VALOR_PAGAMENTO_FATURA_REALIZADO",
                    "paymentDate": "2017-06-04",
                    "paymentMode": "DEBITO_CONTA_CORRENTE",
                    "amount": 2871.6600,
                    "currency": "BRL"
                }
            ]
        },
        {
            "billId": "b65c8092-d8f7-11eb-b8bc-0242ac130003",
            "dueDate": "2017-05-05",
            "billTotalAmount": 2330.8800,
            "billTotalAmountCurrency": "BRL",
            "billMinimumAmount": 23.3088,
            "billMinimumAmountCurrency": "BRL",
            "isInstalment": true,
            "financeCharges": [
                {
                    "type": "SEM_ENCARGO",
                    "amount": 0,
                    "currency": "BRL"
                }
            ],
            "payments": [
                {
                    "valueType": "VALOR_PAGAMENTO_FATURA_REALIZADO",
                    "paymentDate": "2017-05-04",
                    "paymentMode": "DEBITO_CONTA_CORRENTE",
                    "amount": 2330.8800,
                    "currency": "BRL"
                }
            ]
        }
    ],
    "links": {
        "self": "https://api.caixa.com.br/open-banking/credit-cards-accounts/v1/accounts/b22632a4-d8e4-11eb-b8bc-0242ac130003/bills?page=2&page-size=25&fromDueDate=2017-05-01?toDueDate=2021-08-31",
        "first": "https://api.caixa.com.br/open-banking/credit-cards-accounts/v1/accounts/b22632a4-d8e4-11eb-b8bc-0242ac130003/bills?page=1&page-size=25&fromDueDate=2017-05-01?toDueDate=2021-08-31",
        "prev": "https://api.caixa.com.br/open-banking/credit-cards-accounts/v1/accounts/b22632a4-d8e4-11eb-b8bc-0242ac130003/bills?page=1&page-size=25&fromDueDate=2017-05-01?toDueDate=2021-08-31",
        "next": "https://api.caixa.com.br/open-banking/credit-cards-accounts/v1/accounts/b22632a4-d8e4-11eb-b8bc-0242ac130003/bills?page=3&page-size=25&fromDueDate=2017-05-01?toDueDate=2021-08-31",
        "last": "https://api.caixa.com.br/open-banking/credit-cards-accounts/v1/accounts/b22632a4-d8e4-11eb-b8bc-0242ac130003/bills?page=3&page-size=52&fromDueDate=2017-05-01?toDueDate=2021-08-31"
    },
    "meta": {
        "totalRecords": 52,
        "totalPages": 3,
        "requestDateTime": "2021-08-28T08:25:57Z"
    }
} 