{
    "data": {
        "brand": {
            "name": "Banco do Brasil S.A",
            "companies": [
                {
                    "name": "Agencia Rondonia do Banco do Brasil",
                    "cnpjNumber": "00000000440167",
                    "urlComplementaryList": "https://www.bb.com.br/pbb/pagina-inicial/atendimento#/",
                    "phoneChannels": [
                        {
                            "identification": {
                                "type": "CENTRAL_TELEFONICA",
                                "phones": [
                                    {
                                        "countryCallingCode": "55",
                                        "areaCode": "NA",
                                        "number": "40040001"
                                    },
                                    {
                                        "countryCallingCode": "55",
                                        "areaCode": "NA",
                                        "number": "08007290001"
                                    }
                                ]
                            },
                            "services": [
                                {
                                    "name": "RECEBIMENTOS_PAGAMENTOS_QUALQUER_NATUREZA",
                                    "code": "RECEBE_PAGA_QUALQUER_NATUREZA"
                                },
                                {
                                    "name": "TRANSFERENCIAS_ELETRONICAS_VISANDO_MOVIMENTACAO_CONTAS_DEPOSITOS_OU_PAGAMENTO_TITULARIDADE_CLIENTES",
                                    "code": "TRANSFERENCIAS_ELETRONICAS_MOVIMENTA_CONTAS_DEPOSITOS_OU_PAGTO_TITULARES_CLIENTES"
                                },
                                {
                                    "name": "CONSULTA_SALDOS_EXTRATOS_CONTAS_DEPOSITOS_CONTAS_PAGAMENTOS",
                                    "code": "CONSULTA_SALDOS_EXTRATOS_CONTAS_DEPOSITOS_PAGTOS"
                                },
                                {
                                    "name": "APLICACOES_RESGATES_INVESTIMENTOS",
                                    "code": "APLICA_RESGATA_INVESTIMENTOS"
                                },
                                {
                                    "name": "EXECUCAO_ATIVA_PASSIVA_ORDENS_PAGAMENTO_SOLICITACAO_CLIENTES_USUARIOS",
                                    "code": "EXECUCAO_ATIVA_PASSIVA_ORDENS_PAGTO"
                                },
                                {
                                    "name": "EXECUCAO_ATIVA_PASSIVA_ORDENS_PAGAMENTO_SOLICITACAO_CLIENTES_USUARIOS",
                                    "code": "EXECUCAO_ATIVA_PASSIVA_ORDENS_PAGTO"
                                },
                                {
                                    "name": "OPERACOES_CREDITO_BEM_COMO_OUTROS_SERVICOS_PRESTADOS_ACOMPANHAMENTO_OPERACAO",
                                    "code": "OPERA_CREDITO_OUTROS_SERVICOS_ACOMPANHA_OPERACAO"
                                },
                                {
                                    "name": "CARTAO_CREDITO",
                                    "code": "CARTAO_CREDITO"
                                },
                                {
                                    "name": "SEGUROS",
                                    "code": "SEGUROS"
                                },
                                {
                                    "name": "CANCELAMENTO",
                                    "code": "CANCELAMENTO"
                                },
                                {
                                    "name": "INFORMACOES",
                                    "code": "INFORMACOES"
                                }
                            ]
                        },
                        {
                            "identification": {
                                "type": "SAC",
                                "phones": [
                                    {
                                        "countryCallingCode": "55",
                                        "areaCode": "NA",
                                        "number": "08007290722"
                                    }
                                ]
                            },
                            "services": [
                                {
                                    "name": "CONSULTA_SALDOS_EXTRATOS_CONTAS_DEPOSITOS_CONTAS_PAGAMENTOS",
                                    "code": "CONSULTA_SALDOS_EXTRATOS_CONTAS_DEPOSITOS_PAGTOS"
                                },
                                {
                                    "name": "RECLAMACOES",
                                    "code": "RECLAMACOES"
                                },
                                {
                                    "name": "CANCELAMENTO",
                                    "code": "CANCELAMENTO"
                                }
                            ]
                        },
                        {
                            "identification": {
                                "type": "OUVIDORIA",
                                "phones": [
                                    {
                                        "countryCallingCode": "55",
                                        "areaCode": "NA",
                                        "number": "08007295678"
                                    }
                                ]
                            },
                            "services": [
                                {
                                    "name": "RECLAMACOES",
                                    "code": "RECLAMACOES"
                                }
                            ]
                        },
                        {
                            "identification": {
                                "type": "OUTROS",
                                "additionalInfo": "AGENCIA",
                                "phones": [
                                    {
                                        "countryCallingCode": "55",
                                        "areaCode": "69",
                                        "number": "35343175"
                                    }
                                ]
                            },
                            "services": [
                                {
                                    "name": "RECLAMACOES",
                                    "code": "RECLAMACOES"
                                },
                                {
                                    "name": "INFORMACOES",
                                    "code": "INFORMACOES"
                                }
                            ]
                        }
                    ]
                },
                {
                    "name": "Agencia Paraná do Banco do Brasil",
                    "cnpjNumber": "00000000397210",
                    "urlComplementaryList": "https://www.bb.com.br/pbb/pagina-inicial/atendimento#/",
                    "phoneChannels": [
                        {
                            "identification": {
                                "type": "CENTRAL_TELEFONICA",
                                "phones": [
                                    {
                                        "countryCallingCode": "55",
                                        "areaCode": "NA",
                                        "number": "40040001"
                                    },
                                    {
                                        "countryCallingCode": "55",
                                        "areaCode": "NA",
                                        "number": "08007290001"
                                    }
                                ]
                            },
                            "services": [
                                {
                                    "name": "RECEBIMENTOS_PAGAMENTOS_QUALQUER_NATUREZA",
                                    "code": "RECEBE_PAGA_QUALQUER_NATUREZA"
                                },
                                {
                                    "name": "TRANSFERENCIAS_ELETRONICAS_VISANDO_MOVIMENTACAO_CONTAS_DEPOSITOS_OU_PAGAMENTO_TITULARIDADE_CLIENTES",
                                    "code": "TRANSFERENCIAS_ELETRONICAS_MOVIMENTA_CONTAS_DEPOSITOS_OU_PAGTO_TITULARES_CLIENTES"
                                },
                                {
                                    "name": "CONSULTA_SALDOS_EXTRATOS_CONTAS_DEPOSITOS_CONTAS_PAGAMENTOS",
                                    "code": "CONSULTA_SALDOS_EXTRATOS_CONTAS_DEPOSITOS_PAGTOS"
                                },
                                {
                                    "name": "APLICACOES_RESGATES_INVESTIMENTOS",
                                    "code": "APLICA_RESGATA_INVESTIMENTOS"
                                },
                                {
                                    "name": "EXECUCAO_ATIVA_PASSIVA_ORDENS_PAGAMENTO_SOLICITACAO_CLIENTES_USUARIOS",
                                    "code": "EXECUCAO_ATIVA_PASSIVA_ORDENS_PAGTO"
                                },
                                {
                                    "name": "EXECUCAO_ATIVA_PASSIVA_ORDENS_PAGAMENTO_SOLICITACAO_CLIENTES_USUARIOS",
                                    "code": "EXECUCAO_ATIVA_PASSIVA_ORDENS_PAGTO"
                                },
                                {
                                    "name": "OPERACOES_CREDITO_BEM_COMO_OUTROS_SERVICOS_PRESTADOS_ACOMPANHAMENTO_OPERACAO",
                                    "code": "OPERA_CREDITO_OUTROS_SERVICOS_ACOMPANHA_OPERACAO"
                                },
                                {
                                    "name": "CARTAO_CREDITO",
                                    "code": "CARTAO_CREDITO"
                                },
                                {
                                    "name": "SEGUROS",
                                    "code": "SEGUROS"
                                },
                                {
                                    "name": "CANCELAMENTO",
                                    "code": "CANCELAMENTO"
                                },
                                {
                                    "name": "INFORMACOES",
                                    "code": "INFORMACOES"
                                }
                            ]
                        },
                        {
                            "identification": {
                                "type": "SAC",
                                "phones": [
                                    {
                                        "countryCallingCode": "55",
                                        "areaCode": "NA",
                                        "number": "08007290722"
                                    }
                                ]
                            },
                            "services": [
                                {
                                    "name": "CONSULTA_SALDOS_EXTRATOS_CONTAS_DEPOSITOS_CONTAS_PAGAMENTOS",
                                    "code": "CONSULTA_SALDOS_EXTRATOS_CONTAS_DEPOSITOS_PAGTOS"
                                },
                                {
                                    "name": "RECLAMACOES",
                                    "code": "RECLAMACOES"
                                },
                                {
                                    "name": "CANCELAMENTO",
                                    "code": "CANCELAMENTO"
                                }
                            ]
                        },
                        {
                            "identification": {
                                "type": "OUVIDORIA",
                                "phones": [
                                    {
                                        "countryCallingCode": "55",
                                        "areaCode": "NA",
                                        "number": "08007295678"
                                    }
                                ]
                            },
                            "services": [
                                {
                                    "name": "RECLAMACOES",
                                    "code": "RECLAMACOES"
                                }
                            ]
                        },
                        {
                            "identification": {
                                "type": "OUTROS",
                                "additionalInfo": "AGENCIA",
                                "phones": [
                                    {
                                        "countryCallingCode": "55",
                                        "areaCode": "44",
                                        "number": "32939600"
                                    }
                                ]
                            },
                            "services": [
                                {
                                    "name": "RECLAMACOES",
                                    "code": "RECLAMACOES"
                                },
                                {
                                    "name": "INFORMACOES",
                                    "code": "INFORMACOES"
                                }
                            ]
                        }
                    ]
                }
            ]
        }
    },
    "links": {
        "self": "https://opendata.api.bb.com.br/open-banking/channels/v1/phone-channels?page=987&page-size=2",
        "first": "https://opendata.api.bb.com.br/open-banking/channels/v1/phone-channels?page=1&page-size=2",
        "prev": "https://opendata.api.bb.com.br/open-banking/channels/v1/phone-channels?page=987&page-size=2",
        "next": "https://opendata.api.bb.com.br/open-banking/channels/v1/phone-channels?page=987&page-size=2",
        "last": "https://opendata.api.bb.com.br/open-banking/channels/v1/phone-channels?page=1990&page-size=2"
    },
    "meta": {
        "totalRecords": 3979,
        "totalPages": 1990
    }
}