{
    "data": [
        {
            "transactionId": "ebee1664-dd8f-11eb-ba80-0242ac130004",
            "identificationNumber": "5500",
            "lineName": "CREDITO_A_VISTA",
            "transactionName": "PAGAMENTO",
            "billId": "8bce4fc8-db5b-11eb-8d19-0242ac130003",
            "creditDebitType": "DEBITO",
            "transactionType": "OUTROS",
            "transactionalAdditionalInfo": "Saque sem tarifa",
            "otherCreditsType": "CREDITO_ROTATIVO",
            "paymentType": "A_VISTA",
            "feeType": "ANUIDADE",
            "chargeIdentificator": "PARCELA_1",
            "chargeNumber": 1,
            "brazilianAmount": 10.0000,
            "amount": 0.0000,
            "currency": "BRL",
            "transactionDate": "2021-06-20",
            "billPostDate": "2021-05-21",
            "payeeMCC": 5311
        }
    ],
    "links": {
        "self": "https://api.caixa.gov.br/open-banking/credit-cards-accounts/v1/accounts/5cd65564-db2c-11eb-8d19-0242ac130003/bills/e7afa584-db61-11eb-8d19-0242ac130003/transactions?page=1&page-size=1&transactionType=OUTROS",
        "first": "https://api.caixa.gov.br/open-banking/credit-cards-accounts/v1/accounts/5cd65564-db2c-11eb-8d19-0242ac130003/bills/e7afa584-db61-11eb-8d19-0242ac130003/transactions?page=1&page-size=1&transactionType=OUTROS",
        "next": "https://api.caixa.gov.br/open-banking/credit-cards-accounts/v1/accounts/5cd65564-db2c-11eb-8d19-0242ac130003/bills/e7afa584-db61-11eb-8d19-0242ac130003/transactions?page=2&page-size=1&transactionType=OUTROS",
        "last": "https://api.caixa.gov.br/open-banking/credit-cards-accounts/v1/accounts/5cd65564-db2c-11eb-8d19-0242ac130003/bills/e7afa584-db61-11eb-8d19-0242ac130003/transactions?page=2&page-size=1&transactionType=OUTROS"
    },
    "meta": {
        "totalRecords": 2,
        "totalPages": 2,
        "requestDateTime": "2021-09-21T15:11:21Z"
    }
}