{
    "data": {
        "brand": {
            "name": "Banco Bradesco S.A",
            "companies": [
                {
                    "name": "Banco Bradesco S.A",
                    "cnpjNumber": "60746948000112",
                    "urlComplementaryList": "https://banco.bradesco/html/classic/produtos-servicos/index.shtm",
                    "personalCreditCards": [
                        {
                            "name": "Débito Visa Platinum",
                            "identification": {
                                "product": {
                                    "type": "PLATINUM"
                                },
                                "creditCard": {
                                    "network": "VISA"
                                }
                            },
                            "rewardsProgram": {
                                "hasRewardProgram": true,
                                "rewardProgramInfo": "https://banco.bradesco/html/classic/produtos-servicos/cartoes/meu-cartao/bradesco-visa-platinum/meu-cartao.shtm"
                            },
                            "fees": {
                                "services": [
                                    {
                                        "name": "ANUIDADE_DIFERENCIADA",
                                        "code": "ANUIDADE_DIFERENCIADA",
                                        "chargingTriggerInfo": "Disponibilização de rede de estabelecimentos afiliados, instalada no País e no exterior, para pagamentos de bens e serviços, cobrada no máximo uma vez a cada doze meses, admitido o parcelamento da cobrança.",
                                        "prices": [
                                            {
                                                "interval": "1_FAIXA",
                                                "value": "0.00",
                                                "currency": "BRL",
                                                "customers": {
                                                    "rate": "0.0000"
                                                }
                                            },
                                            {
                                                "interval": "2_FAIXA",
                                                "value": "0.00",
                                                "currency": "BRL",
                                                "customers": {
                                                    "rate": "0.0000"
                                                }
                                            },
                                            {
                                                "interval": "3_FAIXA",
                                                "value": "0.00",
                                                "currency": "BRL",
                                                "customers": {
                                                    "rate": "0.0000"
                                                }
                                            },
                                            {
                                                "interval": "4_FAIXA",
                                                "value": "558.00",
                                                "currency": "BRL",
                                                "customers": {
                                                    "rate": "1.0000"
                                                }
                                            }
                                        ],
                                        "minimum": {
                                            "value": "0.00",
                                            "currency": "BRL"
                                        },
                                        "maximum": {
                                            "value": "558.00",
                                            "currency": "BRL"
                                        }
                                    }
                                ]
                            },
                            "interest": {
                                "rates": [
                                    {
                                        "referentialRateIndexer": "SEM_INDEXADOR_TAXA",
                                        "rate": "NA",
                                        "applications": [
                                            {
                                                "interval": "1_FAIXA",
                                                "indexer": {
                                                    "rate": "0.0000"
                                                },
                                                "customers": {
                                                    "rate": "0.0000"
                                                }
                                            },
                                            {
                                                "interval": "2_FAIXA",
                                                "indexer": {
                                                    "rate": "0.0000"
                                                },
                                                "customers": {
                                                    "rate": "0.0000"
                                                }
                                            },
                                            {
                                                "interval": "3_FAIXA",
                                                "indexer": {
                                                    "rate": "0.0000"
                                                },
                                                "customers": {
                                                    "rate": "0.0000"
                                                }
                                            },
                                            {
                                                "interval": "4_FAIXA",
                                                "indexer": {
                                                    "rate": "0.0000"
                                                },
                                                "customers": {
                                                    "rate": "0.0000"
                                                }
                                            }
                                        ],
                                        "minimumRate": "NA",
                                        "maximumRate": "NA"
                                    }
                                ],
                                "instalmentRates": [
                                    {
                                        "referentialRateIndexer": "SEM_INDEXADOR_TAXA",
                                        "rate": "NA",
                                        "applications": [
                                            {
                                                "interval": "1_FAIXA",
                                                "indexer": {
                                                    "rate": "0.0000"
                                                },
                                                "customers": {
                                                    "rate": "0.0000"
                                                }
                                            },
                                            {
                                                "interval": "2_FAIXA",
                                                "indexer": {
                                                    "rate": "0.0000"
                                                },
                                                "customers": {
                                                    "rate": "0.0000"
                                                }
                                            },
                                            {
                                                "interval": "3_FAIXA",
                                                "indexer": {
                                                    "rate": "0.0000"
                                                },
                                                "customers": {
                                                    "rate": "0.0000"
                                                }
                                            },
                                            {
                                                "interval": "4_FAIXA",
                                                "indexer": {
                                                    "rate": "0.0000"
                                                },
                                                "customers": {
                                                    "rate": "0.0000"
                                                }
                                            }
                                        ],
                                        "minimumRate": "NA",
                                        "maximumRate": "NA"
                                    }
                                ],
                                "otherCredits": [
                                    {
                                        "code": "SAQUE_A_CREDITO"
                                    },
                                    {
                                        "code": "PAGAMENTOS_CONTAS"
                                    }
                                ]
                            },
                            "termsConditions": {
                                "minimumFeeRate": "0.30",
                                "elegibilityCriteriaInfo": "https://banco.bradesco/html/classic/novo-educacao-financeira/contas-bancarias/template_TiposContasBancarias.shtm",
                                "closingProcessInfo": "https://banco.bradesco/html/classic/novo-educacao-financeira/contas-bancarias/template_TiposContasBancarias.shtm"
                            }
                        }
                    ]
                }
            ]
        }
    },
    "links": {
        "first": "https://api.bradesco.com/open-banking/products-services/v1/personal-credit-cards?page=1&page-size=1",
        "prev": "https://api.bradesco.com/open-banking/products-services/v1/personal-credit-cards?page=407&page-size=1",
        "self": "https://api.bradesco.com/open-banking/products-services/v1/personal-credit-cards?page=408&page-size=1",
        "next": "https://api.bradesco.com/open-banking/products-services/v1/personal-credit-cards?page=409&page-size=1",
        "last": "https://api.bradesco.com/open-banking/products-services/v1/personal-credit-cards?page=9843&page-size=1"
    },
    "meta": {
        "totalRecords": 9843,
        "totalPages": 9843
    }
}