{
    "data": {
        "brand": {
            "name": "Banco Bradesco S.A",
            "companies": [
                {
                    "name": "Banco Bradesco S.A",
                    "cnpjNumber": "60746948000112",
                    "urlComplementaryList": "https://banco.bradesco/html/classic/produtos-servicos/index.shtm",
                    "personalUnarrangedAccountOverdraft": [
                        {
                            "fees": {
                                "priorityServices": [
                                    {
                                        "name": "CONCESSAO_ADIANTAMENTO_DEPOSITANTE",
                                        "code": "ADIANTAMENTO_A_DEPOSITANTES",
                                        "chargingTriggerInfo": "Levantamento de informações e avaliação de viabilidade e de riscos para a concessão de crédito em caráter emergencial para cobertura de saldo devedor em conta de depósitos à vista e de excesso sobre o limite previamente pactuado de cheque especial, cobrada no máximo uma vez nos últimos trinta dias",
                                        "prices": [
                                            {
                                                "interval": "1_FAIXA",
                                                "value": "0.00",
                                                "currency": "BRL",
                                                "customers": {
                                                    "rate": "0.0000"
                                                }
                                            },
                                            {
                                                "interval": "2_FAIXA",
                                                "value": "0.00",
                                                "currency": "BRL",
                                                "customers": {
                                                    "rate": "0.0000"
                                                }
                                            },
                                            {
                                                "interval": "3_FAIXA",
                                                "value": "0.00",
                                                "currency": "BRL",
                                                "customers": {
                                                    "rate": "0.2000"
                                                }
                                            },
                                            {
                                                "interval": "4_FAIXA",
                                                "value": "2200.00",
                                                "currency": "BRL",
                                                "customers": {
                                                    "rate": "1.0000"
                                                }
                                            }
                                        ],
                                        "minimum": {
                                            "value": "0.00",
                                            "currency": "BRL"
                                        },
                                        "maximum": {
                                            "value": "2200.00",
                                            "currency": "BRL"
                                        }
                                    }
                                ]
                            },
                            "interestRates": [
                                {
                                    "referentialRateIndexer": "PRE_FIXADO",
                                    "rate": "0.0999",
                                    "applications": [
                                        {
                                            "interval": "1_FAIXA",
                                            "indexer": {
                                                "rate": "0.0000"
                                            },
                                            "customers": {
                                                "rate": "0.0000"
                                            }
                                        },
                                        {
                                            "interval": "2_FAIXA",
                                            "indexer": {
                                                "rate": "0.0000"
                                            },
                                            "customers": {
                                                "rate": "0.0000"
                                            }
                                        },
                                        {
                                            "interval": "3_FAIXA",
                                            "indexer": {
                                                "rate": "0.0000"
                                            },
                                            "customers": {
                                                "rate": "0.0000"
                                            }
                                        },
                                        {
                                            "interval": "4_FAIXA",
                                            "indexer": {
                                                "rate": "0.0999"
                                            },
                                            "customers": {
                                                "rate": "0.0999"
                                            }
                                        }
                                    ],
                                    "minimumRate": "0.0000",
                                    "maximumRate": "0.0999"
                                }
                            ],
                            "termsConditions": "https://banco.bradesco/html/classic/produtos-servicos/index.shtm"
                        }
                    ]
                }
            ]
        }
    },
    "links": {
        "first": "https://api.bradesco.com/open-banking/products-services/v1/personal-unarranged-account-overdraft?page=1&page-size=1",
        "prev": "https://api.bradesco.com/open-banking/products-services/v1/personal-unarranged-account-overdraft?page=407&page-size=1",
        "self": "https://api.bradesco.com/open-banking/products-services/v1/personal-unarranged-account-overdraft?page=408&page-size=1",
        "next": "https://api.bradesco.com/open-banking/products-services/v1/personal-unarranged-account-overdraft?page=409&page-size=1",
        "last": "https://api.bradesco.com/open-banking/products-services/v1/personal-unarranged-account-overdraft?page=9843&page-size=1"
    },
    "meta": {
        "totalRecords": 9843,
        "totalPages": 9843
    }
}