{
    "data": [
        {
            "amount": 8547.6078,
            "partieCompeCode": "001",
            "partieBranchCode": "5429",
            "partieNumber": "12583783",
            "partieCheckDigit": "7",
            "partiePersonType": "PESSOA_JURIDICA",
            "partieCnpjCpf": "79317559000108",
            "completedAuthorisedPaymentType": "TRANSACAO_EFETIVADA",
            "creditDebitType": "CREDITO",
            "type": "RESGATE_APLIC_FINANCEIRA",
            "transactionCurrency": "BRL",
            "transactionDate": "2022-01-03",
            "transactionId": "3e6532e4-11c9-498f-b547-35804859f6f3",
            "transactionName": "3e6532e4-11c9-498f-b547-35804859f6f3"
        },
        {
            "amount": 7358.1220,
            "partieCompeCode": "001",
            "partieBranchCode": "5429",
            "partieNumber": "12583783",
            "partieCheckDigit": "7",
            "partiePersonType": "PESSOA_JURIDICA",
            "partieCnpjCpf": "79317559000108",
            "completedAuthorisedPaymentType": "TRANSACAO_EFETIVADA",
            "creditDebitType": "DEBITO",
            "type": "PIX",
            "transactionCurrency": "BRL",
            "transactionDate": "2022-01-01",
            "transactionId": "8c7f1989-75b8-4f70-8916-9594085e6676",
            "transactionName": "8c7f1989-75b8-4f70-8916-9594085e6676"
        },
        {
            "amount": 9501.2324,
            "partieCompeCode": "001",
            "partieBranchCode": "5429",
            "partieNumber": "12583783",
            "partieCheckDigit": "7",
            "partiePersonType": "PESSOA_JURIDICA",
            "partieCnpjCpf": "79317559000108",
            "completedAuthorisedPaymentType": "TRANSACAO_EFETIVADA",
            "creditDebitType": "CREDITO",
            "type": "RESGATE_APLIC_FINANCEIRA",
            "transactionCurrency": "BRL",
            "transactionDate": "2021-12-28",
            "transactionId": "48698f5a-2b48-40b8-8687-29322c834f7e",
            "transactionName": "48698f5a-2b48-40b8-8687-29322c834f7e"
        },
        {
            "amount": 6107.9499,
            "partieCompeCode": "001",
            "partieBranchCode": "5429",
            "partieNumber": "12583783",
            "partieCheckDigit": "7",
            "partiePersonType": "PESSOA_JURIDICA",
            "partieCnpjCpf": "79317559000108",
            "completedAuthorisedPaymentType": "TRANSACAO_EFETIVADA",
            "creditDebitType": "DEBITO",
            "type": "SAQUE",
            "transactionCurrency": "BRL",
            "transactionDate": "2021-12-26",
            "transactionId": "044f19ce-f7b4-4ee4-81b3-bfef529f1d7c",
            "transactionName": "044f19ce-f7b4-4ee4-81b3-bfef529f1d7c"
        },
        {
            "amount": 6800.7669,
            "partieCompeCode": "001",
            "partieBranchCode": "5429",
            "partieNumber": "12583783",
            "partieCheckDigit": "7",
            "partiePersonType": "PESSOA_JURIDICA",
            "partieCnpjCpf": "79317559000108",
            "completedAuthorisedPaymentType": "TRANSACAO_EFETIVADA",
            "creditDebitType": "DEBITO",
            "type": "ENCARGOS_JUROS_CHEQUE_ESPECIAL",
            "transactionCurrency": "BRL",
            "transactionDate": "2021-12-07",
            "transactionId": "33c1c628-f431-49c2-be78-40f1314f769c",
            "transactionName": "33c1c628-f431-49c2-be78-40f1314f769c"
        },
        {
            "amount": 7362.7968,
            "partieCompeCode": "001",
            "partieBranchCode": "5429",
            "partieNumber": "12583783",
            "partieCheckDigit": "7",
            "partiePersonType": "PESSOA_JURIDICA",
            "partieCnpjCpf": "79317559000108",
            "completedAuthorisedPaymentType": "TRANSACAO_EFETIVADA",
            "creditDebitType": "DEBITO",
            "type": "PACOTE_TARIFA_SERVICOS",
            "transactionCurrency": "BRL",
            "transactionDate": "2021-12-06",
            "transactionId": "6256ab64-0613-434d-b58c-d325cb1a44e1",
            "transactionName": "6256ab64-0613-434d-b58c-d325cb1a44e1"
        },
        {
            "amount": 5897.1346,
            "partieCompeCode": "001",
            "partieBranchCode": "5429",
            "partieNumber": "12583783",
            "partieCheckDigit": "7",
            "partiePersonType": "PESSOA_JURIDICA",
            "partieCnpjCpf": "79317559000108",
            "completedAuthorisedPaymentType": "TRANSACAO_EFETIVADA",
            "creditDebitType": "CREDITO",
            "type": "OPERACAO_CREDITO",
            "transactionCurrency": "BRL",
            "transactionDate": "2021-12-05",
            "transactionId": "81aa42dc-c5b0-45e5-bd02-c7e84509ee23",
            "transactionName": "81aa42dc-c5b0-45e5-bd02-c7e84509ee23"
        },
        {
            "amount": 5794.5812,
            "partieCompeCode": "001",
            "partieBranchCode": "5429",
            "partieNumber": "12583783",
            "partieCheckDigit": "7",
            "partiePersonType": "PESSOA_JURIDICA",
            "partieCnpjCpf": "79317559000108",
            "completedAuthorisedPaymentType": "TRANSACAO_EFETIVADA",
            "creditDebitType": "CREDITO",
            "type": "PORTABILIDADE_SALARIO",
            "transactionCurrency": "BRL",
            "transactionDate": "2021-11-29",
            "transactionId": "72c4f1b1-8dad-4a9c-868f-0e6160d9e3e2",
            "transactionName": "72c4f1b1-8dad-4a9c-868f-0e6160d9e3e2"
        },
        {
            "amount": 5863.5498,
            "partieCompeCode": "001",
            "partieBranchCode": "5429",
            "partieNumber": "12583783",
            "partieCheckDigit": "7",
            "partiePersonType": "PESSOA_JURIDICA",
            "partieCnpjCpf": "79317559000108",
            "completedAuthorisedPaymentType": "TRANSACAO_EFETIVADA",
            "creditDebitType": "DEBITO",
            "type": "PACOTE_TARIFA_SERVICOS",
            "transactionCurrency": "BRL",
            "transactionDate": "2021-11-26",
            "transactionId": "ee16772e-1984-4543-851d-5ebc91a4beda",
            "transactionName": "ee16772e-1984-4543-851d-5ebc91a4beda"
        },
        {
            "amount": 9996.5963,
            "partieCompeCode": "001",
            "partieBranchCode": "5429",
            "partieNumber": "12583783",
            "partieCheckDigit": "7",
            "partiePersonType": "PESSOA_JURIDICA",
            "partieCnpjCpf": "79317559000108",
            "completedAuthorisedPaymentType": "TRANSACAO_EFETIVADA",
            "creditDebitType": "DEBITO",
            "type": "FOLHA_PAGAMENTO",
            "transactionCurrency": "BRL",
            "transactionDate": "2021-11-16",
            "transactionId": "2d1ba8e9-93b4-49b6-80b2-3705a70e71d2",
            "transactionName": "2d1ba8e9-93b4-49b6-80b2-3705a70e71d2"
        }
    ],
    "links": {
        "first": "https://opendata.api.bb.com.bropen-banking/accounts/v1/accounts/0e49a20b-33c3-42ac-876c-567c78673abd/transactions?page=1&page-size=10",
        "last": "https://opendata.api.bb.com.bropen-banking/accounts/v1/accounts/0e49a20b-33c3-42ac-876c-567c78673abd/transactions?page=6&page-size=10",
        "next": "https://opendata.api.bb.com.bropen-banking/accounts/v1/accounts/0e49a20b-33c3-42ac-876c-567c78673abd/transactions?page=5&page-size=10",
        "prev": "https://opendata.api.bb.com.bropen-banking/accounts/v1/accounts/0e49a20b-33c3-42ac-876c-567c78673abd/transactions?page=3&page-size=10",
        "self": "https://opendata.api.bb.com.bropen-banking/accounts/v1/accounts/0e49a20b-33c3-42ac-876c-567c78673abd/transactions?page=4&page-size=10"
    },
    "meta": {
        "totalRecords": 54,
        "totalPages": 6,
        "requestDateTime": "2022-03-28T00:00:00Z"
    }
}