{
    "data": [
        {
            "amount": 7422.9745,
            "partieCompeCode": "001",
            "partieBranchCode": "5429",
            "partieNumber": "12583783",
            "partieCheckDigit": "7",
            "partiePersonType": "PESSOA_JURIDICA",
            "partieCnpjCpf": "79317559000108",
            "completedAuthorisedPaymentType": "TRANSACAO_EFETIVADA",
            "creditDebitType": "CREDITO",
            "type": "DEPOSITO",
            "transactionCurrency": "BRL",
            "transactionDate": "2021-10-16",
            "transactionId": "1145c2cb-4496-49c5-9433-e89b1080670a",
            "transactionName": "1145c2cb-4496-49c5-9433-e89b1080670a"
        },
        {
            "amount": 6635.2288,
            "partieCompeCode": "001",
            "partieBranchCode": "5429",
            "partieNumber": "12583783",
            "partieCheckDigit": "7",
            "partiePersonType": "PESSOA_JURIDICA",
            "partieCnpjCpf": "79317559000108",
            "completedAuthorisedPaymentType": "TRANSACAO_EFETIVADA",
            "creditDebitType": "CREDITO",
            "type": "OPERACAO_CREDITO",
            "transactionCurrency": "BRL",
            "transactionDate": "2021-10-15",
            "transactionId": "c3807789-f42e-4881-b96f-96069880b532",
            "transactionName": "c3807789-f42e-4881-b96f-96069880b532"
        },
        {
            "amount": 92.4869,
            "partieCompeCode": "001",
            "partieBranchCode": "5429",
            "partieNumber": "12583783",
            "partieCheckDigit": "7",
            "partiePersonType": "PESSOA_JURIDICA",
            "partieCnpjCpf": "79317559000108",
            "completedAuthorisedPaymentType": "TRANSACAO_EFETIVADA",
            "creditDebitType": "DEBITO",
            "type": "DOC",
            "transactionCurrency": "BRL",
            "transactionDate": "2021-10-14",
            "transactionId": "75425614-da8b-464d-aa79-b150177b7e95",
            "transactionName": "75425614-da8b-464d-aa79-b150177b7e95"
        },
        {
            "amount": 101.1483,
            "partieCompeCode": "001",
            "partieBranchCode": "5429",
            "partieNumber": "12583783",
            "partieCheckDigit": "7",
            "partiePersonType": "PESSOA_JURIDICA",
            "partieCnpjCpf": "79317559000108",
            "completedAuthorisedPaymentType": "TRANSACAO_EFETIVADA",
            "creditDebitType": "DEBITO",
            "type": "BOLETO",
            "transactionCurrency": "BRL",
            "transactionDate": "2021-09-14",
            "transactionId": "8e4a65c9-330b-46bb-8eb4-b59c3904572c",
            "transactionName": "8e4a65c9-330b-46bb-8eb4-b59c3904572c"
        }
    ],
    "links": {
        "first": "https://opendata.api.bb.com.bropen-banking/accounts/v1/accounts/0e49a20b-33c3-42ac-876c-567c78673abd/transactions?page=1&page-size=10",
        "last": "https://opendata.api.bb.com.bropen-banking/accounts/v1/accounts/0e49a20b-33c3-42ac-876c-567c78673abd/transactions?page=6&page-size=10",
        "prev": "https://opendata.api.bb.com.bropen-banking/accounts/v1/accounts/0e49a20b-33c3-42ac-876c-567c78673abd/transactions?page=5&page-size=10",
        "self": "https://opendata.api.bb.com.bropen-banking/accounts/v1/accounts/0e49a20b-33c3-42ac-876c-567c78673abd/transactions?page=6&page-size=10"
    },
    "meta": {
        "totalRecords": 54,
        "totalPages": 6,
        "requestDateTime": "2022-03-28T00:00:00Z"
    }
}