{
  "data": [
    {
      "contractId": "83d4007e-7125-36a3-95da-30f1956caecc",
      "brandName": "Caixa Econômica Federal",
      "companyCnpj": "00360305000104",
      "productType": "FINANCIAMENTOS_IMOBILIARIOS",
      "productSubType": "FINANCIAMENTO_HABITACIONAL_SFH",
      "ipocCode": "00360305090112872886281368996510210008745" 
    },
    {
      "contractId": "b8f7ccd3-4630-34ce-ad5b-733209dd0854",
      "brandName": "Caixa Econômica Federal",
      "companyCnpj": "00360305000104",
      "productType": "FINANCIAMENTOS_IMOBILIARIOS",
      "productSubType": "FINANCIAMENTO_HABITACIONAL_EXCETO_SFH",
      "ipocCode": "00360305090212872886281368902687455120125" 
    }
  ],
  "links": {
    "self": "https://api.caixa.gov.br/open-banking/financings/v1/contracts?page=2&page-size=2",
    "first": "https://api.caixa.gov.br/open-banking/financings/v1/contracts?page=1&page-size=2",
    "prev": "https://api.caixa.gov.br/open-banking/financings/v1/contracts?page=1&page-size=2",
    "next": "https://api.caixa.gov.br/open-banking/financings/v1/contracts?page=3&page-size=2",
    "last": "https://api.caixa.gov.br/open-banking/financings/v1/contracts?page=3&page-size=2"
  },
  "meta": {
    "totalRecords": 5,
    "totalPages": 3,
    "requestDateTime": "2021-09-02T08:38:00Z"
  }
} 