{
  "data": {
    "brand": {
      "name": "Agencia 0718 - Alto Paraná",
      "companies": [
        {
          "name": "COOPERATIVA DE CRÉDITO, POUPANÇA E INVESTIMENTO RIO PARANÁ - SICREDI RIO PARANÁ PR/SP",
          "cnpjNumber": "81206039000161",
          "urlComplementaryList": "https://www.sicredi.com.br/site/atendimento/telefones",
          "phoneChannels": [
            {
              "identification": {
                "type": "SAC",
                "phones": [
                  {
                    "countryCallingCode": "55",
                    "areaCode": "51",
                    "number": "33784472",
                    "additionalInfo": "Chamada Internacional (ligação a cobrar)"
                  },
                  {
                    "countryCallingCode": "55",
                    "areaCode": "NA",
                    "number": "08007247220",
                    "additionalInfo": "Informações, elogios e reclamações"
                  },
                  {
                    "countryCallingCode": "55",
                    "areaCode": "NA",
                    "number": "08007240525",
                    "additionalInfo": "Deficientes auditivos ou de fala"
                  }
                ]
              },
              "services": [
                {
                  "name": "INFORMACOES",
                  "code": "INFORMACOES"
                },
                {
                  "name": "RECLAMACOES",
                  "code": "RECLAMACOES"
                }
              ]
            },
            {
              "identification": {
                "type": "OUVIDORIA",
                "phones": [
                  {
                    "countryCallingCode": "55",
                    "areaCode": "NA",
                    "number": "08006462519",
                    "additionalInfo": "De segunda a sexta-feira, das 9h às 18h, exceto feriados."
                  }
                ]
              },
              "services": [
                {
                  "name": "OUTROS_PRODUTOS_SERVICOS",
                  "code": "OUTROS_PRODUTOS_SERVICOS",
                  "additionalInfo":"Consultar andamento de reclamações"
                }
              ]
            },
            {
              "identification": {
                "type": "CENTRAL_TELEFONICA",
                "phones": [
                  {
                    "countryCallingCode": "55",
                    "areaCode": "51",
                    "number": "30034770",
                    "additionalInfo": "Capitais e regiões metropolitanas – Atendimento, Cartões, Sustação provisória de cheques e demais produtos e serviços.* (custo de uma ligação local)"
                  },
                  {
                    "countryCallingCode": "55",
                    "areaCode": "NA",
                    "number": "08007244770",
                    "additionalInfo": "Demais regiões - Atendimento, Cartões, Sustação provisória de cheques e demais produtos e serviços.  "
                  }
                ]
              },
              "services": [
                {
                  "name": "CARTAO_CREDITO",
                  "code": "CARTAO_CREDITO"
                },
                {
                  "name": "CONSULTA_SALDOS_EXTRATOS_CONTAS_DEPOSITOS_CONTAS_PAGAMENTOS",
                  "code": "CONSULTA_SALDOS_EXTRATOS_CONTAS_DEPOSITOS_PAGTOS"
                },
                {
                  "name": "OUTROS_PRODUTOS_SERVICOS",
                  "code": "OUTROS_PRODUTOS_SERVICOS",
                  "additionalInfo": "Consultas em geral"
                }
              ]
            }
          ]
        }
      ]
    }
  },
  "links": {
    "self": "https://api.sicredi.com.br/open-banking/channels/v1/phone-channels?page=1&page-size=1",
    "first": "https://api.sicredi.com.br/open-banking/channels/v1/phone-channels?page=1&page-size=1",
    "next": "https://api.sicredi.com.br/open-banking/channels/v1/phone-channels?page=2&page-size=1",
    "last": "https://api.sicredi.com.br/open-banking/channels/v1/phone-channels?page=50&page-size=1"
  },
  "meta": {
    "totalRecords": 50,
    "totalPages": 50
  }
}