{
  "data": {
    "brand": {
      "name": "Banco Cooperativo Sicredi S.A. – Bansicredi",
      "companies": [
        {
          "name": "COOPERATIVA DE CRÉDITO, POUPANÇA E INVESTIMENTO RIO PARANÁ - SICREDI RIO PARANÁ PR/SP",
          "cnpjNumber": "81206039000161",
          "contractors": [
            {
              "name": "Sicredi União PR/SP",
              "cnpjNumber": "79342069000153",
              "bankingAgents": [
                {
                  "identification": {
                    "corporationName": "Regional Sicredi Paraná",
                    "cnpjNumber": "02345876000299",
                    "isUnderestablishment": true
                  },
                  "locations": [
                    {
                      "postalAddress": {
                        "address": "Praça Rui Barbosa, 161",
                        "districtName": "Centro",
                        "townName": "Alto Paraná",
                        "countrySubDivision": "SP",
                        "postCode": "17500001",
                        "ibgeCode": "4100608",
                        "country": "Brasil",
                        "countryCode": "BRA",
                        "geographicCoordinates": {
                          "latitude": "-23.1312007",
                          "longitude": "-52.3232255"
                        }
                      },
                      "phones": [
                        {
                          "type": "FIXO",
                          "countryCallingCode": "55",
                          "areaCode": "44",
                          "number": "34478300"
                        }
                      ],
                      "availability": {
                        "standards": [
                          {
                            "weekday": "SEGUNDA_FEIRA",
                            "openingTime": "08:00:00Z",
                            "closingTime": "15:00:00Z"
                          },
                          {
                            "weekday": "TERCA_FEIRA",
                            "openingTime": "08:00:00Z",
                            "closingTime": "15:00:00Z"
                          },
                          {
                            "weekday": "QUARTA_FEIRA",
                            "openingTime": "08:00:00Z",
                            "closingTime": "15:00:00Z"
                          },
                          {
                            "weekday": "QUINTA_FEIRA",
                            "openingTime": "08:00:00Z",
                            "closingTime": "15:00:00Z"
                          },
                          {
                            "weekday": "SEXTA_FEIRA",
                            "openingTime": "08:00:00Z",
                            "closingTime": "15:00:00Z"
                          }
                        ],
                        "exception": "Exceto feriados municipais, estaduais e nacionais",
                        "isPublicAccessAllowed": false
                      }
                    }
                  ],
                  "services": [
                    {
                      "name": "RECEPCAO_ENCAMINHAMENTO_PROPOSTAS_ABERTURA_CONTAS_DEPOSITOS_VISTA_PRAZO_POUPANCA_MANTIDOS_INSTITUICAO_CONTRATANTE",
                      "code": "RECEBE_ENCAMINHA_PROPOSTAS_ABERTURA_CONTAS"
                    },
                    {
                      "name": "REALIZACAO_RECEBIMENTOS_PAGAMENTOS_TRANSFERENCIAS_ELETRONICAS_VISANDO_MOVIMENTACAO_CONTAS_DEPOSITOS_TITULARIDADE_CLIENTES_MANTIDAS_INSTITUICAO_CONTRATANTE",
                      "code": "REALIZA_RECEBIMENTOS_PAGAMENTOS_TRANSFERENCIAS_ELETRONICAS"
                    },
                    {
                      "name": "RECEBIMENTOS_PAGAMENTOS_QUALQUER_NATUREZA_OUTRAS_ATIVIDADES_DECORRENTES_EXECUCAO_CONTRATOS_CONVENIOS_PRESTACAO_SERVICOS",
                      "code": "RECEBIMENTOS_PAGAMENTOS_QUALQUER_NATUREZA_EXECUCAO_CONTRATOS_CONVENIO"
                    },
                    {
                      "name": "EXECUCAO_ATIVA_PASSIVA_ORDENS_PAGAMENTO_CURSADAS_INTERMEDIO_INSTITUICAO_CONTRATANTE_SOLICITACAO_CLIENTES_USUARIOS",
                      "code": "EXECUCAO_ATIVA_PASSIVA_ORDENS_PAGAMENTO"
                    },
                    {
                      "name": "RECEPCAO_ENCAMINHAMENTO_PROPOSTAS_OPERACAO_CREDITO_ARRENDAMENTO_MERCANTIL_CONCESSAO_INSTITUICAO_CONTRATANTE",
                      "code": "RECEBE_ENCAMINHA_PROPOSTAS_CREDITO_ARRENDAMENTO_MERCANTIL"
                    },
                    {
                      "name": "RECEBIMENTOS_PAGAMENTOS_RELACIONADOS_LETRAS_CAMBIO_ACEITE_INSTITUICAO_CONTRATANTE",
                      "code": "RECEBE_PAGAMENTOS_RELACIONADOS_LETRAS_CAMBIO_ACEITE_INSTITUICAO"
                    },
                    {
                      "name": "RECEPCAO_ENCAMINHAMENTO_PROPOSTAS_FORNECIMENTO_CARTAO_CREDITO_RESPONSABILIDADE_INSTITUICAO_CONTRATANTE",
                      "code": "RECEBE_ENCAMINHA_PROPOSTAS_FORNECIMENTO_CARTAO_CREDITO"
                    },
                    {
                      "name": "REALIZACAO_OPERACOES_CAMBIO_RESPONSABILIDADE_INSTITUICAO_CONTRATANTE",
                      "code": "REALIZA_OPERACOES_CAMBIO"
                    },
                    {
                      "name": "OUTROS",
                      "code": "OUTROS",
                      "additionalInfo": "Renegociação"
                    }
                  ]
                }
              ]
            }
          ]
        }
      ]
    }
  },
  "links": {
    "self": "https://api.sicredi.com.br/open-banking/channels/v1/banking-agents?page=1&page-size=1",
    "next": "https://api.sicredi.com.br/open-banking/channels/v1/banking-agents?page=2&page-size=1",
    "last": "https://api.sicredi.com.br/open-banking/channels/v1/banking-agents?page=100&page-size=1",
    "first": "https://api.sicredi.com.br/open-banking/channels/v1/banking-agents?page=1&page-size=1"
  },
  "meta": {
    "totalRecords": 100,
    "totalPages": 100
  }
}