{
    "data": [
        {
            "currency": "BRL",
            "warrantyType": "HIPOTECA",
            "warrantySubType": "OUTROS_IMOVEIS",
            "warrantyAmount": 100000.00
        },
        {
            "currency": "BRL",
            "warrantyType": "HIPOTECA",
            "warrantySubType": "OUTROS_IMOVEIS",
            "warrantyAmount": 105000.00
        },
        {
            "currency": "BRL",
            "warrantyType": "HIPOTECA",
            "warrantySubType": "OUTROS_IMOVEIS",
            "warrantyAmount": 110000.00
        },
        {
            "currency": "BRL",
            "warrantyType": "HIPOTECA",
            "warrantySubType": "OUTROS_IMOVEIS",
            "warrantyAmount": 115000.00
        },
        {
            "currency": "BRL",
            "warrantyType": "HIPOTECA",
            "warrantySubType": "OUTROS_IMOVEIS",
            "warrantyAmount": 120000.00
        },
        {
            "currency": "BRL",
            "warrantyType": "HIPOTECA",
            "warrantySubType": "OUTROS_IMOVEIS",
            "warrantyAmount": 125000.00
        },
        {
            "currency": "BRL",
            "warrantyType": "BENS_ARRENDADOS",
            "warrantySubType": "OUTROS_IMOVEIS",
            "warrantyAmount": 190000.00
        },
        {
            "currency": "BRL",
            "warrantyType": "BENS_ARRENDADOS",
            "warrantySubType": "OUTROS_IMOVEIS",
            "warrantyAmount": 185000.00
        },
        {
            "currency": "BRL",
            "warrantyType": "BENS_ARRENDADOS",
            "warrantySubType": "OUTROS_IMOVEIS",
            "warrantyAmount": 180000.00
        },
        {
            "currency": "BRL",
            "warrantyType": "BENS_ARRENDADOS",
            "warrantySubType": "OUTROS_IMOVEIS",
            "warrantyAmount": 175000.00
        },
        {
            "currency": "BRL",
            "warrantyType": "BENS_ARRENDADOS",
            "warrantySubType": "OUTROS_IMOVEIS",
            "warrantyAmount": 170000.00
        },
        {
            "currency": "BRL",
            "warrantyType": "BENS_ARRENDADOS",
            "warrantySubType": "OUTROS_IMOVEIS",
            "warrantyAmount": 165000.00
        },
        {
            "currency": "BRL",
            "warrantyType": "BENS_ARRENDADOS",
            "warrantySubType": "OUTROS_IMOVEIS",
            "warrantyAmount": 165000.00
        },
        {
            "currency": "BRL",
            "warrantyType": "BENS_ARRENDADOS",
            "warrantySubType": "OUTROS_IMOVEIS",
            "warrantyAmount": 160000.00
        },
        {
            "currency": "BRL",
            "warrantyType": "BENS_ARRENDADOS",
            "warrantySubType": "OUTROS_IMOVEIS",
            "warrantyAmount": 155000.00
        },
        {
            "currency": "BRL",
            "warrantyType": "BENS_ARRENDADOS",
            "warrantySubType": "OUTROS_IMOVEIS",
            "warrantyAmount": 150000.00
        },
        {
            "currency": "BRL",
            "warrantyType": "BENS_ARRENDADOS",
            "warrantySubType": "OUTROS_IMOVEIS",
            "warrantyAmount": 145000.00
        },
        {
            "currency": "BRL",
            "warrantyType": "BENS_ARRENDADOS",
            "warrantySubType": "OUTROS_IMOVEIS",
            "warrantyAmount": 140000.00
        },
        {
            "currency": "BRL",
            "warrantyType": "BENS_ARRENDADOS",
            "warrantySubType": "OUTROS_IMOVEIS",
            "warrantyAmount": 135000.00
        },
        {
            "currency": "BRL",
            "warrantyType": "BENS_ARRENDADOS",
            "warrantySubType": "OUTROS_IMOVEIS",
            "warrantyAmount": 100000.00
        },
        {
            "currency": "BRL",
            "warrantyType": "BENS_ARRENDADOS",
            "warrantySubType": "OUTROS_IMOVEIS",
            "warrantyAmount": 105000.00
        },
        {
            "currency": "BRL",
            "warrantyType": "BENS_ARRENDADOS",
            "warrantySubType": "OUTROS_IMOVEIS",
            "warrantyAmount": 110000.00
        },
        {
            "currency": "BRL",
            "warrantyType": "BENS_ARRENDADOS",
            "warrantySubType": "OUTROS_IMOVEIS",
            "warrantyAmount": 115000.00
        },
        {
            "currency": "BRL",
            "warrantyType": "BENS_ARRENDADOS",
            "warrantySubType": "OUTROS_IMOVEIS",
            "warrantyAmount": 120000.00
        },
        {
            "currency": "BRL",
            "warrantyType": "BENS_ARRENDADOS",
            "warrantySubType": "OUTROS_IMOVEIS",
            "warrantyAmount": 125000.00
        }
    ],
    "links": {
        "self": "https://opendata.api.bb.com.br/open-banking/loans/v1/contracts/5d18c5fe-ba69-3a9e-a343-dca4d2a1cf6c/warranties?page=2&page-size=25",
        "next": "https://opendata.api.bb.com.br/open-banking/loans/v1/contracts/5d18c5fe-ba69-3a9e-a343-dca4d2a1cf6c/warranties?page=3&page-size=25",
        "last": "https://opendata.api.bb.com.br/open-banking/loans/v1/contracts/5d18c5fe-ba69-3a9e-a343-dca4d2a1cf6c/warranties?page=3&page-size=25",
        "prev": "https://opendata.api.bb.com.br/open-banking/loans/v1/contracts/5d18c5fe-ba69-3a9e-a343-dca4d2a1cf6c/warranties?page=1&page-size=25",
        "first": "https://opendata.api.bb.com.br/open-banking/loans/v1/contracts/5d18c5fe-ba69-3a9e-a343-dca4d2a1cf6c/warranties?page=1&page-size=25"
    },
    "meta": {
        "totalRecords": 51,
        "totalPages": 3,
        "requestDateTime": "2021-12-07T15:40:00Z"
    }
}