{
  "data": [
    {
      "creditCardAccountId": "0cd8e31e-db2d-11eb-8d19-0242ac130003",
      "brandName": "Caixa Econômica Federal",
      "companyCnpj": "00360305000104",
      "name": "Infinite",
      "productType": "EMPRESARIAL",
      "creditCardNetwork": "VISA"
    }
  ],
  "links": {
    "self": "https://api.caixa.gov.br/open-banking/credit-cards-accounts/v1/accounts?page=3&page-size=5",
    "prev": "https://api.caixa.gov.br/open-banking/credit-cards-accounts/v1/accounts?page=2&page-size=5",
    "first": "https://api.caixa.gov.br/open-banking/credit-cards-accounts/v1/accounts?page=1&page-size=5",
    "last": "https://api.caixa.gov.br/open-banking/credit-cards-accounts/v1/accounts?page=3&page-size=5"
  },
  "meta": {
    "totalRecords": 5,
    "totalPages": 3,
    "requestDateTime": "2022-09-16T11:04:00Z"
  }
}