{
  "data": [
    {
      "creditCardAccountId": "5cd65564-db2c-11eb-8d19-0242ac130003",
      "brandName": "Caixa Econômica Federal",
      "companyCnpj": "00360305000104",
      "name": "Construcard",
      "productType": "OUTROS",
      "productAdditionalInfo":"CONSTRUCARD",
      "creditCardNetwork": "OUTRAS",
      "networkAdditionalInfo": "CARTAO CAIXA EMPRESARIAL"
    },
    {
      "creditCardAccountId": "601c977e-db2c-11eb-8d19-0242ac130003",
      "brandName": "Caixa Econômica Federal",
      "companyCnpj": "00360305000104",
      "name": "Cartão corporativo",
      "productType": "CORPORATIVO",
      "creditCardNetwork": "BANDEIRA_PROPRIA"
    }
  ],
  "links": {
    "self": "https://api.caixa.gov.br/open-banking/credit-cards-accounts/v1/accounts?page=1&page-size=2",
    "first": "https://api.caixa.gov.br/open-banking/credit-cards-accounts/v1/accounts?page=1&page-size=2",
    "next": "https://api.caixa.gov.br/open-banking/credit-cards-accounts/v1/accounts?page=2&page-size=2",
    "last": "https://api.caixa.gov.br/open-banking/credit-cards-accounts/v1/accounts?page=3&page-size=2"
  },
  "meta": {
    "totalRecords": 5,
    "totalPages": 3,
    "requestDateTime": "2022-09-16T11:04:00Z"
  }
}